<?xml version="1.0" encoding="UTF-8" standalone="no"?>
<!-- Created with Inkscape (http://www.inkscape.org/) -->

<svg
   xmlns:dc="http://purl.org/dc/elements/1.1/"
   xmlns:cc="http://creativecommons.org/ns#"
   xmlns:rdf="http://www.w3.org/1999/02/22-rdf-syntax-ns#"
   xmlns:svg="http://www.w3.org/2000/svg"
   xmlns="http://www.w3.org/2000/svg"
   xmlns:xlink="http://www.w3.org/1999/xlink"
   xmlns:sodipodi="http://sodipodi.sourceforge.net/DTD/sodipodi-0.dtd"
   xmlns:inkscape="http://www.inkscape.org/namespaces/inkscape"
   id="svg2"
   version="1.1"
   inkscape:version="0.48.5 r10040"
   width="2481"
   height="3503"
   sodipodi:docname="Pepper-and-Carrot_by-David-Revoy_E09P03.svg">
  <metadata
     id="metadata8">
    <rdf:RDF>
      <cc:Work
         rdf:about="">
        <dc:format>image/svg+xml</dc:format>
        <dc:type
           rdf:resource="http://purl.org/dc/dcmitype/StillImage" />
        <dc:title />
      </cc:Work>
    </rdf:RDF>
  </metadata>
  <defs
     id="defs6" />
  <sodipodi:namedview
     pagecolor="#ffffff"
     bordercolor="#666666"
     borderopacity="1"
     objecttolerance="10"
     gridtolerance="10"
     guidetolerance="10"
     inkscape:pageopacity="0"
     inkscape:pageshadow="2"
     inkscape:window-width="1292"
     inkscape:window-height="745"
     id="namedview4"
     showgrid="false"
     inkscape:zoom="0.40000001"
     inkscape:cx="1295.9886"
     inkscape:cy="614.95765"
     inkscape:window-x="66"
     inkscape:window-y="-8"
     inkscape:window-maximized="1"
     inkscape:current-layer="layer1" />
  <g
     inkscape:groupmode="layer"
     id="layer2"
     inkscape:label="artwork"
     sodipodi:insensitive="true">
    <image
       sodipodi:absref="C:\Users\Gwen\Documents\Academie_du_Gallo\Traduction_BD\peppercarrot_ep09_translation-master\go\../gfx_Pepper-and-Carrot_by-David-Revoy_E09P03.png"
       xlink:href="../gfx_Pepper-and-Carrot_by-David-Revoy_E09P03.png"
       y="0"
       x="0"
       id="image10"
       height="3503"
       width="2481" />
  </g>
  <g
     inkscape:groupmode="layer"
     id="layer3"
     inkscape:label="speechbubbles" />
  <g
     inkscape:groupmode="layer"
     id="layer1"
     inkscape:label="txt">
    <path
       style="fill:#ffffff;fill-rule:evenodd;stroke:none"
       d="m 1018.1548,2648.381 c 0,0 5.1225,-19.9846 29.4549,-24.4257 24.3325,-4.4409 48.6647,12.2129 48.6647,12.2129 0,0 7.6839,-21.0949 29.4549,-22.2051 21.7711,-1.1105 44.8229,15.5435 44.8229,15.5435 0,0 5.1226,-14.4333 19.2098,-14.4333 14.087,0 29.4549,12.2129 29.4549,12.2129 0,0 20.4903,-11.1028 37.1388,-11.1028 16.6485,0 44.8227,11.1028 44.8227,11.1028 0,0 11.5259,-7.7718 24.3325,-7.7718 12.8065,0 32.0162,13.3231 32.0162,13.3231 0,0 15.3678,-18.8744 32.0163,-17.7642 16.6485,1.1101 38.4195,15.5435 38.4195,15.5435 0,0 20.4903,-11.1024 32.0163,-8.882 11.5257,2.2205 34.5775,18.8745 34.5775,18.8745 0,0 1.2805,-5.5514 14.0872,-2.2206 12.8065,3.3308 21.7709,12.2129 21.7709,12.2129 0,0 23.0518,-5.5513 40.9809,11.1026 17.929,16.654 15.3679,36.6387 15.3679,36.6387 0,0 8.9645,14.4333 8.9645,25.5358 0,11.1028 -12.8066,21.0951 -12.8066,21.0951 0,0 19.2099,24.4257 8.9646,45.5207 -10.2452,21.0949 -25.613,19.9847 -25.613,19.9847 0,0 2.5613,11.1026 -2.5613,14.4334 -5.1225,3.3308 -21.771,4.4411 -21.771,4.4411 0,0 3.8419,12.2128 -19.2099,27.7564 -23.0515,15.5438 -75.5583,18.8745 -75.5583,18.8745 0,0 -16.6484,17.7641 -38.4196,24.4257 -21.771,6.6616 -52.5064,1.1104 -52.5064,1.1104 0,0 -7.6842,18.8743 -33.297,21.0949 -25.613,2.2205 -66.5939,-12.2129 -66.5939,-12.2129 0,0 -29.455,23.3155 -56.3486,17.7642 -26.8936,-5.5513 -37.1388,-17.7642 -37.1388,-17.7642 0,0 -23.0517,6.6616 -47.384,-2.2204 -24.3325,-8.8822 -32.0164,-22.2053 -32.0164,-22.2053 0,0 -29.455,4.441 -49.9453,0 -20.4905,-4.441 -39.70019,-26.6463 -39.70019,-26.6463 0,0 -32.01635,-3.3307 -51.22613,-22.2052 -19.20966,-18.8746 -15.36777,-43.3002 -15.36777,-43.3002 0,0 -24.33234,-21.095 -21.77104,-35.5284 2.5613,-14.4333 21.77104,-32.1975 21.77104,-32.1975 0,0 -11.52583,-13.3232 -7.68388,-22.2053 3.84199,-8.882 19.20978,-13.3231 19.20978,-13.3231 0,0 -19.20978,-26.6463 15.36776,-43.3002 34.57759,-16.654 64.03263,1.1102 64.03263,1.1102 z"
       id="path4136"
       inkscape:connector-curvature="0" />
    <path
       style="fill:#ffffff;fill-rule:evenodd;stroke:none;stroke-width:1px;stroke-linecap:butt;stroke-linejoin:miter;stroke-opacity:1"
       d="m 1433.1958,2917.298 c 0,0 6.896,-20.2401 28.3503,-10.1201 21.4544,10.1201 13.7921,23.3539 13.7921,23.3539 0,0 23.7531,10.8985 6.896,23.3539 -16.857,12.4555 -35.2464,4.6708 -35.2464,4.6708 0,0 -39.8438,9.3416 -48.2723,-17.1262 -8.4285,-26.4677 34.4803,-24.1323 34.4803,-24.1323 z"
       id="path4138"
       inkscape:connector-curvature="0" />
    <path
       style="fill:#ffffff;fill-rule:evenodd;stroke:none;stroke-width:1px;stroke-linecap:butt;stroke-linejoin:miter;stroke-opacity:1"
       d="m 1520.9124,2978.6737 c 0,0 6.8862,-6.9242 15.8384,0.5769 8.9521,7.5013 3.443,13.2714 3.443,13.2714 0,0 6.1977,10.9633 -6.1976,14.4254 -12.3953,3.4621 -21.3474,-5.7701 -21.3474,-5.7701 0,0 -24.1019,1.731 -22.036,-15.0025 2.0659,-16.7334 19.9701,-17.3104 30.2996,-7.5011 z"
       id="path4140"
       inkscape:connector-curvature="0" />
    <flowRoot
       xml:space="preserve"
       id="flowRoot2987-4-9-3"
       style="font-size:12px;font-style:normal;font-variant:normal;font-weight:normal;font-stretch:normal;text-align:center;line-height:125%;letter-spacing:0px;word-spacing:0px;text-anchor:middle;fill:#000000;fill-opacity:1;stroke:none;font-family:Lavi;-inkscape-font-specification:Lavi"
       transform="translate(830.41194,2407.9931)"><flowRegion
         id="flowRegion2989-5-4-5"><rect
           id="rect2991-7-9-6"
           width="602.40173"
           height="310.73996"
           x="120.55251"
           y="265.53046"
           style="font-style:normal;font-variant:normal;font-weight:normal;font-stretch:normal;text-align:center;text-anchor:middle;font-family:Lavi;-inkscape-font-specification:Lavi" /></flowRegion><flowPara
         style="font-size:48px;text-align:center;text-anchor:middle"
         id="flowPara4158">Paovr nochette de Pepper ! 'ét trop tard astoure, </flowPara><flowPara
         style="font-size:48px;text-align:center;text-anchor:middle"
         id="flowPara5962">il ont une heinje sus mai…</flowPara></flowRoot>  </g>
</svg>
