<?xml version="1.0" encoding="UTF-8" standalone="no"?>
<!-- Created with Inkscape (http://www.inkscape.org/) -->

<svg
   xmlns:dc="http://purl.org/dc/elements/1.1/"
   xmlns:cc="http://creativecommons.org/ns#"
   xmlns:rdf="http://www.w3.org/1999/02/22-rdf-syntax-ns#"
   xmlns:svg="http://www.w3.org/2000/svg"
   xmlns="http://www.w3.org/2000/svg"
   xmlns:xlink="http://www.w3.org/1999/xlink"
   xmlns:sodipodi="http://sodipodi.sourceforge.net/DTD/sodipodi-0.dtd"
   xmlns:inkscape="http://www.inkscape.org/namespaces/inkscape"
   id="svg2"
   version="1.1"
   inkscape:version="0.92.3 (2405546, 2018-03-11)"
   width="2481"
   height="3503"
   sodipodi:docname="E27P01.svg">
  <metadata
     id="metadata8">
    <rdf:RDF>
      <cc:Work
         rdf:about="">
        <dc:format>image/svg+xml</dc:format>
        <dc:type
           rdf:resource="http://purl.org/dc/dcmitype/StillImage" />
        <dc:title />
      </cc:Work>
    </rdf:RDF>
  </metadata>
  <defs
     id="defs6">
    <linearGradient
       id="linearGradient3873">
      <stop
         style="stop-color:#97775d;stop-opacity:1;"
         offset="0"
         id="stop3875" />
      <stop
         style="stop-color:#e4cf91;stop-opacity:1;"
         offset="1"
         id="stop3877" />
    </linearGradient>
    <linearGradient
       id="linearGradient964">
      <stop
         style="stop-color:#918a6f;stop-opacity:1;"
         offset="0"
         id="stop960" />
      <stop
         id="stop3871"
         offset="0.5"
         style="stop-color:#c2bb9f;stop-opacity:1;" />
      <stop
         style="stop-color:#ede4c7;stop-opacity:1;"
         offset="1"
         id="stop962" />
    </linearGradient>
    <linearGradient
       inkscape:collect="always"
       id="linearGradient928">
      <stop
         style="stop-color:#f3efe0;stop-opacity:1"
         offset="0"
         id="stop924" />
      <stop
         style="stop-color:#d9cc9d;stop-opacity:1"
         offset="1"
         id="stop926" />
    </linearGradient>
    <filter
       inkscape:collect="always"
       style="color-interpolation-filters:sRGB"
       id="filter4210"
       x="-0.0015578248"
       width="1.0031157"
       y="-0.0045528179"
       height="1.0091056">
      <feGaussianBlur
         inkscape:collect="always"
         stdDeviation="0.2079876"
         id="feGaussianBlur4212" />
    </filter>
    <filter
       inkscape:collect="always"
       style="color-interpolation-filters:sRGB"
       id="filter4210-3"
       x="-0.0015578248"
       width="1.0031157"
       y="-0.0045528179"
       height="1.0091056">
      <feGaussianBlur
         inkscape:collect="always"
         stdDeviation="0.2079876"
         id="feGaussianBlur4212-9" />
    </filter>
    <linearGradient
       inkscape:collect="always"
       xlink:href="#linearGradient928"
       id="linearGradient3861"
       x1="140.77383"
       y1="225.10059"
       x2="574.89362"
       y2="225.10059"
       gradientUnits="userSpaceOnUse" />
    <linearGradient
       inkscape:collect="always"
       xlink:href="#linearGradient964"
       id="linearGradient3869"
       x1="509.97211"
       y1="249.10326"
       x2="630.64081"
       y2="249.10326"
       gradientUnits="userSpaceOnUse" />
    <linearGradient
       inkscape:collect="always"
       xlink:href="#linearGradient3873"
       id="linearGradient3879"
       x1="142.13241"
       y1="307.07765"
       x2="190.46709"
       y2="307.07765"
       gradientUnits="userSpaceOnUse" />
    <linearGradient
       inkscape:collect="always"
       xlink:href="#linearGradient3873"
       id="linearGradient3887"
       x1="545.32031"
       y1="299.97089"
       x2="491.25195"
       y2="306.18793"
       gradientUnits="userSpaceOnUse" />
  </defs>
  <sodipodi:namedview
     pagecolor="#ffffff"
     bordercolor="#666666"
     borderopacity="1"
     objecttolerance="10"
     gridtolerance="10"
     guidetolerance="10"
     inkscape:pageopacity="0"
     inkscape:pageshadow="2"
     inkscape:window-width="1920"
     inkscape:window-height="1025"
     id="namedview4"
     showgrid="false"
     inkscape:zoom="0.62555421"
     inkscape:cx="1456.9701"
     inkscape:cy="1307.7468"
     inkscape:window-x="0"
     inkscape:window-y="26"
     inkscape:window-maximized="1"
     inkscape:current-layer="layer1"
     inkscape:snap-global="false" />
  <g
     inkscape:groupmode="layer"
     id="layer2"
     inkscape:label="artwork">
    <image
       sodipodi:absref="/home/deevad/peppercarrot/webcomics/ep27_Coriander-s-Invention/lang/vi/../gfx_Pepper-and-Carrot_by-David-Revoy_E27P01.png"
       xlink:href="../gfx_Pepper-and-Carrot_by-David-Revoy_E27P01.png"
       width="2481"
       height="3503"
       id="image10"
       x="0"
       y="0" />
  </g>
  <g
     inkscape:groupmode="layer"
     id="layer3"
     inkscape:label="speechbubbles">
    <path
       style="fill:#ffffff;fill-rule:evenodd;stroke:none;stroke-width:1px;stroke-linecap:butt;stroke-linejoin:miter;stroke-opacity:1"
       d="m 410.23752,1797.171 c 0.11332,-42.2598 35.83439,-58.327 52.41573,-64.4994 16.58133,-6.1724 126.19296,-17.0792 156.77055,-15.7583 30.57758,1.321 119.7586,6.5203 145.19937,22.7436 25.44078,16.2231 44.48053,43.6165 46.97561,63.51 2.49508,19.8936 -3.29474,44.7448 -17.34766,58.3813 -14.05292,13.6366 -58.0771,33.4043 -81.01945,35.8317 -22.94235,2.4273 -141.43675,-0.3609 -161.8207,-1.6559 -20.38395,-1.295 -70.05795,-8.8793 -87.86682,-20.1113 -17.80888,-11.232 -48.35313,-24.9824 -53.30663,-78.4417 z"
       id="path1371"
       inkscape:connector-curvature="0"
       sodipodi:nodetypes="csccscscsc" />
    <path
       style="fill:#ffffff;fill-rule:evenodd;stroke:none;stroke-width:1px;stroke-linecap:butt;stroke-linejoin:miter;stroke-opacity:1"
       d="m 686.45974,1880.2247 c 44.39811,49.0647 82.31113,72.1949 226.38521,65.9802 144.07415,-6.2147 259.30275,-47.8428 331.33975,-14.2833 -70.9757,-31.1157 -238.5537,21.7759 -308.13415,25.4908 -85.56941,6.1866 -198.69784,15.5262 -270.73489,-67.7509 -3.85912,-26.1017 21.14408,-9.4368 21.14408,-9.4368 z"
       id="path1373"
       inkscape:connector-curvature="0"
       sodipodi:nodetypes="cscccc" />
    <path
       style="fill:#ffffff;fill-rule:evenodd;stroke:none;stroke-width:0.67138088px;stroke-linecap:butt;stroke-linejoin:miter;stroke-opacity:1"
       d="m 355.48399,2454.8079 c 10.4805,-21.0844 34.93498,-29.0622 52.40249,-33.6209 17.46749,-4.5587 72.66476,-6.2684 89.43356,-5.1286 16.76878,1.1396 90.83094,6.2683 111.09324,14.2462 20.26228,7.9778 36.33238,21.6541 34.23627,42.7384 -1.21892,12.2611 -3.49348,46.1575 -25.85188,56.9846 -22.35839,10.8271 -74.76086,15.3858 -105.50364,16.5256 -30.74279,1.1395 -81.04917,1.1395 -108.29846,-10.2573 -27.24928,-11.3969 -37.03107,-30.7717 -44.01807,-41.5988 -6.98699,-10.827 -3.49351,-39.8892 -3.49351,-39.8892 z"
       id="path1381"
       inkscape:connector-curvature="0"
       sodipodi:nodetypes="csssscccsc" />
    <path
       style="fill:#ffffff;fill-rule:evenodd;stroke:none;stroke-width:0.99999994px;stroke-linecap:butt;stroke-linejoin:miter;stroke-opacity:1"
       d="m 521.21334,2517.9278 c 14.59223,33.5128 26.0029,48.9812 67.83396,39.5558 41.83105,-9.4256 108.5282,-16.3248 141.78674,1.4788 29.28137,15.6746 51.90739,13.079 121.7666,131.8501 -56.77814,-114.9266 -99.32551,-134.2862 -123.35037,-143.8201 -24.59626,-9.7606 -55.76454,-20.3814 -126.39262,-4.6406 -32.1029,7.3309 -47.44956,5.5181 -53.3456,-33.119 -10.70097,-20.9453 -28.29871,8.695 -28.29871,8.695 z"
       id="path1383"
       inkscape:connector-curvature="0"
       sodipodi:nodetypes="csscsccc" />
    <path
       style="color:#000000;display:inline;overflow:visible;visibility:visible;fill:#ffffff;fill-opacity:1;fill-rule:nonzero;stroke:none;stroke-width:0.86584151px;marker:none;enable-background:accumulate"
       d="m 424.17982,2589.1185 c 37.22872,-25.847 129.29178,-16.9783 154.58904,16.9264 25.29725,33.9048 25.52153,75.0683 -10.85735,110.5221 -14.45719,14.0897 -85.89088,13.3758 -108.21034,8.3719 -29.49455,-6.6125 -61.20303,-27.8931 -66.72258,-56.8389 -5.17046,-27.1152 -6.0275,-53.1343 31.20123,-78.9815 z"
       id="path4040"
       inkscape:connector-curvature="0"
       sodipodi:nodetypes="zssssz" />
    <path
       style="fill:#ffffff;fill-rule:evenodd;stroke:none;stroke-width:1px;stroke-linecap:butt;stroke-linejoin:miter;stroke-opacity:1"
       d="m 592.9793,2688.296 c 6.2779,5.7652 17.59909,17.4223 21.13933,28.7257 3.46311,11.4895 -12.47795,24.7828 -8.01922,31.4781 2.84262,5.6853 15.43964,23.6392 31.35903,13.9966 -16.26214,14.8047 -31.96506,-0.6746 -39.07162,-10.6237 -7.10656,-9.9492 7.60797,-24.6926 3.34403,-31.0885 -4.26393,-6.3959 -19.70358,-20.8255 -19.70358,-20.8255 z"
       id="path1391"
       inkscape:connector-curvature="0"
       sodipodi:nodetypes="cccccccc" />
    <path
       style="fill:#ffffff;fill-rule:evenodd;stroke:none;stroke-width:1px;stroke-linecap:butt;stroke-linejoin:miter;stroke-opacity:1"
       d="m 1617.0673,2535.9913 c 43.503,83.2771 123.0512,70.8477 152.8818,72.0906 29.8306,1.2429 115.5936,7.4577 136.7236,2.4859 21.13,-4.9718 79.5483,-34.8024 84.5201,-42.26 4.9717,-7.4577 2.4859,-298.3061 2.4859,-298.3061 h -379.0973 z"
       id="path1393"
       inkscape:connector-curvature="0" />
    <path
       style="fill:#ffffff;fill-rule:evenodd;stroke:none;stroke-width:1px;stroke-linecap:butt;stroke-linejoin:miter;stroke-opacity:1"
       d="m 1940.7749,2518.045 c 0,0 17.857,53.571 17.857,79.8866 0,26.3156 -21.6164,50.7515 -17.857,75.1874 3.7594,24.4359 29.1351,57.3304 29.1351,81.7663 0,24.4359 -31.9546,53.571 -52.6311,70.4882 32.8944,-38.5335 52.6311,-56.3906 31.0148,-95.8639 -21.6164,-39.4734 -29.1352,-55.4508 -28.1953,-71.4281 0.9398,-15.9773 13.1987,-40.9036 7.5596,-68.159 -5.639,-27.2554 -26.193,-59.2509 -26.193,-59.2509 z"
       id="path1395"
       inkscape:connector-curvature="0"
       sodipodi:nodetypes="cssscscccc" />
    <path
       style="fill:#ffffff;fill-rule:evenodd;stroke:none;stroke-width:0.99999994px;stroke-linecap:butt;stroke-linejoin:miter;stroke-opacity:1"
       d="m 2064.2281,2399.5845 c 4.6992,-28.9913 13.1578,-42.1693 31.0148,-50.076 17.857,-7.9067 78.9468,-10.5423 97.7436,-6.1497 18.7969,4.3926 46.9921,8.7853 55.4507,26.3558 8.4586,17.5705 12.218,36.8981 4.6992,46.5619 -7.5187,9.6637 -19.7367,26.3557 -37.5937,33.3839 -17.857,7.0282 -102.4428,-3.5141 -115.6006,-9.6638 -13.1578,-6.1496 -34.7742,-18.449 -35.714,-40.4121 z"
       id="path1397"
       inkscape:connector-curvature="0" />
    <path
       style="fill:#ffffff;fill-rule:evenodd;stroke:none;stroke-width:1px;stroke-linecap:butt;stroke-linejoin:miter;stroke-opacity:1"
       d="m 2158.8184,2429.6998 c 0,0 -15.0375,20.6765 -21.6164,31.0148 -6.5789,10.3383 -24.4359,33.8343 -12.218,71.428 -34.7741,-63.9093 4.6993,-93.0444 15.0375,-108.0819 10.3383,-15.0375 18.7969,5.6391 18.7969,5.6391 z"
       id="path1399"
       inkscape:connector-curvature="0" />
    <g
       id="g3081">
      <path
         sodipodi:nodetypes="scccs"
         inkscape:connector-curvature="0"
         id="path3853"
         d="m 510.20615,314.60304 c 0.54583,7.30452 79.64123,7.44123 111.64243,1.62283 -18.70797,-22.30419 -16.38143,-118.29779 8.7922,-135.08022 -38.56297,6.31512 -80.63705,1.29715 -103.10857,-3.19715 -21.72887,31.68711 -19.19332,111.66571 -17.32606,136.65454 z"
         style="color:#000000;fill:url(#linearGradient3869);fill-opacity:1;fill-rule:nonzero;stroke:none;stroke-width:3;marker:none;visibility:visible;display:inline;overflow:visible;enable-background:accumulate" />
      <path
         sodipodi:nodetypes="cccc"
         inkscape:connector-curvature="0"
         id="path3081"
         d="m 142.42643,305.47012 c -4.39715,13.49892 32.80689,24.30292 48.04066,24.30292 -8.82975,-10.77407 -11.83437,-31.15289 -0.68568,-39.51441 -18.62215,-13.78817 -37.34685,0.19929 -47.35498,15.21149 z"
         style="color:#000000;fill:url(#linearGradient3879);fill-opacity:1;fill-rule:nonzero;stroke:none;stroke-width:3;marker:none;visibility:visible;display:inline;overflow:visible;enable-background:accumulate" />
      <path
         sodipodi:nodetypes="ssccs"
         inkscape:connector-curvature="0"
         id="path3851"
         d="m 548.31378,306.63438 c 0.31504,1.91301 -3.15761,3.13856 -4.5437,2.93915 -14.45689,-2.07984 -34.37381,-0.25009 -33.39839,5.09808 -1.35916,-5.72425 -1.22318,-11.92905 -1.22318,-19.22731 20.82302,-6.90623 36.88798,-2.63819 39.16527,11.19008 z"
         style="color:#000000;fill:url(#linearGradient3887);fill-opacity:1;fill-rule:nonzero;stroke:none;stroke-width:3;marker:none;visibility:visible;display:inline;overflow:visible;enable-background:accumulate" />
      <path
         sodipodi:nodetypes="ssccsscs"
         inkscape:connector-curvature="0"
         id="path3079"
         d="m 569.89464,157.96622 c -26.91219,-15.34669 -104.25372,-1.67553 -147.86888,-3.99646 -96.80604,-5.15142 -243.56077,-21.92807 -253.37531,0.79929 9.63742,51.08592 -8.87628,107.31522 -26.37661,151.06604 1.66781,-7.25097 21.93147,-15.27781 39.9396,-12.83715 100.65793,13.64226 225.11676,17.06941 322.13932,8.84069 14.5404,-1.23321 43.90737,-4.15351 44.36067,5.1954 -7.23039,-52.6411 37.16876,-139.95091 21.18121,-149.06781 z"
         style="color:#000000;fill:url(#linearGradient3861);fill-opacity:1;fill-rule:nonzero;stroke:none;stroke-width:3;marker:none;visibility:visible;display:inline;overflow:visible;enable-background:accumulate" />
    </g>
  </g>
  <g
     inkscape:groupmode="layer"
     id="layer1"
     inkscape:label="txt">
    <text
       xml:space="preserve"
       style="font-style:italic;font-variant:normal;font-weight:normal;font-stretch:normal;line-height:0%;font-family:'ComicSpice';-inkscape-font-specification:'ComicSpice Italic';text-anchor:middle"
       x="358.75275"
       y="216.16245"
       id="text4246"><tspan
         sodipodi:role="line"
         x="358.75275"
         y="216.16245"
         id="tspan923"
         style="font-weight:bold;font-size:48px;line-height:1.20000005">Buổi chiều trong</tspan><tspan
         sodipodi:role="line"
         x="358.75275"
         y="270.16245"
         style="font-weight:bold;font-size:48px;line-height:1.20000005"
         id="tspan2645">Quả Lý Thành</tspan></text>
    <text
       xml:space="preserve"
       style="font-style:normal;font-variant:normal;font-weight:normal;font-stretch:normal;line-height:0%;font-family:'ComicSpice';-inkscape-font-specification:'ComicSpice';text-align:center;letter-spacing:0px;word-spacing:0px;text-anchor:middle;fill:#000000;fill-opacity:1;stroke:none"
       x="614.50909"
       y="1795.755"
       id="text4246-4"><tspan
         sodipodi:role="line"
         style="font-style:normal;font-variant:normal;font-weight:normal;font-stretch:normal;font-size:48px;line-height:1.20000005;font-family:'ComicSpice';-inkscape-font-specification:'ComicSpice'"
         x="614.50909"
         y="1795.755"
         id="tspan914">Công Chúa Cây</tspan><tspan
         sodipodi:role="line"
         style="font-style:normal;font-variant:normal;font-weight:normal;font-stretch:normal;font-size:48px;line-height:1.20000005;font-family:'ComicSpice';-inkscape-font-specification:'ComicSpice'"
         x="614.50909"
         y="1849.755"
         id="tspan918">Rau Mùi, làm ơn...</tspan></text>
    <text
       xml:space="preserve"
       style="font-style:normal;font-variant:normal;font-weight:normal;font-stretch:normal;line-height:0%;font-family:'ComicSpice';-inkscape-font-specification:'ComicSpice';text-align:center;letter-spacing:0px;word-spacing:0px;text-anchor:middle;fill:#000000;fill-opacity:1;stroke:none"
       x="502.03806"
       y="2473.4312"
       id="text4246-5"><tspan
         sodipodi:role="line"
         style="font-style:normal;font-variant:normal;font-weight:normal;font-stretch:normal;font-size:48px;line-height:1.20000005;font-family:'ComicSpice';-inkscape-font-specification:'ComicSpice'"
         x="502.03806"
         y="2473.4312"
         id="tspan63">Đừng nhúc</tspan><tspan
         sodipodi:role="line"
         style="font-style:normal;font-variant:normal;font-weight:normal;font-stretch:normal;font-size:48px;line-height:1.20000005;font-family:'ComicSpice';-inkscape-font-specification:'ComicSpice'"
         x="502.03806"
         y="2527.4312"
         id="tspan915">nhích nữa!</tspan></text>
    <text
       xml:space="preserve"
       style="font-style:normal;font-variant:normal;font-weight:normal;font-stretch:normal;line-height:0%;font-family:'ComicSpice';-inkscape-font-specification:'ComicSpice';text-align:center;letter-spacing:0px;word-spacing:0px;text-anchor:middle;fill:#000000;fill-opacity:1;stroke:none"
       x="498.26331"
       y="2637.249"
       id="text4246-8"><tspan
         sodipodi:role="line"
         style="font-style:normal;font-variant:normal;font-weight:normal;font-stretch:normal;font-size:48px;line-height:1.20000005;font-family:'ComicSpice';-inkscape-font-specification:'ComicSpice'"
         x="498.26331"
         y="2637.249"
         id="tspan73">Được,</tspan><tspan
         sodipodi:role="line"
         style="font-style:normal;font-variant:normal;font-weight:normal;font-stretch:normal;font-size:48px;line-height:1.20000005;font-family:'ComicSpice';-inkscape-font-specification:'ComicSpice'"
         x="498.26331"
         y="2691.249"
         id="tspan919">được...</tspan></text>
    <text
       xml:space="preserve"
       style="font-style:normal;font-variant:normal;font-weight:normal;font-stretch:normal;line-height:0%;font-family:'ComicSpice';-inkscape-font-specification:'ComicSpice';text-align:center;letter-spacing:0px;word-spacing:0px;text-anchor:middle;fill:#000000;fill-opacity:1;stroke:none"
       x="1808.3252"
       y="2344.9854"
       id="text4246-3"><tspan
         sodipodi:role="line"
         style="font-style:normal;font-variant:normal;font-weight:normal;font-stretch:normal;font-size:48px;line-height:1.20000005;font-family:'ComicSpice';-inkscape-font-specification:'ComicSpice'"
         x="1808.3252"
         y="2344.9854"
         id="tspan89">Chúng tôi gần hết</tspan><tspan
         sodipodi:role="line"
         style="font-style:normal;font-variant:normal;font-weight:normal;font-stretch:normal;font-size:48px;line-height:1.20000005;font-family:'ComicSpice';-inkscape-font-specification:'ComicSpice'"
         x="1808.3252"
         y="2398.9854"
         id="tspan928">giờ rồi, còn ba</tspan><tspan
         sodipodi:role="line"
         style="font-style:normal;font-variant:normal;font-weight:normal;font-stretch:normal;font-size:48px;line-height:1.20000005;font-family:'ComicSpice';-inkscape-font-specification:'ComicSpice'"
         x="1808.3252"
         y="2452.9854"
         id="tspan934">tiếng đồng hồ đến</tspan><tspan
         sodipodi:role="line"
         style="font-style:normal;font-variant:normal;font-weight:normal;font-stretch:normal;font-size:48px;line-height:1.20000005;font-family:'ComicSpice';-inkscape-font-specification:'ComicSpice'"
         x="1808.3252"
         y="2506.9854"
         id="tspan926">khai mạc lễ tức vị</tspan><tspan
         sodipodi:role="line"
         style="font-style:normal;font-variant:normal;font-weight:normal;font-stretch:normal;font-size:48px;line-height:1.20000005;font-family:'ComicSpice';-inkscape-font-specification:'ComicSpice'"
         x="1808.3252"
         y="2560.9854"
         id="tspan924">của công chúa.</tspan></text>
    <text
       xml:space="preserve"
       style="font-style:normal;font-variant:normal;font-weight:normal;font-stretch:normal;line-height:0%;font-family:'ComicSpice';-inkscape-font-specification:'ComicSpice';text-align:center;letter-spacing:0px;word-spacing:0px;text-anchor:middle;fill:#000000;fill-opacity:1;stroke:none"
       x="2165.603"
       y="2401.189"
       id="text4246-0"><tspan
         sodipodi:role="line"
         style="font-style:normal;font-variant:normal;font-weight:normal;font-stretch:normal;font-size:48px;line-height:1.25;font-family:'ComicSpice';-inkscape-font-specification:'ComicSpice'"
         x="2165.603"
         y="2401.189"
         id="tspan4252-1">...</tspan></text>
    <text
       xml:space="preserve"
       style="font-style:normal;font-variant:normal;font-weight:normal;font-stretch:normal;line-height:0%;font-family:Lavi;-inkscape-font-specification:Lavi;text-align:center;letter-spacing:0px;word-spacing:0px;text-anchor:middle;display:inline;opacity:0.6;fill:#fff6d5;fill-opacity:1;stroke:#fff6d5;stroke-width:2.68153024;stroke-miterlimit:4;stroke-dasharray:none;filter:url(#filter4210)"
       x="1174.0292"
       y="1085.962"
       id="text4246-5-9"
       transform="matrix(0.57767634,-0.08528051,-0.02617175,0.86344139,879.15076,914.74411)"><tspan
         sodipodi:role="line"
         style="font-style:normal;font-variant:normal;font-weight:normal;font-stretch:normal;font-size:45.00812149px;line-height:1;font-family:Fondamento;-inkscape-font-specification:Fondamento;fill:#fff6d5;stroke:#fff6d5;stroke-width:2.68153024;stroke-miterlimit:4;stroke-dasharray:none;stroke-opacity:1"
         x="1174.0292"
         y="1085.962"
         id="tspan754">LỂ TỨC VỊ</tspan></text>
    <text
       xml:space="preserve"
       style="font-style:normal;font-variant:normal;font-weight:normal;font-stretch:normal;line-height:0%;font-family:Lavi;-inkscape-font-specification:Lavi;text-align:center;letter-spacing:0px;word-spacing:0px;text-anchor:middle;display:inline;opacity:0.6;fill:#fff6d5;fill-opacity:1;stroke:#fff6d5;stroke-width:2.70249391;stroke-miterlimit:4;stroke-dasharray:none;filter:url(#filter4210-3)"
       x="1174.0292"
       y="1085.962"
       id="text4246-5-9-4"
       transform="matrix(0.52324579,-0.03659865,-0.0134484,0.76213062,932.37771,1247.0066)"><tspan
         sodipodi:role="line"
         style="font-style:normal;font-variant:normal;font-weight:normal;font-stretch:normal;font-size:45.00812149px;line-height:1;font-family:Fondamento;-inkscape-font-specification:Fondamento;fill:#fff6d5;stroke:#fff6d5;stroke-width:2.70249391;stroke-miterlimit:4;stroke-dasharray:none;stroke-opacity:1"
         x="1174.0292"
         y="1085.962"
         id="tspan121">NỮ HOÀNG</tspan><tspan
         sodipodi:role="line"
         style="font-style:normal;font-variant:normal;font-weight:normal;font-stretch:normal;font-size:45.00812149px;line-height:1;font-family:Fondamento;-inkscape-font-specification:Fondamento;fill:#fff6d5;stroke:#fff6d5;stroke-width:2.70249391;stroke-miterlimit:4;stroke-dasharray:none;stroke-opacity:1"
         x="1174.0292"
         y="1130.9702"
         id="tspan2654">CÂY RAU MÙI</tspan></text>
    <use
       x="0"
       y="0"
       xlink:href="#text4246-5-9"
       id="use1080"
       transform="matrix(1.1113945,0.36442722,-0.03562426,1.0968541,-1272.4067,-498.85253)"
       width="100%"
       height="100%"
       style="stroke-width:0.90093011"
       inkscape:transform-center-x="4.1379444"
       inkscape:transform-center-y="4.0349738" />
    <use
       x="0"
       y="0"
       xlink:href="#text4246-5-9-4"
       id="use1082"
       transform="matrix(0.98565026,0.2354674,-0.06673647,0.99861562,-1003.2813,-308.32021)"
       width="100%"
       height="100%" />
    <use
       x="0"
       y="0"
       xlink:href="#text4246-5-9"
       id="use1084"
       transform="matrix(0.6150991,0.28683471,0.05373313,0.71811363,1051.124,342.74149)"
       width="100%"
       height="100%"
       style="stroke-width:1.53159201" />
    <use
       x="0"
       y="0"
       xlink:href="#text4246-5-9-4"
       id="use1086"
       transform="matrix(0.60149161,0.21273108,0.05905291,0.68112177,1054.2567,397.89184)"
       width="100%"
       height="100%"
       style="stroke-width:1.58885944" />
  </g>
  <g
     inkscape:groupmode="layer"
     id="layer4"
     inkscape:label="notes">
    <path
       style="opacity:0.5;color:#000000;fill:#ffe680;fill-opacity:1;fill-rule:nonzero;stroke:#565656;stroke-width:1.20000005;stroke-linecap:butt;stroke-linejoin:miter;stroke-miterlimit:4;stroke-opacity:1;stroke-dasharray:none;stroke-dashoffset:0;marker:none;visibility:visible;display:inline;overflow:visible;enable-background:accumulate"
       d="m -491.70805,1691.6386 v 509.9547 h 423.636685 v -373.4851 h 13.923338 v 21.7545 l 43.137977,-37.5533 -43.137977,-37.5506 v 23.1272 h -13.923338 v -106.2474 z"
       id="rect4191-6"
       inkscape:connector-curvature="0"
       sodipodi:nodetypes="cccccccccccc" />
    <flowRoot
       xml:space="preserve"
       id="flowRoot4212-7"
       style="font-style:normal;font-variant:normal;font-weight:normal;font-stretch:normal;line-height:0.01%;font-family:'ComicSpice';-inkscape-font-specification:'ComicSpice';text-align:center;letter-spacing:0px;word-spacing:0px;writing-mode:lr-tb;text-anchor:middle;display:inline;opacity:0.5;fill:#000000;fill-opacity:1;stroke:none"
       transform="matrix(1.3923338,0,0,1.391772,-88.183544,272.03294)"><flowRegion
         id="flowRegion4214-5"
         style="font-style:normal;font-variant:normal;font-weight:normal;font-stretch:normal;font-family:'ComicSpice';-inkscape-font-specification:'ComicSpice'"><rect
           id="rect4216-3"
           width="271.92325"
           height="318.06064"
           x="-275.14545"
           y="1061.6674"
           style="font-style:normal;font-variant:normal;font-weight:normal;font-stretch:normal;font-family:'ComicSpice';-inkscape-font-specification:'ComicSpice'" /></flowRegion><flowPara
         style="font-style:normal;font-variant:normal;font-weight:normal;font-stretch:normal;font-size:25.3241539px;line-height:1.25;font-family:'ComicSpice';-inkscape-font-specification:'ComicSpice'"
         id="flowPara1114">Phiên dịch “Lễ Tức Vị” và “Nữ Hoàng Cây Rau Mùi”</flowPara><flowPara
         style="font-style:normal;font-variant:normal;font-weight:normal;font-stretch:normal;font-size:25.3241539px;line-height:1.25;font-family:'ComicSpice';-inkscape-font-specification:'ComicSpice'"
         id="flowPara1116">trên áp phích</flowPara><flowPara
         style="font-style:normal;font-variant:normal;font-weight:normal;font-stretch:normal;font-size:25.3241539px;line-height:1.25;font-family:'ComicSpice';-inkscape-font-specification:'ComicSpice'"
         id="flowPara119">trên tường tọa nhà </flowPara><flowPara
         style="font-style:normal;font-variant:normal;font-weight:normal;font-stretch:normal;font-size:25.3241539px;line-height:1.25;font-family:'ComicSpice';-inkscape-font-specification:'ComicSpice'"
         id="flowPara1118">(ở giữa).</flowPara><flowPara
         style="font-style:normal;font-variant:normal;font-weight:normal;font-stretch:normal;font-size:25.3241539px;line-height:1.25;font-family:'ComicSpice';-inkscape-font-specification:'ComicSpice'"
         id="flowPara1120"> </flowPara><flowPara
         style="font-style:normal;font-variant:normal;font-weight:normal;font-stretch:normal;font-size:25.3241539px;line-height:1.25;font-family:'ComicSpice';-inkscape-font-specification:'ComicSpice'"
         id="flowPara1126">Các hộp văn bản sẽ</flowPara><flowPara
         style="font-style:normal;font-variant:normal;font-weight:normal;font-stretch:normal;font-size:25.3241539px;line-height:1.25;font-family:'ComicSpice';-inkscape-font-specification:'ComicSpice'"
         id="flowPara1770">tự động nâng cấp (chúng nó là</flowPara><flowPara
         style="font-style:normal;font-variant:normal;font-weight:normal;font-stretch:normal;font-size:25.3241539px;line-height:1.25;font-family:'ComicSpice';-inkscape-font-specification:'ComicSpice'"
         id="flowPara1772">sao chép kết nối).</flowPara></flowRoot>    <flowRoot
       xml:space="preserve"
       id="flowRoot4212-7-6"
       style="font-style:normal;font-variant:normal;font-weight:normal;font-stretch:normal;line-height:0.01%;font-family:Lavi;-inkscape-font-specification:'Lavi, Normal';text-align:center;letter-spacing:0px;word-spacing:0px;writing-mode:lr-tb;text-anchor:middle;display:inline;opacity:0.5;fill:#000000;fill-opacity:1;stroke:none"
       transform="matrix(1.3923338,0,0,1.391772,-103.52319,226.44878)"><flowRegion
         id="flowRegion4214-5-2"><rect
           id="rect4216-3-6"
           width="294.12939"
           height="323.61441"
           x="-275.14545"
           y="1061.6674" /></flowRegion><flowPara
         style="font-style:normal;font-variant:normal;font-weight:bold;font-stretch:normal;font-size:18.66666603px;line-height:1.25;font-family:Lavi;-inkscape-font-specification:'Lavi Bold'"
         id="flowPara1220">LỜI HƯỚNG DẪN DỊCH</flowPara></flowRoot>    <path
       style="opacity:0.5;color:#000000;fill:#ffe680;fill-opacity:1;fill-rule:nonzero;stroke:#565656;stroke-width:1.20000005;stroke-linecap:butt;stroke-linejoin:miter;stroke-miterlimit:4;stroke-opacity:1;stroke-dasharray:none;stroke-dashoffset:0;marker:none;visibility:visible;display:inline;overflow:visible;enable-background:accumulate"
       d="M -430.25364,116.98448 V 365.20819 H -71.78786 V 218.47397 h 13.92334 v 21.7545 l 43.13797,-37.5533 -43.13797,-37.5506 v 23.1272 h -13.92334 v -71.26729 z"
       id="rect4191-6-6"
       inkscape:connector-curvature="0"
       sodipodi:nodetypes="cccccccccccc" />
    <flowRoot
       xml:space="preserve"
       id="flowRoot4212-7-7"
       style="font-style:normal;font-variant:normal;font-weight:normal;font-stretch:normal;line-height:0.01%;font-family:Lavi;-inkscape-font-specification:'Lavi, Normal';text-align:center;letter-spacing:0px;word-spacing:0px;writing-mode:lr-tb;text-anchor:middle;display:inline;opacity:0.5;fill:#000000;fill-opacity:1;stroke:none"
       transform="matrix(1.3923338,0,0,1.391772,-36.204082,-1303.3246)"><flowRegion
         id="flowRegion4214-5-3"><rect
           id="rect4216-3-60"
           width="241.20609"
           height="175.29474"
           x="-275.14545"
           y="1061.6674" /></flowRegion><flowPara
         style="font-size:25.3241539px;line-height:1.25"
         id="flowPara3889">Bạn có thể kéo dài lá cờ và dịch “Quả Lý Thành” sang</flowPara><flowPara
         style="font-size:25.3241539px;line-height:1.25"
         id="flowPara1357">“Thành Phố Quả Lý”.</flowPara></flowRoot>    <flowRoot
       xml:space="preserve"
       id="flowRoot4212-7-6-2"
       style="font-style:normal;font-variant:normal;font-weight:normal;font-stretch:normal;line-height:0.01%;font-family:'ComicSpice';-inkscape-font-specification:'ComicSpice';text-align:center;letter-spacing:0px;word-spacing:0px;writing-mode:lr-tb;text-anchor:middle;display:inline;opacity:0.5;fill:#000000;fill-opacity:1;stroke:none"
       transform="matrix(1.3923338,0,0,1.391772,-72.256293,-1348.2053)"><flowRegion
         id="flowRegion4214-5-2-4"><rect
           id="rect4216-3-6-0"
           width="294.12939"
           height="323.61441"
           x="-275.14545"
           y="1061.6674"
           style="font-family:'ComicSpice';-inkscape-font-specification:'ComicSpice'" /></flowRegion><flowPara
         style="font-style:normal;font-variant:normal;font-weight:bold;font-stretch:normal;font-size:18.66666603px;line-height:1.25;font-family:'ComicSpice';-inkscape-font-specification:'ComicSpice'"
         id="flowPara1220-6">LỜI HƯỚNG DẪN</flowPara></flowRoot>  </g>
</svg>
