<?xml version="1.0" encoding="UTF-8" standalone="no"?>
<!-- Created with Inkscape (http://www.inkscape.org/) -->

<svg
   xmlns:dc="http://purl.org/dc/elements/1.1/"
   xmlns:cc="http://creativecommons.org/ns#"
   xmlns:rdf="http://www.w3.org/1999/02/22-rdf-syntax-ns#"
   xmlns:svg="http://www.w3.org/2000/svg"
   xmlns="http://www.w3.org/2000/svg"
   xmlns:xlink="http://www.w3.org/1999/xlink"
   xmlns:sodipodi="http://sodipodi.sourceforge.net/DTD/sodipodi-0.dtd"
   xmlns:inkscape="http://www.inkscape.org/namespaces/inkscape"
   id="svg2"
   version="1.1"
   inkscape:version="0.92.2 2405546, 2018-03-11"
   width="2481"
   height="3503"
   sodipodi:docname="E16P04.svg">
  <metadata
     id="metadata8">
    <rdf:RDF>
      <cc:Work
         rdf:about="">
        <dc:format>image/svg+xml</dc:format>
        <dc:type
           rdf:resource="http://purl.org/dc/dcmitype/StillImage" />
        <dc:title></dc:title>
      </cc:Work>
    </rdf:RDF>
  </metadata>
  <defs
     id="defs6" />
  <sodipodi:namedview
     pagecolor="#ffffff"
     bordercolor="#666666"
     borderopacity="1"
     objecttolerance="10"
     gridtolerance="10"
     guidetolerance="10"
     inkscape:pageopacity="0"
     inkscape:pageshadow="2"
     inkscape:window-width="1920"
     inkscape:window-height="1033"
     id="namedview4"
     showgrid="false"
     inkscape:zoom="0.85547894"
     inkscape:cx="1627.5653"
     inkscape:cy="474.65448"
     inkscape:window-x="0"
     inkscape:window-y="47"
     inkscape:window-maximized="0"
     inkscape:current-layer="layer1" />
  <g
     inkscape:groupmode="layer"
     id="layer2"
     inkscape:label="artwork"
     sodipodi:insensitive="true">
    <image
       sodipodi:absref="/home/midgard/git/peppercarrot/comics/ep16_The-Sage-of-the-Mountain/lang/ca/../gfx_Pepper-and-Carrot_by-David-Revoy_E16P04.png"
       xlink:href="../gfx_Pepper-and-Carrot_by-David-Revoy_E16P04.png"
       width="2481"
       height="3503"
       id="image10"
       x="0"
       y="0" />
  </g>
  <g
     inkscape:groupmode="layer"
     id="layer3"
     inkscape:label="speechbubbles">
    <path
       style="fill:#ffffff;stroke:none;stroke-width:0.99999994"
       d="m 239.13072,308.81053 c 7.1597,-58.82058 31.89303,-115.12036 180.94396,-122.68297 74.5255,-3.7813 218.18011,-5.38247 289.69868,22.09133 71.51859,27.47381 70.90111,84.02261 71.22655,106.29038 0.32544,22.26778 6.30283,77.46676 -67.15591,99.10547 -73.45874,21.63871 -226.35362,9.71717 -286.5598,10.55747 -120.41236,1.6806 -184.2482,-0.2414 -188.15348,-115.36168 z"
       id="path3270"
       inkscape:connector-curvature="0"
       sodipodi:nodetypes="csssssc" />
    <path
       style="color:#000000;display:inline;overflow:visible;visibility:visible;fill:#ffffff;fill-opacity:1;fill-rule:nonzero;stroke:none;stroke-width:0.99999994px;marker:none;enable-background:accumulate"
       d="m 295.93029,372.22353 c 46.7437,-34.5449 451.42607,-55.4288 558.61568,1.34351 89.46968,47.38707 54.56159,165.39774 -25.00749,192.57928 -79.56883,27.18163 -344.26541,24.02665 -460.27593,11.70324 -110.45797,-11.73363 -129.00573,-47.15014 -134.43903,-118.46105 -2.21755,-29.10476 14.36288,-52.61994 61.10677,-87.16498 z"
       id="path4040-4"
       inkscape:connector-curvature="0"
       sodipodi:nodetypes="zssssz" />
    <path
       style="color:#000000;display:inline;overflow:visible;visibility:visible;fill:#ffffff;fill-opacity:1;fill-rule:nonzero;stroke:none;stroke-width:1px;marker:none;enable-background:accumulate"
       d="M 548.56247,346.28345 C 818.67335,851.31918 962.4842,769.73858 1139.7545,716.83443 950.46167,803.3409 775.67489,874.14978 501.74228,369.42576 c -14.05374,-25.89419 46.82019,-23.14231 46.82019,-23.14231 z"
       id="path4008"
       inkscape:connector-curvature="0"
       sodipodi:nodetypes="ccsc" />
    <path
       style="color:#000000;display:inline;overflow:visible;visibility:visible;fill:#ffffff;fill-opacity:1;fill-rule:nonzero;stroke:none;stroke-width:1px;marker:none;enable-background:accumulate"
       d="m 743.52116,1059.3648 c -5.13843,-27.0877 8.56404,-99.03943 113.90226,-93.11397 105.33806,5.92537 122.46636,39.78497 125.03552,49.94287 2.56917,10.1579 24.83576,67.7194 -57.37931,82.9563 -82.21518,15.2368 -155.86621,-0.8466 -181.55847,-39.7852 z"
       id="path3525"
       inkscape:connector-curvature="0" />
    <path
       style="color:#000000;display:inline;overflow:visible;visibility:visible;fill:#ffffff;fill-opacity:1;fill-rule:nonzero;stroke:none;stroke-width:1px;marker:none;enable-background:accumulate"
       d="m 922.12831,1127.7684 c -5.86932,-28.4665 9.78218,-104.0808 130.10399,-97.8537 120.3215,6.2271 139.8861,41.8102 142.8206,52.4852 2.9348,10.6749 28.3686,71.1664 -65.5409,87.1789 -93.9095,16.0123 -178.03692,-0.8897 -207.38369,-41.8104 z"
       id="path3525-0"
       inkscape:connector-curvature="0" />
    <path
       style="color:#000000;display:inline;overflow:visible;visibility:visible;fill:#ffffff;fill-opacity:1;fill-rule:nonzero;stroke:none;stroke-width:0.99999994px;marker:none;enable-background:accumulate"
       d="m 960.89849,1251.2576 c 0.53606,41.8701 19.38305,87.934 87.72751,111.3684 68.3447,23.4346 205.5495,8.8003 230.1512,2.7131 31.0739,-7.6887 111.871,-34.0142 134.2177,-66.0835 22.3469,-32.0691 29.5043,-72.2664 20.0554,-100.7974 -9.4486,-28.5307 -43.7904,-56.0163 -73.0064,-64.598 -29.2159,-8.5818 -209.1541,-13.2429 -242.2831,-4.4972 -33.1289,8.7457 -87.2423,13.567 -114.893,35.6798 -28.03249,22.4178 -42.50554,44.3447 -41.96931,86.2148 z"
       id="path3373"
       inkscape:connector-curvature="0"
       sodipodi:nodetypes="zsssssssz" />
    <path
       style="color:#000000;display:inline;overflow:visible;visibility:visible;fill:#ffffff;fill-opacity:1;fill-rule:nonzero;stroke:none;stroke-width:1px;marker:none;enable-background:accumulate"
       d="m 1353.1045,1486.1109 c -17.6743,6.4442 -35.9622,13.4942 -56.6916,8.7928 -5.9074,-1.4988 -12.0586,-3.5824 -17.8157,-7.536 -5.6534,-5.6714 -8.1342,-14.8796 -7.7374,-22.3553 -0.038,-11.0732 3.5645,-21.3765 -0.132,-33.3984 -2.8396,-8.7238 -9.889,-13.0983 -15.6943,-17.3851 -14.8818,-10.591 -30.3953,-18.9029 -44.5591,-32.1972 -16.4134,-13.8335 -33.2388,-29.725 -44.6315,-51.3879 -4.4162,-8.6329 -8.2604,-18.1551 -8.7808,-27.4678 -2.1762,-24.1255 6.2222,-46.2462 22.341,-52.6796 10.8776,-2.6518 26.1352,8.6451 30.8391,24.9803 2.5746,8.6101 0.6371,16.5032 -2.7594,21.9348 -4.4219,12.1322 -2.2192,29.1384 4.6177,43.565 5.515,11.975 19.9292,13.9114 28.768,21.8543 10.6917,14.3128 22.5926,18.8565 35.242,26.2872 5.7643,3.498 17.2268,13.0885 21.8547,19.5004 5.3367,10.6553 3.6397,23.8849 1.2988,32.7032 -2.2102,9.2491 -6.7566,13.924 -2.6636,25.5015 2.0954,8.2407 10.4347,11.3429 15.4067,14.2225 16.3541,6.7626 22.9447,11.3822 37.3062,7.063 1.3135,-0.5605 2.5522,-1.2752 3.7912,-1.9972 z"
       id="path4496"
       inkscape:connector-curvature="0"
       sodipodi:nodetypes="cccccccccccccccccccccc" />
    <path
       style="color:#000000;display:inline;overflow:visible;visibility:visible;fill:#ffffff;fill-opacity:1;fill-rule:nonzero;stroke:none;stroke-width:1px;marker:none;enable-background:accumulate"
       d="m 406.33154,1750.4783 c -7.09299,16.8439 -47.09848,18.2563 -61.8256,14.8325 29.68648,18.8431 28.65152,30.5506 -11.65434,32.3684 67.59362,33.9602 12.35702,28.8212 1.46199,37.4326 53.07351,11.7033 29.32788,26.2686 19.87895,40.7678 61.00275,0.4981 41.03934,23.7401 43.61049,42.2509 5.17154,-8.6861 29.74021,-35.1304 31.21851,-5.6864 40.34977,-28.0911 88.95,-46.2366 92.80902,2.9231 16.2576,-24.731 32.4664,-35.1833 31.21848,-5.6866 40.28125,-38.364 76.47954,-24.5547 112.89234,-13.7116 9.56364,-11.5793 10.67799,-29.3682 41.61859,-25.1995 -4.33824,-11.4771 6.10861,-19.3663 29.70105,-24.0513 -31.35062,-6.933 -37.12842,-14.0841 21.08263,-21.7799 -44.2952,-0.7444 -85.60079,-2.2695 -33.63287,-28.5144 -16.30378,-0.6352 -54.9862,21.2643 -36.95093,-42.8249 -28.03526,20.5173 -57.94637,31.8413 -95.45758,-11.137 -17.75221,21.4711 -48.54302,32.0959 -61.93855,5.2768 -4.81462,11.4334 -24.77858,15.7334 -41.72653,16.2548 -6.55381,-4.5416 -13.31329,-10.7102 -20.36711,-18.7922 -11.52892,16.9699 -28.77489,28.4306 -61.93854,5.2769 z"
       id="path3549-3-7"
       inkscape:connector-curvature="0"
       sodipodi:nodetypes="cccccccccccccccccccc" />
    <path
       style="color:#000000;display:inline;overflow:visible;visibility:visible;fill:#ffffff;fill-opacity:1;fill-rule:nonzero;stroke:none;stroke-width:1px;marker:none;enable-background:accumulate"
       d="m 430.70936,1892.888 c 19.02745,-19.988 179.64067,-41.6839 236.09041,-0.4927 56.44976,41.1912 22.20976,90.6206 -10.1795,106.3481 -32.38918,15.7275 -127.70599,32.9529 -171.20001,19.4722 -43.4941,-13.4808 -77.37324,-33.6319 -79.58491,-74.893 -0.90269,-16.8404 5.84652,-30.4465 24.87401,-50.4346 z"
       id="path4040"
       inkscape:connector-curvature="0"
       sodipodi:nodetypes="zssssz" />
    <path
       style="fill:#ffffff;fill-rule:evenodd;stroke:none;stroke-width:1px;stroke-linecap:butt;stroke-linejoin:miter;stroke-opacity:1"
       d="m 1714.2654,2080.7017 c 84.2926,8.4181 101.7865,32.4194 119.9299,8.2333 13.6724,-32.3165 73.9597,-7.8033 80.1837,-16.9339 13.3752,-19.6213 -23.6159,-28.5877 -14.9153,-48.4748 8.7006,-19.887 29.8306,-43.5029 29.8306,-43.5029 l 16.1582,9.9435 c 0,0 -26.2419,26.5691 -24.999,37.7556 1.2429,11.1864 26.242,48.0074 3.869,56.708 -22.3729,8.7006 -76.8117,-7.6784 -88.6225,17.2796 -11.8107,24.9579 -83.1478,-13.4558 -121.4346,-21.0084 z"
       id="path4407"
       inkscape:connector-curvature="0"
       sodipodi:nodetypes="ccssccsszc" />
    <path
       style="color:#000000;display:inline;overflow:visible;visibility:visible;fill:#ffffff;fill-opacity:1;fill-rule:nonzero;stroke:none;stroke-width:1px;marker:none;enable-background:accumulate"
       d="m 666.6939,1912.014 c 38.36403,14.2827 84.86956,27.5154 96.07851,29.8219 -4.37169,-11.6312 -5.81209,-22.2337 -7.1164,-30.5082 20.64043,5.7806 115.57926,37.1569 135.10867,51.9928 -46.72733,-38.0638 -117.47092,-65.994 -151.73555,-73.3007 -0.59494,10.8648 0.83117,17.7165 0.34378,23.4081 -17.19324,-2.942 -71.86892,-22.6256 -71.86892,-22.6256 z"
       id="path5066"
       inkscape:connector-curvature="0"
       inkscape:transform-center-x="-112.42356"
       inkscape:transform-center-y="21.85935" />
    <path
       style="fill:#ffffff;stroke:none;stroke-width:0.99999994"
       d="m 280.61171,2325.2389 c 1.10583,-55.1279 43.08849,-63.2247 71.41133,-60.8217 23.5492,1.9981 114.11029,-11.9117 139.91886,38.4094 11.02062,21.4878 9.23519,77.5661 -6.08299,100.9098 -13.06279,19.9066 -36.80669,20.5191 -65.74311,26.7507 -35.93035,7.7377 -87.43769,-5.8877 -115.65817,-15.8346 -13.28418,-4.6823 -24.95179,-34.2859 -23.84592,-89.4136 z"
       id="path3100"
       inkscape:connector-curvature="0"
       sodipodi:nodetypes="zsssssz" />
    <path
       style="color:#000000;display:inline;overflow:visible;visibility:visible;fill:#ffffff;fill-opacity:1;fill-rule:nonzero;stroke:none;stroke-width:1px;marker:none;enable-background:accumulate"
       d="m 359.2687,2500.7775 c -2.94382,-109.0285 118.91945,-97.3426 205.66994,-105.8463 47.34442,-4.641 219.16259,7.5078 235.49372,104.2356 9.40706,55.7181 -48.9222,103.2926 -72.03126,111.6588 -23.10891,8.3661 -134.77314,19.2162 -170.71435,16.6669 -35.94106,-2.5494 -201.89866,19.7824 -198.41805,-126.715 z"
       id="path4974"
       inkscape:connector-curvature="0"
       sodipodi:nodetypes="cssssc" />
    <path
       style="fill:#ffffff;fill-rule:evenodd;stroke:none;stroke-width:1px;stroke-linecap:butt;stroke-linejoin:miter;stroke-opacity:1"
       d="m 1237.025,3033.6211 c -25.9077,-74.9353 -135.8732,-262.1385 -253.0276,-244.8772 -71.26981,10.5007 -133.59485,24.8303 -156.2354,-60.7422 -5.53435,-9.3115 -79.49392,-55.5178 -68.47418,-45.6614 73.55047,108.3097 57.38616,155.8485 221.82078,126.0514 132.8264,-23.6523 255.9164,225.2294 255.9164,225.2294 z"
       id="path4652"
       inkscape:connector-curvature="0"
       sodipodi:nodetypes="cscccc" />
    <path
       style="fill:#ffffff;stroke:none;stroke-width:1"
       d="m 578.14564,2645.3464 c 2.1641,-60.5528 84.3278,-69.4465 139.7581,-66.807 46.0878,2.1948 223.32366,-13.0839 273.83326,42.1891 21.5683,23.6024 18.0741,85.1992 -11.9049,110.84 -25.565,21.8656 -72.0338,22.5383 -128.66496,29.3832 -70.3188,8.4991 -171.1232,-6.4671 -226.353,-17.3929 -25.9984,-5.1431 -48.8329,-37.6598 -46.6685,-98.2124 z"
       id="path3100-7"
       inkscape:connector-curvature="0"
       sodipodi:nodetypes="zsssssz" />
    <path
       style="color:#000000;display:inline;overflow:visible;visibility:visible;fill:#ffffff;fill-opacity:1;fill-rule:nonzero;stroke:none;stroke-width:1px;marker:none;enable-background:accumulate"
       d="m 503.73633,579.84113 c 32.14108,-24.99351 310.40171,-40.10316 384.10554,0.97204 61.51959,34.2849 37.5167,119.66652 -17.1952,139.33257 -54.71172,19.66611 -236.71778,17.38347 -316.48691,8.46738 -75.95118,-8.48937 -88.70467,-34.11348 -92.44063,-85.70747 -1.52478,-21.05751 9.87596,-38.07093 42.0172,-63.06452 z"
       id="path4040-4-3"
       inkscape:connector-curvature="0"
       sodipodi:nodetypes="zssssz" />
  </g>
  <g
     inkscape:groupmode="layer"
     id="layer1"
     inkscape:label="txt">
    <text
       xml:space="preserve"
       style="font-style:normal;font-variant:normal;font-weight:normal;font-stretch:normal;line-height:0%;font-family:Lavi;-inkscape-font-specification:Lavi;text-align:center;letter-spacing:0px;word-spacing:0px;text-anchor:middle;fill:#000000;fill-opacity:1;stroke:none"
       x="515.20721"
       y="261.78879"
       id="text4246"><tspan
         sodipodi:role="line"
         style="font-size:45px;line-height:1.25"
         x="515.20721"
         y="261.78879"
         id="tspan4337">No som tant joves,</tspan><tspan
         sodipodi:role="line"
         style="font-size:45px;line-height:1.25"
         x="515.20721"
         y="318.03879"
         id="tspan3055">ha arribat el moment</tspan><tspan
         sodipodi:role="line"
         style="font-size:45px;line-height:1.25"
         x="515.20721"
         y="374.28879"
         id="tspan3057">per una bona lliçó.</tspan></text>
    <text
       xml:space="preserve"
       style="font-style:normal;font-variant:normal;font-weight:normal;font-stretch:normal;line-height:0%;font-family:Lavi;-inkscape-font-specification:Lavi;text-align:center;letter-spacing:0px;word-spacing:0px;text-anchor:middle;fill:#000000;fill-opacity:1;stroke:none"
       x="576.46271"
       y="458.19345"
       id="text4246-9"><tspan
         sodipodi:role="line"
         style="font-size:45px;line-height:1.25"
         x="576.46271"
         y="458.19345"
         id="tspan3061">Proposo que anem a veure...</tspan></text>
    <text
       xml:space="preserve"
       style="font-style:normal;font-variant:normal;font-weight:normal;font-stretch:normal;line-height:0%;font-family:Lavi;-inkscape-font-specification:Lavi;text-align:center;letter-spacing:0px;word-spacing:0px;text-anchor:middle;fill:#000000;fill-opacity:1;stroke:none"
       x="865.90961"
       y="1049.8156"
       id="text4246-9-6"><tspan
         sodipodi:role="line"
         style="font-size:45px;line-height:1.25"
         x="865.90961"
         y="1049.8156"
         id="tspan4183-4">Eps! Eps!</tspan></text>
    <text
       xml:space="preserve"
       style="font-style:normal;font-variant:normal;font-weight:normal;font-stretch:normal;line-height:0%;font-family:Lavi;-inkscape-font-specification:Lavi;text-align:center;letter-spacing:0px;word-spacing:0px;text-anchor:middle;fill:#000000;fill-opacity:1;stroke:none"
       x="1069.6064"
       y="1116.4899"
       id="text4246-9-6-2"><tspan
         sodipodi:role="line"
         style="font-size:45px;line-height:1.25"
         x="1069.6064"
         y="1116.4899"
         id="tspan4183-4-1">El Savi?</tspan></text>
    <text
       xml:space="preserve"
       style="font-style:normal;font-variant:normal;font-weight:normal;font-stretch:normal;line-height:0%;font-family:Lavi;-inkscape-font-specification:Lavi;text-align:center;letter-spacing:0px;word-spacing:0px;text-anchor:middle;fill:#000000;fill-opacity:1;stroke:none"
       x="1192.4185"
       y="1212.4724"
       id="text4246-9-6-2-4"><tspan
         sodipodi:role="line"
         style="font-size:45px;line-height:1.25"
         x="1192.4185"
         y="1212.4724"
         id="tspan4279">No són masa joves</tspan><tspan
         sodipodi:role="line"
         style="font-size:45px;line-height:1.25"
         x="1192.4185"
         y="1268.7224"
         id="tspan3076">per entendre tot</tspan><tspan
         sodipodi:role="line"
         style="font-size:45px;line-height:1.25"
         x="1192.4185"
         y="1324.9724"
         id="tspan3078">això del Savi?</tspan></text>
    <text
       xml:space="preserve"
       style="font-style:normal;font-variant:normal;font-weight:normal;font-stretch:normal;line-height:0%;font-family:Lavi;-inkscape-font-specification:Lavi;text-align:center;letter-spacing:0px;word-spacing:0px;text-anchor:middle;fill:#000000;fill-opacity:1;stroke:none"
       x="535.57526"
       y="1822.1853"
       id="text4246-9-6-2-4-7"><tspan
         sodipodi:role="line"
         style="font-size:45px;line-height:1.25"
         x="535.57526"
         y="1822.1853"
         id="tspan4347">Massa joves</tspan><tspan
         sodipodi:role="line"
         style="font-size:45px;line-height:1.25"
         x="535.57526"
         y="1878.4353"
         id="tspan3082">per a què!?</tspan></text>
    <text
       xml:space="preserve"
       style="font-style:normal;font-variant:normal;font-weight:normal;font-stretch:normal;line-height:0%;font-family:Lavi;-inkscape-font-specification:Lavi;text-align:center;letter-spacing:0px;word-spacing:0px;text-anchor:middle;fill:#000000;fill-opacity:1;stroke:none"
       x="582.27185"
       y="1888.0491"
       id="text4246-9-6-2-4-7-3"
       transform="scale(0.96046588,1.0411614)"><tspan
         sodipodi:role="line"
         style="font-size:56.78048325px;line-height:1.25"
         x="582.27185"
         y="1888.0491"
         id="tspan4359">I anirem!</tspan></text>
    <path
       style="color:#000000;display:inline;overflow:visible;visibility:visible;fill:#ffffff;fill-opacity:1;fill-rule:nonzero;stroke:none;stroke-width:1px;marker:none;enable-background:accumulate"
       d="m 1859.9208,2026.0859 c -20.4432,-14.3102 -27.5983,-27.5982 -25.5539,-35.7755 2.0443,-8.1772 20.4431,-50.0857 42.9305,-55.1965 22.4875,-5.1108 80.7504,-11.2437 94.0385,-6.1329 13.2881,5.1107 51.1079,38.842 51.1079,56.2186 0,17.3767 -7.1551,51.1079 -27.5983,61.3294 -20.4431,10.2216 -110.393,16.3546 -134.9247,-20.4431 z"
       id="path3349"
       inkscape:connector-curvature="0" />
    <text
       xml:space="preserve"
       style="font-style:normal;font-variant:normal;font-weight:normal;font-stretch:normal;line-height:0%;font-family:Lavi;-inkscape-font-specification:Lavi;text-align:center;letter-spacing:0px;word-spacing:0px;text-anchor:middle;fill:#000000;fill-opacity:1;stroke:none"
       x="1926.6875"
       y="2003.7067"
       id="text4246-9-6-2-4-7-38"><tspan
         sodipodi:role="line"
         style="font-size:45px;line-height:1.25"
         x="1926.6875"
         y="2003.7067"
         id="tspan4364-4">“em”?</tspan></text>
    <text
       xml:space="preserve"
       style="font-style:normal;font-variant:normal;font-weight:normal;font-stretch:normal;line-height:0%;font-family:Lavi;-inkscape-font-specification:Lavi;text-align:center;letter-spacing:0px;word-spacing:0px;text-anchor:middle;fill:#000000;fill-opacity:1;stroke:none"
       x="387.05783"
       y="2331.2104"
       id="text4246-9-6-2-4-7-3-4-8-5"><tspan
         sodipodi:role="line"
         style="font-size:45px;line-height:1.25"
         x="387.05783"
         y="2331.2104"
         id="tspan4297">Bé, ja</tspan><tspan
         sodipodi:role="line"
         style="font-size:45px;line-height:1.25"
         x="387.05783"
         y="2387.4604"
         id="tspan4251">hi som.</tspan></text>
    <text
       xml:space="preserve"
       style="font-style:normal;font-variant:normal;font-weight:normal;font-stretch:normal;line-height:0%;font-family:Lavi;-inkscape-font-specification:Lavi;text-align:center;letter-spacing:0px;word-spacing:0px;text-anchor:middle;fill:#000000;fill-opacity:1;stroke:none"
       x="578.67468"
       y="2468.6233"
       id="text4246-9-6-2-4-7-3-4-8-5-3"><tspan
         sodipodi:role="line"
         style="font-size:45px;line-height:1.25"
         x="578.67468"
         y="2468.6233"
         id="tspan4365">Esteu de sort.</tspan><tspan
         sodipodi:role="line"
         style="font-size:45px;line-height:1.25"
         x="578.67468"
         y="2524.8733"
         id="tspan3110">Us deixarem</tspan><tspan
         sodipodi:role="line"
         style="font-size:45px;line-height:1.25"
         x="578.67468"
         y="2581.1233"
         id="tspan3097">conèixer el Savi.</tspan><tspan
         sodipodi:role="line"
         style="font-size:45px;line-height:1.25"
         x="586.58484"
         y="2637.3733"
         id="tspan4251-3"> </tspan></text>
    <text
       xml:space="preserve"
       style="font-style:normal;font-variant:normal;font-weight:normal;font-stretch:normal;line-height:0%;font-family:Lavi;-inkscape-font-specification:Lavi;text-align:center;letter-spacing:0px;word-spacing:0px;text-anchor:middle;fill:#000000;fill-opacity:1;stroke:none"
       x="797.9632"
       y="2658.2495"
       id="text4246-9-6-2-4-7-3-4-8-5-3-2"><tspan
         sodipodi:role="line"
         style="font-size:45px;line-height:1.25"
         x="805.87335"
         y="2658.2495"
         id="tspan4427">Es troba a dalt </tspan><tspan
         sodipodi:role="line"
         style="font-size:45px;line-height:1.25"
         x="805.87335"
         y="2714.4995"
         id="tspan4251-3-4">d'aquest pendent. </tspan></text>
    <path
       style="fill:#ffffff;fill-rule:evenodd;stroke:none;stroke-width:1px;stroke-linecap:butt;stroke-linejoin:miter;stroke-opacity:1"
       d="m 1585.0908,3119.4738 c 30.6334,65.5224 42.7573,60.4909 48.2051,30.0122 8.4865,11.0211 9.788,43.3168 35.2651,4.027 14.8404,28.5744 27.258,24.9438 37.6905,-5.0742 25.7036,54.1529 42.4602,22.9105 56.9464,10.8477 35.5304,30.3142 134.5779,35.0321 178.627,-3.9544 8.9555,13.9277 21.6225,33.8757 30.4182,4.9428 12.5859,12.1791 29.8491,-4.7723 50.2615,-41.3384 -3.0161,23.7947 -17.1254,64.3406 11.1513,40.8797 2.9412,17.0096 0.012,39.5072 60.264,2.9427 -18.1621,48.4386 32.8545,-0.8275 82.2769,-47.842 -31.3386,41.0085 -74.0605,91.4525 -21.444,75.0138 -30.0047,34.3511 -30.9971,57.2402 55.9819,45.3739 -57.0484,21.855 -100.6705,45.0556 -39.875,78.7237 -38.2473,-0.9324 -47.7632,9.4602 -6.0671,40.039 -59.2933,-20.2556 -64.2254,-10.9393 -49.4256,9.1108 -12.2054,0.3254 -33.4213,-16.6353 -31.3146,11.1477 -33.1361,-17.5396 -78.3948,-55.3389 -74.2286,-10.5391 -34.2133,-34.414 -40.3544,-22.0955 -44.7028,-6.7926 -60.8991,-52.0175 -53.4309,-20.9672 -65.4273,-13.5668 -17.5378,-19.2382 -17.3517,-3.4666 -14.4165,17.7351 -16.7159,-22.4795 -32.0568,-31.1547 -43.8743,-4.4474 -10.5014,-12.368 -20.7158,-29.8866 -33.3519,-3.9334 -14.5126,-14.182 -29.9766,-19.8309 -49.5538,11.4096 -7.7839,-18.8971 -19.5098,-32.508 -60.0078,-7.54 -6.8715,-40.5341 -41.2941,-34.0262 -84.6871,-12.2024 1.7224,-23.8104 -1.4122,-39.4578 -46.9398,16.147 9.6737,-24.3123 20.6569,-49.94 -6.5604,-37.1984 17.7283,-46.5166 -45.7286,-5.3246 -82.9056,7.476 42.7688,-39.0106 105.1819,-86.403 55.6284,-86.0215 34.5062,-27.001 38.3145,-40.5096 9.8935,-39.8521 2.4666,-8.3529 37.2628,-23.6559 -1.5891,-23.1263 20.7048,-11.3569 50.9093,-8.0504 43.7615,-62.3997 z"
       id="path4656"
       inkscape:connector-curvature="0"
       sodipodi:nodetypes="ccccccccccccccccccccccccccccccccc" />
    <path
       style="fill:#ffffff;fill-rule:evenodd;stroke:none;stroke-width:1px;stroke-linecap:butt;stroke-linejoin:miter;stroke-opacity:1"
       d="m 1395.9187,3167.1846 119.1853,69.1782 -1.1569,-33.8487 82.9076,45.0833 5.0953,-29.1891 -103.505,-45.5434 0.025,38.633 z"
       id="path4667"
       inkscape:connector-curvature="0"
       inkscape:transform-center-x="75.322047"
       inkscape:transform-center-y="-6.237049" />
    <text
       xml:space="preserve"
       style="font-style:normal;font-variant:normal;font-weight:normal;font-stretch:normal;line-height:0%;font-family:Lavi;-inkscape-font-specification:Lavi;text-align:center;letter-spacing:0px;word-spacing:0px;text-anchor:middle;fill:#000000;fill-opacity:1;stroke:none"
       x="1848.6848"
       y="3238.427"
       id="text4246-9-6-2-4-7-3-4-8-5-9"><tspan
         sodipodi:role="line"
         style="font-size:45px;line-height:1.25"
         x="1848.6848"
         y="3238.427"
         id="tspan4445">Preparades per aprendre</tspan></text>
    <text
       xml:space="preserve"
       style="font-style:normal;font-variant:normal;font-weight:normal;font-stretch:normal;line-height:0%;font-family:Lavi;-inkscape-font-specification:Lavi;text-align:center;letter-spacing:0px;word-spacing:0px;text-anchor:middle;fill:#000000;fill-opacity:1;stroke:#000000;stroke-width:1.59401214;stroke-miterlimit:4;stroke-dasharray:none;stroke-opacity:1"
       x="2621.6475"
       y="2951.2043"
       id="text4246-6-6-6-3-9"
       transform="matrix(0.89466356,0,-0.16927076,1.1177386,0,0)"><tspan
         sodipodi:role="line"
         style="font-size:53.13374329px;line-height:1.25;stroke:#000000;stroke-width:1.59401214;stroke-miterlimit:4;stroke-dasharray:none;stroke-opacity:1"
         x="2621.6475"
         y="2951.2043"
         id="tspan4182-3-7">una bona lliçó?!</tspan></text>
    <text
       xml:space="preserve"
       style="font-style:normal;font-variant:normal;font-weight:normal;font-stretch:normal;line-height:0%;font-family:Lavi;-inkscape-font-specification:Lavi;text-align:center;letter-spacing:0px;word-spacing:0px;text-anchor:middle;fill:#000000;fill-opacity:1;stroke:#000000;stroke-width:1.54220855;stroke-miterlimit:4;stroke-dasharray:none;stroke-opacity:1"
       x="708.45795"
       y="491.92728"
       id="text4246-6-6-6-3-9-0"
       transform="matrix(0.92481111,0,-0.17497469,1.0813019,0,0)"><tspan
         sodipodi:role="line"
         style="font-size:51.40695572px;line-height:1.25;stroke:#000000;stroke-width:1.54220855;stroke-miterlimit:4;stroke-dasharray:none;stroke-opacity:1"
         x="708.45795"
         y="491.92728"
         id="tspan4182-3-7-6">el Savi de la muntanya!</tspan></text>
    <text
       xml:space="preserve"
       style="font-style:normal;font-variant:normal;font-weight:normal;font-stretch:normal;line-height:0%;font-family:Lavi;-inkscape-font-specification:Lavi;text-align:center;letter-spacing:0px;word-spacing:0px;text-anchor:middle;fill:#000000;fill-opacity:1;stroke:none"
       x="698.46021"
       y="636.0462"
       id="text4246-9-9"><tspan
         sodipodi:role="line"
         style="font-size:45px;line-height:1.25"
         x="698.46021"
         y="636.0462"
         id="tspan3065">El seu coneixement</tspan><tspan
         sodipodi:role="line"
         style="font-size:45px;line-height:1.25"
         x="698.46021"
         y="692.2962"
         id="tspan3069">és essencial.</tspan></text>
  </g>
</svg>
