<?xml version="1.0" encoding="UTF-8" standalone="no"?>
<!-- Created with Inkscape (http://www.inkscape.org/) -->

<svg
   xmlns:dc="http://purl.org/dc/elements/1.1/"
   xmlns:cc="http://creativecommons.org/ns#"
   xmlns:rdf="http://www.w3.org/1999/02/22-rdf-syntax-ns#"
   xmlns:svg="http://www.w3.org/2000/svg"
   xmlns="http://www.w3.org/2000/svg"
   xmlns:xlink="http://www.w3.org/1999/xlink"
   xmlns:sodipodi="http://sodipodi.sourceforge.net/DTD/sodipodi-0.dtd"
   xmlns:inkscape="http://www.inkscape.org/namespaces/inkscape"
   id="svg2"
   version="1.1"
   inkscape:version="0.92.2 2405546, 2018-03-11"
   width="2481"
   height="3503"
   sodipodi:docname="E27P05.svg">
  <metadata
     id="metadata8">
    <rdf:RDF>
      <cc:Work
         rdf:about="">
        <dc:format>image/svg+xml</dc:format>
        <dc:type
           rdf:resource="http://purl.org/dc/dcmitype/StillImage" />
        <dc:title />
      </cc:Work>
    </rdf:RDF>
  </metadata>
  <defs
     id="defs6">
    <filter
       style="color-interpolation-filters:sRGB"
       id="filter4375-4-1-1-1-9-7-7-0-3-7"
       inkscape:label="deevad outline effect">
      <feFlood
         id="feFlood4377-7-9-0-8-1-4-8-3-2-4"
         flood-opacity="1"
         flood-color="rgb(0,0,0)"
         result="flood" />
      <feComposite
         id="feComposite4379-3-8-8-2-77-7-8-1-2-6"
         in2="SourceGraphic"
         in="flood"
         operator="in"
         result="composite1" />
      <feMorphology
         id="feMorphology4393-1-0-49-8-9-3-9-0-1-4"
         operator="dilate"
         radius="4"
         result="result3" />
      <feComposite
         id="feComposite4385-9-5-7-0-8-0-0-3-5-9"
         in2="result3"
         in="SourceGraphic"
         operator="over"
         result="composite2" />
    </filter>
    <filter
       style="color-interpolation-filters:sRGB"
       id="filter4375-4-1-1-1-9-7-7-0-1"
       inkscape:label="deevad outline effect">
      <feFlood
         id="feFlood4377-7-9-0-8-1-4-8-3-23"
         flood-opacity="1"
         flood-color="rgb(0,0,0)"
         result="flood" />
      <feComposite
         id="feComposite4379-3-8-8-2-77-7-8-1-1"
         in2="SourceGraphic"
         in="flood"
         operator="in"
         result="composite1" />
      <feMorphology
         id="feMorphology4393-1-0-49-8-9-3-9-0-8"
         operator="dilate"
         radius="4"
         result="result3" />
      <feComposite
         id="feComposite4385-9-5-7-0-8-0-0-3-1"
         in2="result3"
         in="SourceGraphic"
         operator="over"
         result="composite2" />
    </filter>
    <filter
       style="color-interpolation-filters:sRGB"
       id="filter4375-4-1-1-1-9-7-7-3"
       inkscape:label="deevad outline effect">
      <feFlood
         id="feFlood4377-7-9-0-8-1-4-8-8"
         flood-opacity="1"
         flood-color="rgb(0,0,0)"
         result="flood" />
      <feComposite
         id="feComposite4379-3-8-8-2-77-7-8-9"
         in2="SourceGraphic"
         in="flood"
         operator="in"
         result="composite1" />
      <feMorphology
         id="feMorphology4393-1-0-49-8-9-3-9-2"
         operator="dilate"
         radius="4"
         result="result3" />
      <feComposite
         id="feComposite4385-9-5-7-0-8-0-0-4"
         in2="result3"
         in="SourceGraphic"
         operator="over"
         result="composite2" />
    </filter>
    <filter
       style="color-interpolation-filters:sRGB"
       id="filter4375-4-1-1-1-9-7-5"
       inkscape:label="deevad outline effect">
      <feFlood
         id="feFlood4377-7-9-0-8-1-4-1"
         flood-opacity="1"
         flood-color="rgb(0,0,0)"
         result="flood" />
      <feComposite
         id="feComposite4379-3-8-8-2-77-7-0"
         in2="SourceGraphic"
         in="flood"
         operator="in"
         result="composite1" />
      <feMorphology
         id="feMorphology4393-1-0-49-8-9-3-0"
         operator="dilate"
         radius="4"
         result="result3" />
      <feComposite
         id="feComposite4385-9-5-7-0-8-0-1"
         in2="result3"
         in="SourceGraphic"
         operator="over"
         result="composite2" />
    </filter>
    <filter
       style="color-interpolation-filters:sRGB"
       id="filter4375-4-1-1-1-9-3"
       inkscape:label="deevad outline effect">
      <feFlood
         id="feFlood4377-7-9-0-8-1-3"
         flood-opacity="1"
         flood-color="rgb(0,0,0)"
         result="flood" />
      <feComposite
         id="feComposite4379-3-8-8-2-77-0"
         in2="SourceGraphic"
         in="flood"
         operator="in"
         result="composite1" />
      <feMorphology
         id="feMorphology4393-1-0-49-8-9-0"
         operator="dilate"
         radius="3"
         result="result3" />
      <feComposite
         id="feComposite4385-9-5-7-0-8-02"
         in2="result3"
         in="SourceGraphic"
         operator="over"
         result="composite2" />
    </filter>
    <filter
       style="color-interpolation-filters:sRGB"
       id="filter4375-4-1-1-1-9-8"
       inkscape:label="Roughen">
      <feFlood
         id="feFlood4377-7-9-0-8-1-96"
         flood-opacity="1"
         flood-color="rgb(0,0,0)"
         result="flood" />
      <feComposite
         id="feComposite4379-3-8-8-2-77-4"
         in2="SourceGraphic"
         in="flood"
         operator="in"
         result="composite1" />
      <feMorphology
         id="feMorphology4393-1-0-49-8-9-33"
         operator="dilate"
         radius="4"
         result="result3" />
      <feComposite
         id="feComposite4385-9-5-7-0-8-38"
         in2="result3"
         in="SourceGraphic"
         operator="over"
         result="fbSourceGraphic" />
      <feColorMatrix
         result="fbSourceGraphicAlpha"
         in="fbSourceGraphic"
         values="0 0 0 -1 0 0 0 0 -1 0 0 0 0 -1 0 0 0 0 1 0"
         id="feColorMatrix333-6" />
      <feTurbulence
         id="feTurbulence335-0"
         type="fractalNoise"
         numOctaves="5"
         seed="1"
         baseFrequency="0.013 0.013"
         result="turbulence" />
      <feDisplacementMap
         in2="turbulence"
         id="feDisplacementMap337-48"
         in="fbSourceGraphic"
         scale="6.6"
         yChannelSelector="G"
         xChannelSelector="R"
         result="fbSourceGraphic" />
      <feColorMatrix
         result="fbSourceGraphicAlpha"
         in="fbSourceGraphic"
         values="0 0 0 -1 0 0 0 0 -1 0 0 0 0 -1 0 0 0 0 1 0"
         id="feColorMatrix435-8" />
      <feTurbulence
         id="feTurbulence437-8"
         type="fractalNoise"
         numOctaves="5"
         seed="27"
         baseFrequency="0.001 0.4414"
         result="turbulence" />
      <feDisplacementMap
         in2="turbulence"
         id="feDisplacementMap439-9"
         in="fbSourceGraphic"
         scale="4.27461"
         yChannelSelector="G"
         xChannelSelector="R" />
    </filter>
    <filter
       style="color-interpolation-filters:sRGB"
       id="filter4375-4-1-1-1-9-30-7"
       inkscape:label="Roughen">
      <feFlood
         id="feFlood4377-7-9-0-8-1-78-41"
         flood-opacity="1"
         flood-color="rgb(0,0,0)"
         result="flood" />
      <feComposite
         id="feComposite4379-3-8-8-2-77-68-8"
         in2="SourceGraphic"
         in="flood"
         operator="in"
         result="composite1" />
      <feMorphology
         id="feMorphology4393-1-0-49-8-9-8-59"
         operator="dilate"
         radius="4"
         result="result3" />
      <feComposite
         id="feComposite4385-9-5-7-0-8-4-7"
         in2="result3"
         in="SourceGraphic"
         operator="over"
         result="fbSourceGraphic" />
      <feColorMatrix
         result="fbSourceGraphicAlpha"
         in="fbSourceGraphic"
         values="0 0 0 -1 0 0 0 0 -1 0 0 0 0 -1 0 0 0 0 1 0"
         id="feColorMatrix333-3-5" />
      <feTurbulence
         id="feTurbulence335-1-3"
         type="fractalNoise"
         numOctaves="5"
         seed="1"
         baseFrequency="0.013 0.013"
         result="turbulence" />
      <feDisplacementMap
         in2="turbulence"
         id="feDisplacementMap337-4-8"
         in="fbSourceGraphic"
         scale="6.6"
         yChannelSelector="G"
         xChannelSelector="R"
         result="fbSourceGraphic" />
      <feColorMatrix
         result="fbSourceGraphicAlpha"
         in="fbSourceGraphic"
         values="0 0 0 -1 0 0 0 0 -1 0 0 0 0 -1 0 0 0 0 1 0"
         id="feColorMatrix435-92-8" />
      <feTurbulence
         id="feTurbulence437-06-3"
         type="fractalNoise"
         numOctaves="5"
         seed="27"
         baseFrequency="0.001 0.4414"
         result="turbulence" />
      <feDisplacementMap
         in2="turbulence"
         id="feDisplacementMap439-8-1"
         in="fbSourceGraphic"
         scale="4.27461"
         yChannelSelector="G"
         xChannelSelector="R" />
    </filter>
    <filter
       style="color-interpolation-filters:sRGB"
       id="filter4375-4-1-1-1-9-30-2-7-9"
       inkscape:label="Roughen">
      <feFlood
         id="feFlood4377-7-9-0-8-1-78-6-7-8"
         flood-opacity="1"
         flood-color="rgb(0,0,0)"
         result="flood" />
      <feComposite
         id="feComposite4379-3-8-8-2-77-68-1-1-4"
         in2="SourceGraphic"
         in="flood"
         operator="in"
         result="composite1" />
      <feMorphology
         id="feMorphology4393-1-0-49-8-9-8-0-1-8"
         operator="dilate"
         radius="4"
         result="result3" />
      <feComposite
         id="feComposite4385-9-5-7-0-8-4-6-5-1"
         in2="result3"
         in="SourceGraphic"
         operator="over"
         result="fbSourceGraphic" />
      <feColorMatrix
         result="fbSourceGraphicAlpha"
         in="fbSourceGraphic"
         values="0 0 0 -1 0 0 0 0 -1 0 0 0 0 -1 0 0 0 0 1 0"
         id="feColorMatrix333-3-1-9-0" />
      <feTurbulence
         id="feTurbulence335-1-5-7-3"
         type="fractalNoise"
         numOctaves="5"
         seed="1"
         baseFrequency="0.013 0.013"
         result="turbulence" />
      <feDisplacementMap
         in2="turbulence"
         id="feDisplacementMap337-4-9-7-0"
         in="fbSourceGraphic"
         scale="6.6"
         yChannelSelector="G"
         xChannelSelector="R"
         result="fbSourceGraphic" />
      <feColorMatrix
         result="fbSourceGraphicAlpha"
         in="fbSourceGraphic"
         values="0 0 0 -1 0 0 0 0 -1 0 0 0 0 -1 0 0 0 0 1 0"
         id="feColorMatrix435-92-4-6-4" />
      <feTurbulence
         id="feTurbulence437-06-9-7-4"
         type="fractalNoise"
         numOctaves="5"
         seed="27"
         baseFrequency="0.001 0.4414"
         result="turbulence" />
      <feDisplacementMap
         in2="turbulence"
         id="feDisplacementMap439-8-0-3-4"
         in="fbSourceGraphic"
         scale="4.27461"
         yChannelSelector="G"
         xChannelSelector="R" />
    </filter>
    <filter
       style="color-interpolation-filters:sRGB"
       id="filter4375-4-1-1-1-9-30-2-4"
       inkscape:label="Roughen">
      <feFlood
         id="feFlood4377-7-9-0-8-1-78-6-76"
         flood-opacity="1"
         flood-color="rgb(0,0,0)"
         result="flood" />
      <feComposite
         id="feComposite4379-3-8-8-2-77-68-1-3"
         in2="SourceGraphic"
         in="flood"
         operator="in"
         result="composite1" />
      <feMorphology
         id="feMorphology4393-1-0-49-8-9-8-0-17"
         operator="dilate"
         radius="4"
         result="result3" />
      <feComposite
         id="feComposite4385-9-5-7-0-8-4-6-59"
         in2="result3"
         in="SourceGraphic"
         operator="over"
         result="fbSourceGraphic" />
      <feColorMatrix
         result="fbSourceGraphicAlpha"
         in="fbSourceGraphic"
         values="0 0 0 -1 0 0 0 0 -1 0 0 0 0 -1 0 0 0 0 1 0"
         id="feColorMatrix333-3-1-6" />
      <feTurbulence
         id="feTurbulence335-1-5-2"
         type="fractalNoise"
         numOctaves="5"
         seed="1"
         baseFrequency="0.013 0.013"
         result="turbulence" />
      <feDisplacementMap
         in2="turbulence"
         id="feDisplacementMap337-4-9-1"
         in="fbSourceGraphic"
         scale="6.6"
         yChannelSelector="G"
         xChannelSelector="R"
         result="fbSourceGraphic" />
      <feColorMatrix
         result="fbSourceGraphicAlpha"
         in="fbSourceGraphic"
         values="0 0 0 -1 0 0 0 0 -1 0 0 0 0 -1 0 0 0 0 1 0"
         id="feColorMatrix435-92-4-7" />
      <feTurbulence
         id="feTurbulence437-06-9-8"
         type="fractalNoise"
         numOctaves="5"
         seed="27"
         baseFrequency="0.001 0.4414"
         result="turbulence" />
      <feDisplacementMap
         in2="turbulence"
         id="feDisplacementMap439-8-0-5"
         in="fbSourceGraphic"
         scale="4.27461"
         yChannelSelector="G"
         xChannelSelector="R" />
    </filter>
    <filter
       style="color-interpolation-filters:sRGB"
       id="filter4375-4-1-1-1-9-30-2-7-6-5"
       inkscape:label="Roughen">
      <feFlood
         id="feFlood4377-7-9-0-8-1-78-6-7-3-0"
         flood-opacity="1"
         flood-color="rgb(0,0,0)"
         result="flood" />
      <feComposite
         id="feComposite4379-3-8-8-2-77-68-1-1-9-9"
         in2="SourceGraphic"
         in="flood"
         operator="in"
         result="composite1" />
      <feMorphology
         id="feMorphology4393-1-0-49-8-9-8-0-1-4-6"
         operator="dilate"
         radius="4"
         result="result3" />
      <feComposite
         id="feComposite4385-9-5-7-0-8-4-6-5-8-3"
         in2="result3"
         in="SourceGraphic"
         operator="over"
         result="fbSourceGraphic" />
      <feColorMatrix
         result="fbSourceGraphicAlpha"
         in="fbSourceGraphic"
         values="0 0 0 -1 0 0 0 0 -1 0 0 0 0 -1 0 0 0 0 1 0"
         id="feColorMatrix333-3-1-9-1-8" />
      <feTurbulence
         id="feTurbulence335-1-5-7-2-5"
         type="fractalNoise"
         numOctaves="5"
         seed="1"
         baseFrequency="0.013 0.013"
         result="turbulence" />
      <feDisplacementMap
         in2="turbulence"
         id="feDisplacementMap337-4-9-7-9-6"
         in="fbSourceGraphic"
         scale="6.6"
         yChannelSelector="G"
         xChannelSelector="R"
         result="fbSourceGraphic" />
      <feColorMatrix
         result="fbSourceGraphicAlpha"
         in="fbSourceGraphic"
         values="0 0 0 -1 0 0 0 0 -1 0 0 0 0 -1 0 0 0 0 1 0"
         id="feColorMatrix435-92-4-6-3-1" />
      <feTurbulence
         id="feTurbulence437-06-9-7-9-1"
         type="fractalNoise"
         numOctaves="5"
         seed="27"
         baseFrequency="0.001 0.4414"
         result="turbulence" />
      <feDisplacementMap
         in2="turbulence"
         id="feDisplacementMap439-8-0-3-0-5"
         in="fbSourceGraphic"
         scale="4.27461"
         yChannelSelector="G"
         xChannelSelector="R" />
    </filter>
  </defs>
  <sodipodi:namedview
     pagecolor="#ffffff"
     bordercolor="#666666"
     borderopacity="1"
     objecttolerance="10"
     gridtolerance="10"
     guidetolerance="10"
     inkscape:pageopacity="0"
     inkscape:pageshadow="2"
     inkscape:window-width="1920"
     inkscape:window-height="1070"
     id="namedview4"
     showgrid="false"
     inkscape:zoom="0.24456142"
     inkscape:cx="1333.176"
     inkscape:cy="1343.4613"
     inkscape:window-x="0"
     inkscape:window-y="27"
     inkscape:window-maximized="1"
     inkscape:current-layer="layer3" />
  <g
     inkscape:groupmode="layer"
     id="layer2"
     inkscape:label="artwork"
     sodipodi:insensitive="true">
    <image
       sodipodi:absref="/home/midgard/git/peppercarrot/comics/ep27_Coriander-s-Invention/lang/no/../gfx_Pepper-and-Carrot_by-David-Revoy_E27P05.png"
       xlink:href="../gfx_Pepper-and-Carrot_by-David-Revoy_E27P05.png"
       width="2481"
       height="3503"
       id="image10"
       x="0"
       y="0" />
  </g>
  <g
     inkscape:groupmode="layer"
     id="layer3"
     inkscape:label="speechbubbles"
     style="display:inline">
    <path
       style="fill:#ffffff;fill-rule:evenodd;stroke:none;stroke-width:1.02801943px;stroke-linecap:butt;stroke-linejoin:miter;stroke-opacity:1"
       d="m 741.01801,252.58289 c 0,-44.31088 19.01181,-68.61039 23.76476,-77.18669 4.75295,-8.5763 79.21581,-45.74026 93.47466,-47.16964 14.25887,-1.42938 87.13741,0 112.48647,7.14691 25.34907,7.14692 71.2943,20.01137 87.1374,34.3052 15.8431,14.29383 44.3609,41.45211 44.3609,72.89853 0,31.44643 -22.1804,70.03978 -44.3609,85.76299 -22.1805,15.72321 -93.47466,28.58766 -123.57668,27.15828 -30.102,-1.42939 -98.22761,0 -125.16099,-20.01137 -26.93339,-20.01136 -68.12562,-41.4521 -68.12562,-82.90421 z"
       id="path1076"
       inkscape:connector-curvature="0" />
    <path
       style="fill:#ffffff;fill-rule:evenodd;stroke:none;stroke-width:1px;stroke-linecap:butt;stroke-linejoin:miter;stroke-opacity:1"
       d="m 940.3125,313.50325 c 0,0 -8.64656,34.5862 -16.21229,50.79849 -7.56573,16.21228 -11.88901,24.85883 -5.40409,39.9903 6.48491,15.13146 23.77801,25.93965 23.77801,42.15194 0,16.21228 -12.96982,60.52586 -35.66702,85.3847 17.2931,-33.50539 22.6972,-67.01078 18.37392,-82.14224 -4.32328,-15.13147 -33.50539,-33.50539 -33.50539,-48.63686 0,-15.13146 28.1013,-89.70797 28.1013,-89.70797 z"
       id="path1078"
       inkscape:connector-curvature="0" />
    <path
       style="fill:#ffffff;fill-rule:evenodd;stroke:none;stroke-width:1.13392437px;stroke-linecap:butt;stroke-linejoin:miter;stroke-opacity:1"
       d="m 1127.159,279.77891 c 7.0569,-55.34054 42.3404,-80.88233 67.7446,-85.13929 25.4043,-4.25697 114.2528,-12.22735 141.0684,-9.03463 26.8156,3.19273 115.7969,6.90614 141.2012,46.28307 25.4043,39.37691 25.3115,66.03151 12.9786,102.38148 -13.3813,39.43986 -43.9216,56.99604 -108.8437,56.99604 -64.9221,0 -176.5777,8.58519 -213.2728,-16.9566 -36.6951,-25.54179 -43.6992,-55.15315 -40.8763,-94.53007 z"
       id="path1080"
       inkscape:connector-curvature="0"
       sodipodi:nodetypes="csscsssc" />
    <path
       style="fill:#ffffff;fill-rule:evenodd;stroke:none;stroke-width:1px;stroke-linecap:butt;stroke-linejoin:miter;stroke-opacity:1"
       d="m 1217.8165,309.12725 c -9.7274,39.9903 -10.8082,52.96012 -21.6164,69.17241 -10.8082,16.21228 -29.1821,20.53556 -31.3438,29.18211 -2.1616,8.64655 1.0808,29.18211 20.5356,51.87931 -36.7479,-29.18211 -35.667,-43.23276 -32.4246,-60.52586 3.2425,-17.2931 25.9397,-18.37392 33.5054,-54.04095 7.5657,-35.66702 16.2123,-56.20258 16.2123,-56.20258 z"
       id="path1082"
       inkscape:connector-curvature="0" />
    <path
       style="fill:#ffffff;fill-rule:evenodd;stroke:none;stroke-width:1px;stroke-linecap:butt;stroke-linejoin:miter;stroke-opacity:1"
       d="m 381.62228,1130.1196 c 7.10656,-26.2943 39.08608,-39.0861 50.45657,-41.2181 11.3705,-2.1319 69.64429,3.5533 87.41069,13.5025 17.7664,9.9492 32.69018,19.8984 34.82215,30.5582 2.13197,10.6598 2.13197,24.873 -2.84263,33.4008 -4.97459,8.5279 -68.93363,18.4771 -84.56806,20.6091 -15.63443,2.1319 -47.61395,-0.7107 -65.38035,-9.2386 -17.7664,-8.5278 -23.45165,-24.8729 -19.89837,-47.6139 z"
       id="path1084"
       inkscape:connector-curvature="0" />
    <path
       style="fill:#ffffff;fill-rule:evenodd;stroke:none;stroke-width:1px;stroke-linecap:butt;stroke-linejoin:miter;stroke-opacity:1"
       d="m 441.31738,1197.6319 c 15.63444,-22.0303 54.72052,-29.8476 79.59348,-30.5582 24.87296,-0.7107 43.35001,-2.132 58.98445,5.6852 15.63443,7.8173 36.95411,17.0558 35.5328,35.5328 -1.42132,18.4771 0.71065,31.2689 -13.50247,41.9287 -14.21312,10.6599 -61.11642,17.0558 -71.77626,17.7664 -10.65984,0.7107 -27.71558,4.264 -49.03526,-5.6852 -21.31968,-9.9492 -39.08608,-24.1623 -41.21805,-36.9541 -2.13197,-12.7918 1.42131,-27.7156 1.42131,-27.7156 z"
       id="path1086"
       inkscape:connector-curvature="0" />
    <path
       style="fill:#ffffff;fill-rule:evenodd;stroke:none;stroke-width:1px;stroke-linecap:butt;stroke-linejoin:miter;stroke-opacity:1"
       d="m 502.33666,1275.8008 c 7.10656,-22.0303 26.39141,-32.6869 50.55372,-32.6869 24.1623,0 59.6951,-2.8426 76.75085,7.8172 17.05574,10.6598 25.58361,22.741 24.87296,35.5328 -0.71066,12.7918 -7.81722,27.7156 -22.741,35.5328 -14.92377,7.8172 -52.58854,9.2385 -76.75085,7.1066 -24.1623,-2.132 -49.03688,-16.3484 -52.58854,-27.7156 -1.92638,-9.3357 -0.0971,-25.5869 -0.0971,-25.5869 z"
       id="path1088"
       inkscape:connector-curvature="0"
       sodipodi:nodetypes="cssssccc" />
    <path
       style="fill:#ffffff;fill-rule:evenodd;stroke:none;stroke-width:1px;stroke-linecap:butt;stroke-linejoin:miter;stroke-opacity:1"
       d="m 596.46743,1302.5188 c 0,0 8.06037,1.6121 6.98565,11.8219 -1.07471,10.2098 -10.74716,38.6898 -16.6581,45.6754 9.67245,-7.523 19.88225,-15.046 31.16677,-6.9856 11.28452,8.0603 19.88225,12.8966 6.4483,38.6898 0.53735,5.9109 1.61207,15.5833 9.67244,18.8075 -18.27017,-6.4483 -22.03168,-15.5834 -19.88225,-23.6438 2.14943,-8.0603 6.98566,-18.2701 0.53736,-22.0317 -6.4483,-3.7615 -26.8679,17.1955 -34.92827,7.5231 -8.06037,-9.6725 -8.06037,-16.6581 -6.4483,-19.8823 1.61208,-3.2241 10.74716,-13.9713 11.82188,-19.8822 1.07471,-5.911 1.61207,-18.2702 -2.14943,-24.7185 -3.76151,-6.4483 13.43395,-5.3736 13.43395,-5.3736 z"
       id="path1090"
       inkscape:connector-curvature="0" />
    <path
       style="fill:#ffffff;fill-rule:evenodd;stroke:none;stroke-width:1.1201669px;stroke-linecap:butt;stroke-linejoin:miter;stroke-opacity:1"
       d="m 86.775507,2135.1997 c 27.754313,11.1554 85.686553,56.2373 28.872123,90.7272 18.80195,12.5185 75.85461,5.596 9.72737,73.2338 103.06565,-29.4583 88.57768,25.7393 58.36422,66.453 107.77871,-74.6939 89.20361,-36.9272 70.03143,7.5982 80.84118,-62.6251 60.97243,0.5048 54.26275,20.8816 42.20265,-33.0174 66.7549,-30.1772 69.17242,17.6305 42.64042,-76.3123 64.27867,-27.1647 81.06142,1.3561 -5.3419,-24.4826 13.32894,-93.7842 78.89978,-13.5618 -10.71279,-57.8767 19.79613,-54.5015 81.06143,-5.4248 -46.94423,-88.129 33.65459,-47.804 55.12176,-29.836 -27.41526,-25.4718 -64.31284,-98.1527 38.90949,-47.4665 -41.48742,-29.1466 -58.57605,-54.7943 31.34375,-65.0968 -40.77637,-18.5465 -63.79199,-37.4208 22.69719,-58.3158 -26.3266,-6.3108 -76.83429,4.0961 -4.63327,-66.3159 -48.15595,2.2753 -66.97625,-4.0526 -10.20845,-32.5485 -76.26914,12.522 -97.60657,10.5441 -24.95397,-50.1787 -121.23051,64.5467 -70.47908,4.612 -55.31638,-17.7242 -52.36865,34.3734 -88.38109,53.1851 -30.26293,-17.5628 -101.29035,49.9613 -64.5478,-21.0699 -62.6875,-41.5122 -51.84205,90.8155 -56.47856,16.8039 -62.6875,-0.6404 -9.87583,20.9868 -12.47761,11.0201 -22.69719,-2.7123 -16.28,26.6363 -32.81186,51.1238 -58.36423,-1.3561 -16.31205,49.4717 -37.52356,27.22 -59.44504,-5.4248 1.8202,73.6841 -45.1974,5.6572 -70.25323,1.3562 19.48149,71.8784 -19.29542,36.7159 -50.79849,14.9179 58.97783,90.5498 -32.75724,46.6127 -62.6875,16.2122 65.72865,80.8253 5.36584,74.6967 -53.22078,38.5442 72.6837,61.1676 19.19839,91.2304 -22.95187,41.6699 53.50837,62.1261 24.78148,71.4487 -28.356803,65.0968 z"
       id="path1092"
       inkscape:connector-curvature="0"
       sodipodi:nodetypes="cccccccccccccccccccccccccccccc" />
    <path
       style="fill:#ffffff;fill-rule:evenodd;stroke:none;stroke-width:1px;stroke-linecap:butt;stroke-linejoin:miter;stroke-opacity:1"
       d="m 357.21198,2209.9917 c -73.33356,55.9324 -104.40711,93.2206 -116.83653,150.3959 -12.42942,57.1754 -21.13001,118.0795 47.23179,190.1701 -79.54827,-68.3618 -74.57651,-141.6953 -72.09062,-162.8253 2.48588,-21.1301 16.15824,-95.7066 60.90414,-147.9101 44.74591,-52.2036 93.22064,-87.0059 93.22064,-87.0059 l 6.21471,34.8023 z"
       id="path1094"
       inkscape:connector-curvature="0" />
    <path
       style="fill:#ffffff;fill-rule:evenodd;stroke:none;stroke-width:1.10973847px;stroke-linecap:butt;stroke-linejoin:miter;stroke-opacity:1"
       d="m 858.79591,1956.7184 c 49.41051,41.6222 40.31281,59.7928 -29.34104,53.6905 111.04977,63.9131 65.20722,73.4793 -5.10281,74.57 47.19881,23.3445 99.42364,46.1887 -8.92989,85.0101 62.79197,6.294 117.50374,15.1811 10.20558,76.0614 55.66879,-2.5004 111.79066,-5.3159 44.64945,77.5529 91.12495,-37.2209 154.3309,-48.1708 107.15865,44.7421 45.80295,-27.3629 121.10405,-96.709 94.40165,-20.8796 20.985,-24.2173 47.692,-33.3828 95.6773,13.4226 -9.357,-33.7558 -37.5492,-87.2534 47.2009,-22.371 -25.6204,-50.7682 -30.7216,-78.2744 54.8551,-2.9828 -12.7484,-38.2794 -67.7052,-76.5586 36.9952,-114.838 -72.1199,-3.8179 -49.7494,-29.7293 -3.8271,-61.1475 -85.8764,-17.3639 -43.3868,-38.388 7.6543,-59.6561 -53.192,-8.1066 -94.2289,-21.7589 -10.2058,-92.467 -92.4857,29.3544 -65.7208,-20.2928 -61.2335,-55.1818 -42.6805,27.7037 -90.9463,71.1876 -94.4016,-11.9313 -57.2544,103.1238 -78.9326,24.2836 -110.9858,-1.4914 -33.3384,98.7649 -108.91324,5.6572 -130.12116,1.4914 43.24959,50.2241 50.80086,72.9645 -44.64943,16.4055 z"
       id="path1096"
       inkscape:connector-curvature="0"
       sodipodi:nodetypes="cccccccccccccccccccc" />
    <path
       style="fill:#ffffff;fill-rule:evenodd;stroke:none;stroke-width:1px;stroke-linecap:butt;stroke-linejoin:miter;stroke-opacity:1"
       d="m 1092.4181,2235.1567 c -27.3447,36.0454 -98.19242,124.2942 -99.43532,131.7519 -1.24299,7.4576 39.77412,-2.4859 39.77412,-2.4859 l -60.90418,89.4918 c 0,0 103.16418,-99.4353 109.37888,-104.4071 6.2147,-4.9718 -23.6159,-11.1865 -41.0171,-6.2147 19.8871,-19.8871 99.4354,-99.4354 99.4354,-99.4354 z"
       id="path1098"
       inkscape:connector-curvature="0" />
    <path
       style="fill:#ffffff;fill-rule:evenodd;stroke:none;stroke-width:0.99999994px;stroke-linecap:butt;stroke-linejoin:miter;stroke-opacity:1"
       d="m 1344.6207,2045.122 c 45.2754,25.8606 60.5321,-19.2377 71.0175,-75.6144 -1.947,137.8642 61.958,79.1036 133.7769,-3.2875 -21.3681,100.9579 35.5842,107.6272 106.4803,51.1627 -8.0185,48.7044 20.2474,68.0509 95.7868,24.8367 -22.8223,54.9811 -66.5988,105.8558 97.3202,39.8106 -47.9934,36.851 -123.5465,83.4177 -18.8206,116.0465 -94.3073,14.3838 -118.419,81.7414 -93.8193,113.658 -44.9294,-64.5955 -83.8929,-53.9715 -66.3829,49.0773 -45.1933,-48.926 -82.2292,-81.9737 -90.8363,-26.3007 -81.4681,-144.4324 -64.1156,45.1846 -62.7595,164.3791 -23.035,-139.5228 -49.8995,-277.2814 -120.5645,-126.5719 -0.4993,-53.3867 -17.8394,-91.517 -51.1986,-64.1078 z"
       id="path1100"
       inkscape:connector-curvature="0"
       sodipodi:nodetypes="cccccccccccccc" />
  </g>
  <g
     inkscape:groupmode="layer"
     id="layer1"
     inkscape:label="txt">
    <text
       xml:space="preserve"
       style="font-style:normal;font-variant:normal;font-weight:normal;font-stretch:normal;line-height:0%;font-family:Lavi;-inkscape-font-specification:Lavi;text-align:center;letter-spacing:0px;word-spacing:0px;text-anchor:middle;fill:#000000;fill-opacity:1;stroke:none"
       x="920.3988"
       y="210.8483"
       id="text4246"><tspan
         sodipodi:role="line"
         style="font-size:45px;line-height:1.20000005"
         x="920.3988"
         y="210.8483"
         id="tspan4252">Morsomt? Nei,</tspan><tspan
         sodipodi:role="line"
         style="font-size:45px;line-height:1.20000005"
         x="920.3988"
         y="264.8483"
         id="tspan823">selvfølgelig ikke!</tspan><tspan
         sodipodi:role="line"
         style="font-size:45px;line-height:1.20000005"
         x="920.3988"
         y="318.8483"
         id="tspan825">Sorry.</tspan></text>
    <text
       xml:space="preserve"
       style="font-style:normal;font-variant:normal;font-weight:normal;font-stretch:normal;line-height:0%;font-family:Lavi;-inkscape-font-specification:Lavi;text-align:center;letter-spacing:0px;word-spacing:0px;text-anchor:middle;fill:#000000;fill-opacity:1;stroke:none"
       x="1311.0117"
       y="244.67351"
       id="text4246-3"><tspan
         sodipodi:role="line"
         style="font-size:45px;line-height:1.20000005"
         x="1311.0117"
         y="244.67351"
         id="tspan825-5">He he! Helt</tspan><tspan
         sodipodi:role="line"
         style="font-size:45px;line-height:1.20000005"
         x="1311.0117"
         y="298.67349"
         id="tspan858">sant! Ikke det</tspan><tspan
         sodipodi:role="line"
         style="font-size:45px;line-height:1.20000005"
         x="1311.0117"
         y="352.67349"
         id="tspan957">spor morsomt!</tspan></text>
    <text
       xml:space="preserve"
       style="font-style:normal;font-variant:normal;font-weight:normal;font-stretch:normal;line-height:0%;font-family:Lavi;-inkscape-font-specification:Lavi;text-align:center;letter-spacing:0px;word-spacing:0px;text-anchor:middle;fill:#000000;fill-opacity:1;stroke:none"
       x="475.27716"
       y="1156.4937"
       id="text4246-0"><tspan
         sodipodi:role="line"
         style="font-size:45px;line-height:1.20000005"
         x="475.27716"
         y="1156.4937"
         id="tspan4252-9">Ha...</tspan></text>
    <text
       xml:space="preserve"
       style="font-style:normal;font-variant:normal;font-weight:normal;font-stretch:normal;line-height:0%;font-family:Lavi;-inkscape-font-specification:Lavi;text-align:center;letter-spacing:0px;word-spacing:0px;text-anchor:middle;fill:#000000;fill-opacity:1;stroke:none"
       x="535.16223"
       y="1232.2852"
       id="text4246-0-3"><tspan
         sodipodi:role="line"
         style="font-size:45px;line-height:1.20000005"
         x="535.16223"
         y="1232.2852"
         id="tspan4252-9-6">Ha...</tspan></text>
    <text
       xml:space="preserve"
       style="font-style:normal;font-variant:normal;font-weight:normal;font-stretch:normal;line-height:0%;font-family:Lavi;-inkscape-font-specification:Lavi;text-align:center;letter-spacing:0px;word-spacing:0px;text-anchor:middle;fill:#000000;fill-opacity:1;stroke:none"
       x="581.47876"
       y="1302.325"
       id="text4246-0-0"><tspan
         sodipodi:role="line"
         style="font-size:45px;line-height:1.20000005"
         x="581.47876"
         y="1302.325"
         id="tspan4252-9-62">Ha.</tspan></text>
    <flowRoot
       xml:space="preserve"
       id="flowRoot1004"
       style="font-style:normal;font-variant:normal;font-weight:normal;font-stretch:normal;font-size:0.66666669px;line-height:0%;font-family:Lavi;-inkscape-font-specification:Lavi;text-align:center;letter-spacing:4.28999996px;word-spacing:-79.63999939px;writing-mode:lr-tb;text-anchor:middle;fill:#000000;fill-opacity:1;stroke:none;stroke-width:1px;stroke-linecap:butt;stroke-linejoin:miter;stroke-opacity:1"><flowRegion
         id="flowRegion1006"><rect
           id="rect1008"
           width="15.723214"
           height="1.429383"
           x="606.05841"
           y="1290.3149" /></flowRegion><flowPara
         id="flowPara1010" /></flowRoot>    <flowRoot
       xml:space="preserve"
       id="flowRoot1012"
       style="font-style:normal;font-variant:normal;font-weight:normal;font-stretch:normal;font-size:0.66666669px;line-height:0%;font-family:Lavi;-inkscape-font-specification:Lavi;text-align:center;letter-spacing:4.28999996px;word-spacing:-79.63999939px;writing-mode:lr-tb;text-anchor:middle;fill:#000000;fill-opacity:1;stroke:none;stroke-width:1px;stroke-linecap:butt;stroke-linejoin:miter;stroke-opacity:1"><flowRegion
         id="flowRegion1014"><rect
           id="rect1016"
           width="10.005682"
           height="2.8587661"
           x="608.91718"
           y="1290.3149" /></flowRegion><flowPara
         id="flowPara1018" /></flowRoot>    <text
       xml:space="preserve"
       style="font-style:normal;font-variant:normal;font-weight:normal;font-stretch:normal;font-size:19.50984192px;line-height:0%;font-family:Lavi;-inkscape-font-specification:Lavi;text-align:center;letter-spacing:0px;word-spacing:0px;text-anchor:middle;fill:#000000;fill-opacity:1;stroke:none;stroke-width:2;stroke-miterlimit:4;stroke-dasharray:none;"
       x="448.37674"
       y="1969.5505"
       id="text4246-6"
       transform="scale(0.9428475,1.0606169)"><tspan
         sodipodi:role="line"
         style="font-style:normal;font-variant:normal;font-weight:bold;font-stretch:normal;font-size:73.16191101px;line-height:1.20000005;font-family:Lavi;-inkscape-font-specification:'Lavi Bold';stroke:none;stroke-width:2;stroke-miterlimit:4;stroke-dasharray:none;stroke-opacity:1;"
         x="448.37674"
         y="1969.5505"
         id="tspan4252-1">Å NEI!</tspan></text>
    <text
       xml:space="preserve"
       style="font-style:normal;font-variant:normal;font-weight:normal;font-stretch:normal;line-height:0%;font-family:Lavi;-inkscape-font-specification:Lavi;text-align:center;letter-spacing:0px;word-spacing:0px;text-anchor:middle;fill:#000000;fill-opacity:1;stroke:none"
       x="427.77115"
       y="2147.7734"
       id="text4246-8"><tspan
         sodipodi:role="line"
         style="font-size:45px;line-height:1.20000005"
         x="427.77115"
         y="2147.7734"
         id="tspan1036">Kåpen jeg skulle bruke</tspan><tspan
         sodipodi:role="line"
         style="font-size:45px;line-height:1.20000005"
         x="427.77115"
         y="2201.7734"
         id="tspan1038">under kroningen er ødelagt!</tspan><tspan
         sodipodi:role="line"
         style="font-size:45px;line-height:1.20000005"
         x="427.77115"
         y="2255.7734"
         id="tspan962">Skredderen min kommer</tspan><tspan
         sodipodi:role="line"
         style="font-size:45px;line-height:1.20000005"
         x="427.77115"
         y="2309.7734"
         id="tspan968">til å bli rasende!</tspan></text>
    <text
       xml:space="preserve"
       style="font-style:normal;font-variant:normal;font-weight:normal;font-stretch:normal;font-size:15.58635426px;line-height:0%;font-family:Lavi;-inkscape-font-specification:Lavi;text-align:center;letter-spacing:0px;word-spacing:0px;text-anchor:middle;fill:#000000;fill-opacity:1;stroke:none;stroke-width:2;stroke-miterlimit:4;stroke-dasharray:none;"
       x="1341.9852"
       y="1899.183"
       id="text4246-9"
       transform="matrix(0.92146908,0,-0.09009126,1.0852236,0,0)"><tspan
         sodipodi:role="line"
         style="font-style:normal;font-variant:normal;font-weight:bold;font-stretch:normal;font-size:58.44882965px;line-height:1.20000005;font-family:Lavi;-inkscape-font-specification:'Lavi Bold';stroke:none;stroke-width:2;stroke-miterlimit:4;stroke-dasharray:none;"
         x="1341.9852"
         y="1899.183"
         id="tspan4252-2">Slem robot!</tspan></text>
    <text
       xml:space="preserve"
       style="font-style:normal;font-variant:normal;font-weight:normal;font-stretch:normal;font-size:13.84969044px;line-height:0%;font-family:Lavi;-inkscape-font-specification:Lavi;text-align:center;letter-spacing:0px;word-spacing:0px;text-anchor:middle;fill:#000000;fill-opacity:1;stroke:none;stroke-width:1.15414095"
       x="1061.9436"
       y="2137.4062"
       id="text4246-02"
       transform="scale(1.0048528,0.99517063)"><tspan
         sodipodi:role="line"
         style="font-size:51.93634033px;line-height:1.20000005;stroke-width:1.15414095"
         x="1061.9436"
         y="2137.4062"
         id="tspan959">Jeg skal fikse</tspan><tspan
         sodipodi:role="line"
         style="font-size:51.93634033px;line-height:1.20000005;stroke-width:1.15414095"
         x="1061.9436"
         y="2199.73"
         id="tspan766">feilene dine,</tspan><tspan
         sodipodi:role="line"
         style="font-size:51.93634033px;line-height:1.20000005;stroke-width:1.15414095"
         x="1061.9436"
         y="2262.0535"
         id="tspan971">permanent!</tspan></text>
    <text
       xml:space="preserve"
       style="font-style:normal;font-variant:normal;font-weight:normal;font-stretch:normal;font-size:26.56264687px;line-height:0%;font-family:Lavi;-inkscape-font-specification:Lavi;text-align:center;letter-spacing:26.91141891px;word-spacing:0px;text-anchor:middle;fill:#000000;fill-opacity:1;stroke:none;stroke-width:2.99999998;stroke-miterlimit:4;stroke-dasharray:none;"
       x="2146.9731"
       y="2031.6165"
       id="text4246-6-6-3"
       transform="matrix(0.91674667,0,-0.2119342,1.0908139,0,0)"><tspan
         sodipodi:role="line"
         style="font-style:normal;font-variant:normal;font-weight:bold;font-stretch:normal;font-size:99.60993195px;line-height:1.20000005;font-family:Lavi;-inkscape-font-specification:'Lavi Bold';letter-spacing:3.69802356px;stroke-width:2.99999998;stroke:none;stroke-miterlimit:4;stroke-dasharray:none;"
         x="2148.8223"
         y="2031.6165"
         id="tspan4252-00-4-7">VENT!!!</tspan></text>
    <text
       xml:space="preserve"
       style="font-style:normal;font-variant:normal;font-weight:normal;font-stretch:normal;font-size:40px;line-height:125%;font-family:'Cabin Sketch';-inkscape-font-specification:'Cabin Sketch';letter-spacing:0px;word-spacing:0px;fill:#000000;fill-opacity:1;stroke:none;stroke-width:1px;stroke-linecap:butt;stroke-linejoin:miter;stroke-opacity:1"
       x="1263.3837"
       y="254.65823"
       id="text770"><tspan
         sodipodi:role="line"
         id="tspan768"
         x="1263.3837"
         y="289.47891" /></text>
    <text
       xml:space="preserve"
       style="font-style:normal;font-variant:normal;font-weight:normal;font-stretch:normal;line-height:0%;font-family:Lavi;-inkscape-font-specification:Lavi;letter-spacing:0px;word-spacing:0px;fill:#000000;fill-opacity:1;stroke:#000000;stroke-width:0;stroke-linecap:square;stroke-miterlimit:4;stroke-dasharray:none;stroke-opacity:1;filter:url(#filter4375-4-1-1-1-9-8)"
       x="787.65729"
       y="1584.5073"
       id="text4580-7"
       transform="matrix(2.7819933,-0.1626793,-0.94551619,2.9284614,887.83592,-4228.9016)"><tspan
         sodipodi:role="line"
         id="tspan4582-7"
         x="787.65729"
         y="1584.5073"
         style="font-style:normal;font-variant:normal;font-weight:normal;font-stretch:normal;font-size:70px;line-height:1.25;font-family:ComicSpice;-inkscape-font-specification:ComicSpice;fill:#ffffff;stroke-width:0;stroke-linecap:square;stroke-miterlimit:4;stroke-dasharray:none">B</tspan></text>
    <text
       xml:space="preserve"
       style="font-style:normal;font-variant:normal;font-weight:normal;font-stretch:normal;line-height:0%;font-family:Lavi;-inkscape-font-specification:Lavi;letter-spacing:0px;word-spacing:0px;fill:#000000;fill-opacity:1;stroke:#000000;stroke-width:0;stroke-linecap:square;stroke-miterlimit:4;stroke-dasharray:none;stroke-opacity:1;filter:url(#filter4375-4-1-1-1-9-30-7)"
       x="787.65729"
       y="1584.5073"
       id="text4580-9-6"
       transform="matrix(2.0062568,-0.28085132,-1.1064232,2.8181271,1827.0399,-3899.3548)"><tspan
         sodipodi:role="line"
         id="tspan4582-26-4"
         x="787.65729"
         y="1584.5073"
         style="font-style:normal;font-variant:normal;font-weight:normal;font-stretch:normal;font-size:70px;line-height:1.25;font-family:ComicSpice;-inkscape-font-specification:ComicSpice;fill:#ffffff;stroke-width:0;stroke-linecap:square;stroke-miterlimit:4;stroke-dasharray:none">Z</tspan></text>
    <text
       xml:space="preserve"
       style="font-style:normal;font-variant:normal;font-weight:normal;font-stretch:normal;line-height:0%;font-family:Lavi;-inkscape-font-specification:Lavi;letter-spacing:0px;word-spacing:0px;fill:#000000;fill-opacity:1;stroke:#000000;stroke-width:0;stroke-linecap:square;stroke-miterlimit:4;stroke-dasharray:none;stroke-opacity:1;filter:url(#filter4375-4-1-1-1-9-30-2-4)"
       x="787.65729"
       y="1584.5073"
       id="text4580-9-9-3"
       transform="matrix(1.6478956,-0.12375314,-0.87637078,2.5734869,1811.3927,-3600.7784)"><tspan
         sodipodi:role="line"
         id="tspan4582-26-1-0"
         x="787.65729"
         y="1584.5073"
         style="font-style:normal;font-variant:normal;font-weight:normal;font-stretch:normal;font-size:70px;line-height:1.25;font-family:ComicSpice;-inkscape-font-specification:ComicSpice;fill:#ffffff;stroke-width:0;stroke-linecap:square;stroke-miterlimit:4;stroke-dasharray:none">Z</tspan></text>
    <text
       xml:space="preserve"
       style="font-style:normal;font-variant:normal;font-weight:normal;font-stretch:normal;line-height:0%;font-family:Lavi;-inkscape-font-specification:Lavi;letter-spacing:0px;word-spacing:0px;fill:#000000;fill-opacity:1;stroke:#000000;stroke-width:0;stroke-linecap:square;stroke-miterlimit:4;stroke-dasharray:none;stroke-opacity:1;filter:url(#filter4375-4-1-1-1-9-30-2-7-9)"
       x="787.65729"
       y="1584.5073"
       id="text4580-9-9-6-3"
       transform="matrix(1.7863953,-0.07100102,-0.69940041,2.1802978,1477.4386,-2984.9193)"><tspan
         sodipodi:role="line"
         id="tspan4582-26-1-5-0"
         x="787.65729"
         y="1584.5073"
         style="font-style:normal;font-variant:normal;font-weight:normal;font-stretch:normal;font-size:70px;line-height:1.25;font-family:ComicSpice;-inkscape-font-specification:ComicSpice;fill:#ffffff;stroke-width:0;stroke-linecap:square;stroke-miterlimit:4;stroke-dasharray:none">Z</tspan></text>
    <text
       xml:space="preserve"
       style="font-style:normal;font-variant:normal;font-weight:normal;font-stretch:normal;line-height:0%;font-family:Lavi;-inkscape-font-specification:Lavi;letter-spacing:0px;word-spacing:0px;fill:#000000;fill-opacity:1;stroke:#000000;stroke-width:0;stroke-linecap:square;stroke-miterlimit:4;stroke-dasharray:none;stroke-opacity:1;filter:url(#filter4375-4-1-1-1-9-30-2-7-6-5)"
       x="787.65729"
       y="1584.5073"
       id="text4580-9-9-6-8-9"
       transform="matrix(2.0241923,0.10781681,-1.2082941,2.536771,2181.4743,-3672.0484)"><tspan
         sodipodi:role="line"
         id="tspan4582-26-1-5-8-2"
         x="787.65729"
         y="1584.5073"
         style="font-style:normal;font-variant:normal;font-weight:normal;font-stretch:normal;font-size:70px;line-height:1.25;font-family:ComicSpice;-inkscape-font-specification:ComicSpice;fill:#ffffff;stroke-width:0;stroke-linecap:square;stroke-miterlimit:4;stroke-dasharray:none">!</tspan></text>
  </g>
</svg>
