<?xml version="1.0" encoding="UTF-8" standalone="no"?>
<!-- Created with Inkscape (http://www.inkscape.org/) -->

<svg
   xmlns:dc="http://purl.org/dc/elements/1.1/"
   xmlns:cc="http://creativecommons.org/ns#"
   xmlns:rdf="http://www.w3.org/1999/02/22-rdf-syntax-ns#"
   xmlns:svg="http://www.w3.org/2000/svg"
   xmlns="http://www.w3.org/2000/svg"
   xmlns:xlink="http://www.w3.org/1999/xlink"
   xmlns:sodipodi="http://sodipodi.sourceforge.net/DTD/sodipodi-0.dtd"
   xmlns:inkscape="http://www.inkscape.org/namespaces/inkscape"
   id="svg2"
   version="1.1"
   inkscape:version="0.91 r"
   width="2481"
   height="663"
   sodipodi:docname="Pepper-and-Carrot_by-David-Revoy_E02P00.svg">
  <metadata
     id="metadata8">
    <rdf:RDF>
      <cc:Work
         rdf:about="">
        <dc:format>image/svg+xml</dc:format>
        <dc:type
           rdf:resource="http://purl.org/dc/dcmitype/StillImage" />
        <dc:title />
      </cc:Work>
    </rdf:RDF>
  </metadata>
  <defs
     id="defs6" />
  <sodipodi:namedview
     pagecolor="#ffffff"
     bordercolor="#666666"
     borderopacity="1"
     objecttolerance="10"
     gridtolerance="10"
     guidetolerance="10"
     inkscape:pageopacity="0"
     inkscape:pageshadow="2"
     inkscape:window-width="1366"
     inkscape:window-height="716"
     id="namedview4"
     showgrid="false"
     inkscape:zoom="0.59209996"
     inkscape:cx="1240.5"
     inkscape:cy="331.5"
     inkscape:window-x="0"
     inkscape:window-y="0"
     inkscape:window-maximized="1"
     inkscape:current-layer="layer1" />
  <g
     inkscape:groupmode="layer"
     id="layer2"
     inkscape:label="artwork"
     sodipodi:insensitive="true">
    <image
       sodipodi:absref="/home/deevad/peppercarrot/webcomics/New/lang/bn/../gfx_Pepper-and-Carrot_by-David-Revoy_E02P00.png"
       xlink:href="../gfx_Pepper-and-Carrot_by-David-Revoy_E02P00.png"
       y="0"
       x="-1.6728083e-06"
       id="image10"
       height="663"
       width="2481" />
  </g>
  <g
     inkscape:groupmode="layer"
     id="layer1"
     inkscape:label="text"
     style="opacity:1">
    <flowRoot
       xml:space="preserve"
       id="episode-title"
       style="font-style:normal;font-variant:normal;font-weight:normal;font-stretch:normal;font-size:72px;line-height:125%;font-family:Arial;-inkscape-font-specification:Arial;letter-spacing:0px;word-spacing:0px;display:inline;fill:#562f13;fill-opacity:1;stroke:none"
       transform="matrix(0.77923967,0,0,0.77489763,89.280532,205.92068)"><flowRegion
         id="flowRegion3065"><rect
           id="rect3067"
           width="2715.5891"
           height="110.01318"
           x="92.642677"
           y="425.30325"
           style="font-size:72px;fill:#562f13;fill-opacity:1" /></flowRegion><flowPara
         id="flowPara3069"
         style="font-style:normal;font-variant:normal;font-weight:normal;font-stretch:normal;font-size:88px;font-family:Lavi;-inkscape-font-specification:Lavi;text-align:center;text-anchor:middle;fill:#562f13;fill-opacity:1">গল্প ২: রামধনুর যাদুমিশ্রণ</flowPara></flowRoot>    <image
       y="164.19727"
       x="417.51358"
       id="image3621"
       xlink:href="data:image/png;base64,iVBORw0KGgoAAAANSUhEUgAABKcAAADuCAYAAADsmGTKAAAABmJLR0QA/wD/AP+gvaeTAAAACXBI WXMAAAsTAAALEwEAmpwYAAAAB3RJTUUH3wkMEAI792HxRQAAABl0RVh0Q29tbWVudABDcmVhdGVk IHdpdGggR0lNUFeBDhcAABbHSURBVHja7d3ZkRtHEgDQpWI8oCH0RkbKGxkiG7gfipFEcg6gu6ry ei9i/1YcoDsrr2lg/vc/AAAAAAAAAAAAAAAAAAAAAAAAAAAAAAAAAAAAAAAAAAAAAAAAAAAAAAAA AAAAAAAAAAAAAAAAAAAAAAAAAAAAAMjmS+c39/u3r993/Lt//PnXF6GDuAYAAID72gyjuwZ2Qz3i GgAAAPYpPXxGDu6GesQ1AAAA3Fdu2Mw6uBvoEdcAAADwvDIDZrXh3UCPuAYAAIDPpR8qOwzvhnnE NQAAALwt7TDZcXg30COuAQAA4EfpBsgpw7thfhZxDQAAAG9LNThOHeAN872Ja3ENAADA+1IMjIZ3 w3xH4lpcAwAA8LnwQdEAb5jvSFyLawAAAB4TOiAa4A3yHYlrcQ0AAMDjQobDiOH97iCcYeFgmM9N XItrAAAAnnd8KDwxDJ8adqMGe8N8PuJaXAMAAHDN0WFw59CbYbA9OdQb5PMQ1+IaAACA644NgrsG 3KzD7KmB3jDf8z6La3ENAAAwRdmPCVUZXjt93AtxLa4BAABYbfvwt3qIrTyw7h7oDfN176W4FtcA AABTlVlOdRpQu39H0QTiWlwDAACwxtaBzwBvmHffxLW4BgAA4CPbBr0VA+qUQXTal2pPv1fi2vUD AADgX2mXUxMHUMN8/3skrsU1AAAAP9oy3Bng8w3zBnlxLa4BAADIaPlgZ4DPO8y7tuJaXAMAAJDN b5lejCFz7/XY+UXViGtxDQAAwBVpnpwywJ8dwF1vcS2uAQAAyCDFEwwGyphh3nUX1+IaAACAaL+5 BLWsHLx9HApxDQAAQLTwgdBTDvFDuHsgrsU1AAAAUTw5Vdiq4duTJohrAAAAooQ+OeXJhrhr756I a3ENAABABp6cauCPP//64mkTxLW4BgAAqChsOeVJhrzX1CAvrsU1AAAApyxZThn6DPIduQbiGgAA gP18rK/pIL9imDfII64BAADYzXKq+TBvkEdci2sAAIDMLKcM8gZ5xDUAAABhLKcM8gZ5xDUAAABh LKcM8gZ5xDUAAABhLKeGDfJ3h3mDPOIaAACAlSynhg7zrgLiGgAAgAwspwzyFgCIa3ENAAAQxnLK IG+AR1wDAAAQxnLKIP9l5f8PxDUAAADPWDaYPfuFwobCXD66f5PvlbgW1wCgx+lXO6e/f4Bswp6c 8texcnmv2CrC4lpcAwAAsJOP9fHuwG6AR1wDAACw24tLgMEdcQ0AAECU0CenfASKjsQ1AAAAPG7Z csqTCXQkrgEAAGCv8O+c8pQJHYlrAAAAeIwvRAcAAAAgzNLl1NWPQHnKhMzENQAAAOzjySkAAAAA wixfTnnKhI7ENQAAAOyR6skpgzwdiWsAAAB435bl1NWnTAzyZCauAQAAYL2U3zllkKcjcQ0AAAC/ 2racuvOUiUGerMQ1AAAArPVl9w9YMYzfXQiAuAYATtT+KvX9Si/TqXeZ/v4BsjmSYA3yTG5SxTUA zKntVWq+5ZTlFEAmX3zMCGAeDTbRw7oYpHN8VzgDXWaAq9fRDASQy4tLAACcHth+/jmWVXSM80df g/h3HQGms5wCAIOdAROxnuC1iX3XEWAqyykAMKinfW2GTDrH+nuvVdy7jgDTWE4BgCHdkIl4F/ct Y8A1BKjBcgoADOmGdcS7uG8bD64fQH6/uQQAYFCv9H78lS2mxLu4FxcAU1hOAYBh1rCJeBf3rh0A YSynAMAQVvZ9GjiZFgPiXqwAdGQ5BQCGVgMn7r337roBEMZyCgAMXN4/5e63ey7uAegj5C9XPFtI O/yFjYnvWYPoHosFsYAB9TTnSbxniqdTr/XK67zy2rKcr6icJ7/MuO/uM85PzFl4cZsAQLO+u0k5 9Tr92Xjxnmkw/fnf2vX6p8X963u1mHf2nSfow3IKADTrWwf09/49gzpd4/2Rn7P6/bz+e5ZUOPtA Rb5zCgA06/8Meq//OzVY7vp5hhnx/kwMRrwnsb/2Wjolzr5zBLVZTgHA4Gb99ELq5KBuuBDvJ+NN 7MdfR6cFoC7LKQAYOKhnGs53vi4LKvFeIe7F/rpr6NQ4/6vOlPoBZ1lOAcCgQT3zcL7rdRoweI2p Kq/TkgX17v5iylWEWiynAGDIYF6xWTdgGE7Ffvw1lDOoePZXxIRfbsA5llMA0LxZrz6sGdLF++TY v/seLKhw/9UPqMByCgA06YZ00rCYWv9exD5Tzv97Z8XCEvKznAKAps16x2bcgIHYjxn6xQCT77kF L+xnOdVsEAEAAwiT+5/O8SH2cf6vnw0LXsjNcgoAGjbrhljDxcR7MyHu73zE1dNTyM1qCGRlOQUA TRv9n/9n6KSzaTFhQQXPnwV/YAPyspxKPli4CgCsrCudaovhXM+zcuCcdAZcI7qc/6j7q47AepZT ANB0YNdUM4HlgxwAETnDOYK1LKc0DwCoL+OHDMSiM+AaUev837mvFlRMOV+Vnpq3nNK0AaC+QEmW Dq4DYl4thR/jserXOFhOAcDwJsaQQsX4c99dD9eHLDFhQUV0Le3wvaKWU4YHAFBXwbANJfLwyji3 oKLy+en2h24spzTSAKgv6gulWMK4NpDxzHRbFpCvX+scY5ZTBggAgDI9jeULV4kd5//Uv2tmY2Us TVl6Wk4NSuYAAPRnCQPx58ZTVNyNnWnxYzlVOGBdBQDUFeDEoA1i+np9VWMRK5+znDJIAACU6GEs XICdduYYSyo+iguxYTnVJphdCQAATg3argl35pfsMWJJhTn+vBeXoE9wK7YAe5tmeRZiB0ZXATXq +WG2w9mJeA9//PnXl53Lg9d/u9L9+fl6yMv7z+8kllPNgl2CANAkAPfPfpeeaveADZ2dOD///fez 5Z3P3rv5U7+5kuVU08CXJAA0xaBJv/4z3/pv9FegFp/MVRE559n3av7MVe8q95SWU40PggQBwDNN i/dLp/u1ownP/IRD9aEEw3rmfB11hnYuq1a/H/Pn3vozoc+xnBpwKCQJADSBiId9P0evVYtlHXeG /cjYyR630+fP6PtT/br7a30OCQCJ8+mJRsNgTZfzGdXzVOi1nHNwluTEfvXn9a9LdohLT04NSxCS KUDNRtgvGiD3EKTXgll1OVP+yZqbu+fDyIVUx+vpyankCW/HAZJEAejS4Khps2M04/3P3GtZnIEz pUbXfG+dnpB6jyenkie7XUHvt3tUTvLiFjVBU416UeE1OmNUmg+yvt8qr9EvS9SfqWdgFcup4QXI koqKSf2j/14soybMaXauXgt5wmBw8rWKN5hTo6vlqFPXRO3RpzzCcmrYMPLZYdNAUT2Z7/yTu9Ch +XUmUE/Ov+ZM58532EHuOs3c2jO9R7OcKpTkThwKSyq6DRD+1Dddh7Rnmt+Osa/pn3ffKt9zT1DB zB5jcr2a/IT2tOu0iuWUIerDg+iw0Gl4sKii45ApllFb5A4Qe7lnuC55TN3Rv+1kOSW5PXQoHR66 DQ5iG2bmG2defbEk8NE+nOXIOW7Ctahcay2l4lhOFT/wp5dUDhTdGg1LKpBzmD0kno43T7EAkxZV egwz9KMsp5oktqgvnHbIJPBu70VMw4xhgLh7EFk7no2BXQOkBRXOP+/lpSzXaNL9spTKwXKqWVI7 nUAM9DN1LlRiGuQe+g9/lXotQL6K+KjZlL8KvOvamiWeZznVNJlFLakcRMNhp/cplufkTcOm3MOs QS9Dr6XOADvymLksvrdw3a/5zSXom8CiDsXv375+N0RI4F3er1jGWehxvTWKBjrDB5PjumrdUm+v z4EROapKXtzV40fO4B1YTg1JTpGHXlExHHrvgPPHyeHlVP9z92eIb0Dtrf/eLKXW8LG+YY1gVKLx PT6SeIdrIH7hWj64enZW5R5nd2bPc/LnqZMAM2caPcY6llODG7aIRsqSShJfndBP/6VKsYtccP+/ feQcWUz170c6DQl33o/aAs5ItzlzwkwjJtfzsb7hCSTyI3/uQO9h9JHYW/XXk05+tt5HVTVUE/PY 6vf62ce+nTHnrlJPY1CB/edEXSBTHyPf72E5RdiX5hny5yXxE3F2ckklSpAL1taC1XVB89h3UM16 n8UcmWNN78LEOFndV8jz+1hOEX7gLKkk8Z2xvPNni1vkgrw/S/PYe8juNiSoJ+CcTMzj1WYad3ov yynCBnsFR6E6Hc/iFsQ29etF9qWUAQb2nRG1idOx4mmpc3whOk8VkBMf79DY9UnkWWNZY8PK8yJf WQ7gvoG6db5XlTOYOM90ZjlFyuHewCeR747jlTEsXvvkN4vLtbkgsk4B0LvmRvRfz7zmivXoyj3J 9j4tpuqynOL2Yd01xBj4DYYnXueq+BWvIP/AysEbxNlj/dfO/H/n+v73v1WfzsaDfqIm3znFksO7 67O4GrtaybxiIl/5msUr9DjLAHq+ej3Yyl84rv6DTf4AVJ1ZRj8Rx5NTbCkyPjKlKFQaGv3mETkK AOr3YFeeVor4y7T6hjMzyJU5ljiWU2wrNCuTveEvf0KvXohXxawllyaZ2DymVgDqlveQvSfLWLOq ft+UxVQfPtbH9mKz6rAbGHsMj9nvo+IE9fOMqwAgV7oPrp/evxbLKUoN/BJ4n0KS+V4qUshNcgwA ei89hLjjHMspjh7+FQlAAu9TEC2ocO/R8APIkdPrr3p1/prp9/KxnELhQTEWqyDHgLhDb53ivUzt v+SNc9dKj5+T5RQli6jkrcBo+BDH4v6Ze6NuAKhDeol1P1ePzGqWU4QWHUmNCoO9OMVgcK4m7KwN FlSAnK3/Qo+iH8jJcgrFdLBs19A9RUM87zq8t4zataSSZ1DLoFYdmlaT5ZBz1/nn/7kqsSynAAU5 yZCO+J0U+48OHDsGEw0oagzUyolZz8iup37VqZiYsKiK9eISkCW5SAKIU+gd+3caydf/1hnEkA8z +5ToOvDoL1Tkg3753C8QzvDkFOkKDvj+A9zrnNfjym+GV/9GedW/ZWgAqJkTd38/4aqf1fl7kbL0 SKdehyeqzvDkFOULqQESkJfmNaUrnhBQQ8gw3ItBsuXGqvUo+gnfj/49S42euV7+XstyCkDjh3s9 9v5YULF6WIHKcVw5H3722i0V9AK7cr94WsPH+gDAoFq6KXUVqHrexS/q19l6EfXX//x18v7nxr26 z3IKQwmIPRh9HjWUiB3kRNwX13ZFTVAXrrOcAtBk4D67T3BhCBGziG3grTPkHD3PcgqFEEBOa+HO sO9+AfIhE+9Ll/qX9drqLx5nOQWg+QNnEg4OG+KUCnHuKrgXFXuAqO8Vcw/vs5wCQxyw6axoRtwv DIlqL1X7PDmR6vGfaVnlKarPvbgEAABgUIe34t5ClQ5+juOonP76c52rX3lyirINnwNN1mKH+2yg db/Qp6gX6FEg99mIfKpKv/EryymQmDUtALB5gFBvqdrrGaKZcEYiFlU+6vcjyymgXRPlNZPtPms8 nEtqspgCdYx5vcPpRZXz9TfLKRQ7NM0A6hI/xYDFFHo9mB1LJ5dUeg/LKSRF3Fs4EqOaDjmFGlae VfGHs4E80uMenLgP08+Y5RSKHGkKX/Xiq3kAqN2TWEyh19O7IwY+OkO7c/vk76GynAJSNNKaeCac FU19nfvlXs0atFbfbzWNzr2e/OjaOUdnllTTrqvlFOWSs4Yvf9PinoJmA6aeRzUNZwfmzE07c/60 c2Y5hYJGaGOticc5ASL6EIsp1C/9PKw6U7vy/6RzZjmFYZDjSdb9xGCsoYeos7fr/KlpTOyp1TPX iv3z05TYsZxCYuZ4s33yz7J2uF6437hX3O89dvYf4ovJeVFvr3ax/75NOGeWUxxvDiXnmgn27kJp xb8B8iHw7DnbfdbUNVDTKl8fOWzv/OScPe5F2AB3CthbSVKRY9qZuNos/P7t63fnBXrUQ5hWw9Q0 OHvGup8zyymO8dSU5hwA1D7oOzxbUK2bgVzHfjXDOfuYj/WROilLzED3QdVHISDn2Xzv39OX4Kyo a64Fztl6llNIygDBDYc8CbOGCjA4g3PmnP3IcgqNIACgl/jgv9eP4LwYnE++fzmn/znz1zJ/ZTmF pAyQoKn3W2boPaiDWcD7lnfYca+7nDPLKRQjgCSNhrwJOc6lp6VwXtbOBJPqm1pOxHnrEHeWU6RM yhpCQP4ETg8AllKwrxfvXt9WLOGq5B+9Sv7zVpHlFOmSlcMJaDLQSHP6zDq3sL+WdX2KSo0hw3mr HoeWU6RKzBpDQJOhyYVT59JSCmJ68051btV7kYuYvqCynEKRAZBTYdwAYBCEcwPze3Wucq1b+fqj 85F82Ou8VT1XllOkGaIkRUCD0aO56FijcC7BudmXo6vl6ZWvV05CTPzNcooUyVlSBjQY+xtg1CWA O3lx+pJq9WtUa9A//styivDkLCkD9GswADA0R84Y3V+T3sRZ63aPLKcIDXSLKUBzoQnUPAPMq2uP 5O/IpdDun28O4kScVOqDXtzuvM101oRlMQVwLedZlBi6ANS1+/PHjjx9skarM+ghf2U5RUjSlpAB zcW1HCx/5hw0ANS1+Pz+SI2MrA2Za7hfovU9a1X6R8spjjf5BitAc3FvQSWXnqtZADzW22fIu5lz v7rdq4eIuJ/dF4i+cypxMsoSeCs/ay0pA/RvwKfVawDkz4nXplsv8szcG/V9aFdjqcK9spziWBAr WABr86EFlesCkK2+6fnNQBX7hjsfmXMF17Cc0mAvP6CSMsC5vKgpWnc91CqAdTVuek51DebM26d7 sa5xZTkliH45WKsPl6QMsDc/WlC5DgDmH+/b/YrrGyyo7rOc0mxv/TkWUwBn8uT0xczd969eAeyr c1Ny7MSnpfxiKO5adIs1yymBvu3L3DT6AGfzZdSXc2qMAXik1nWdD3yET+/AfZZThQaQ1Y8d7hxi JGeAuLw5qeFa8V7VLICz9a7LMsdSiugerFP8WU4NC/YTv1WXoAHi82f3BdWqeqZmAcTWvWp5uNNy TV10zzJ5cStjgudOQ/363z4ShCeHE4kMIL5GXK0Xlay6PuoWQL7hOusvV9SMj+typevjI305WU4V Hj4yHSrJGiBXjXirXnTI1RpKgP41MEPeN98wuXeMYDmFxA0wpMmovKRafS3ULoDas8bKuqAm7O9B 4DOWUw69JA4wrE5UWlL5a7IAyOX5Vfton74xH1+ILqkqBgBD8+2JP5KR7bWpXwCAvjEfT04lCaAq G05NPUBc7t1VK/7770bmeX9NFgDMqN7bTJ6cSjZ4eI0ARObh1yeWTjVtp36eGgYA+2u6q2Buv8qT U8mCKOOB1tADzKwVb/2cOzXBX1wCALr3aa7CNZZTg4cOBwugduMTUS8q/VZUHQOAHrOp99b//flY n2b6zZ+voQdQL1wbAOAZkz/ap/e4x3IqcWCfDm5LKQD1QnMIAOgXvL/TLKeGDx2v/75GHkADomYC AHf7i4lfAaD/uM93ThU8NHcPu4MD0LtWTHykXm0DAK72EFd7J/3HOpZTGnAAmtaJCUsqNREA9tfa Z3uK3799/V6pRl/pnSq8v0pfjG45BQCNm8lnG61q7w0AYEd/8XP/pPfYy3IKAIY0Wh2WVBpDAIip v9O+NqBLz1Hl3vlCdAAY1GRVbbR82TkA1DLxOzC5TpMHABrHlCyjAABm0PQBAP+IXlZZSAEAzKMB BADetXNZZREFAAAAAAAAAAAAAAAAAAAAAAAAAAAAAAAAAAAAAAAAAAAAAAAAAAAAAAAAAAAAAAAA AAAAAAAAAAAAAAAAAAAAAAAAAAAAAAAAAAAAAAAAAADD/R/D8CR3/3xCwgAAAABJRU5ErkJggg== "
       preserveAspectRatio="none"
       height="321.29999"
       width="1607.85" />
  </g>
</svg>
