<?xml version="1.0" encoding="UTF-8" standalone="no"?>
<!-- Created with Inkscape (http://www.inkscape.org/) -->

<svg
   xmlns:dc="http://purl.org/dc/elements/1.1/"
   xmlns:cc="http://creativecommons.org/ns#"
   xmlns:rdf="http://www.w3.org/1999/02/22-rdf-syntax-ns#"
   xmlns:svg="http://www.w3.org/2000/svg"
   xmlns="http://www.w3.org/2000/svg"
   xmlns:xlink="http://www.w3.org/1999/xlink"
   xmlns:sodipodi="http://sodipodi.sourceforge.net/DTD/sodipodi-0.dtd"
   xmlns:inkscape="http://www.inkscape.org/namespaces/inkscape"
   id="svg2"
   version="1.1"
   inkscape:version="0.92.2 (5c3e80d, 2017-08-06)"
   width="2481"
   height="3503"
   sodipodi:docname="E17P06.svg">
  <metadata
     id="metadata8">
    <rdf:RDF>
      <cc:Work
         rdf:about="">
        <dc:format>image/svg+xml</dc:format>
        <dc:type
           rdf:resource="http://purl.org/dc/dcmitype/StillImage" />
        <dc:title />
      </cc:Work>
    </rdf:RDF>
  </metadata>
  <defs
     id="defs6" />
  <sodipodi:namedview
     pagecolor="#ffffff"
     bordercolor="#666666"
     borderopacity="1"
     objecttolerance="10"
     gridtolerance="10"
     guidetolerance="10"
     inkscape:pageopacity="0"
     inkscape:pageshadow="2"
     inkscape:window-width="1299"
     inkscape:window-height="713"
     id="namedview4"
     showgrid="false"
     inkscape:zoom="0.44060483"
     inkscape:cx="1164.9584"
     inkscape:cy="634.70435"
     inkscape:window-x="67"
     inkscape:window-y="27"
     inkscape:window-maximized="1"
     inkscape:current-layer="layer3" />
  <g
     inkscape:groupmode="layer"
     id="layer2"
     inkscape:label="artwork"
     sodipodi:insensitive="true"
     style="display:inline">
    <image
       sodipodi:absref="/home/emmiline/Documents/git/webcomics/ep17_A-Fresh-Start/lang/da/../gfx_Pepper-and-Carrot_by-David-Revoy_E17P06.png"
       xlink:href="../gfx_Pepper-and-Carrot_by-David-Revoy_E17P06.png"
       y="0"
       x="0"
       id="image10"
       height="3503"
       width="2481" />
  </g>
  <g
     inkscape:groupmode="layer"
     id="layer3"
     inkscape:label="speechbubbles">
    <path
       style="fill:#ffffff;stroke:none"
       d="m 1177.5412,1451.4835 c -24.0782,-91.5539 -163.7199,-114.3577 -126.2718,-117.2114 29.0423,-2.2134 265.3799,-2.2635 344.8715,-4.0593 79.4917,-1.796 284.2372,2.6477 351.2283,7.1499 71.7566,4.8223 93.2082,48.229 98.5062,97.486 6.954,64.6552 -24.3761,77.8073 -74.9819,99.6199 -51.3426,22.13 -315.74,30.52 -333.8645,28.7848 -18.1243,-1.7356 -393.7865,5.2809 -409.696,-0.7946 -15.9097,-6.0755 156.6168,-63.9311 150.2082,-110.9753 z"
       id="path3278-7"
       inkscape:connector-curvature="0"
       sodipodi:nodetypes="csssssssc" />
    <path
       style="color:#000000;display:inline;overflow:visible;visibility:visible;fill:#ffffff;fill-opacity:1;fill-rule:nonzero;stroke:none;stroke-width:1px;marker:none;enable-background:accumulate"
       d="m 318.34046,2456.5103 c 2.59912,-57.048 47.06668,-99.0445 165.00688,-89.032 63.17512,5.3632 134.85807,8.6969 131.78221,92.2637 -3.07593,83.5668 -106.04537,82.0452 -127.25687,84.1281 -21.21154,2.0827 -132.04917,-6.0046 -151.9459,-34.3037 -12.45489,-17.7147 -17.59599,-35.3928 -17.58632,-53.0561 z"
       id="path4546-6"
       inkscape:connector-curvature="0"
       sodipodi:nodetypes="cssssc" />
    <path
       style="color:#000000;display:inline;overflow:visible;visibility:visible;fill:#ffffff;fill-opacity:1;fill-rule:nonzero;stroke:none;stroke-width:1px;marker:none;enable-background:accumulate"
       d="m 907.23639,2592.0266 c -23.62035,-34.1403 -42.50363,-36.5905 -55.96461,-39.6154 -1.87547,3.3952 -6.49852,8.7941 -6.49852,8.7941 0,0 -25.97688,-8.0908 -36.79234,-8.3139 -10.8154,-0.2233 -11.06323,11.4471 -11.06323,11.4471 0,0 50.13669,16.8309 59.91961,23.2139 4.71046,-9.5178 8.40315,-13.5624 8.49056,-17.6813 8.12621,-0.5191 33.14349,10.2991 41.90853,22.1555 z"
       id="path4456"
       inkscape:connector-curvature="0" />
    <path
       style="color:#000000;display:inline;overflow:visible;visibility:visible;fill:#ffffff;fill-opacity:1;fill-rule:nonzero;stroke:none;stroke-width:1px;marker:none;enable-background:accumulate"
       d="m 577.93323,2484.2098 c 24.11977,-45.323 155.30944,-41.4539 198.95869,-21.8178 43.64904,19.636 59.89059,53.4535 61.92076,65.4534 2.03007,11.9997 -3.04526,67.6351 -25.37741,78.5441 -22.33207,10.9089 -86.28301,16.3633 -108.61516,16.3633 -22.33207,0 -93.62104,-6.9434 -111.66061,-22.9088 -17.25664,-15.2724 -39.34615,-70.3114 -15.22627,-115.6342 z"
       id="path3330"
       inkscape:connector-curvature="0"
       sodipodi:nodetypes="zsssssz" />
    <path
       style="fill:#ffffff;stroke:none"
       d="m 1305.4599,1686.9052 c -61.4509,-16.3887 -30.8533,-65.2702 -45.5225,-67.9315 -14.6694,-2.6615 -27.8562,-6.807 -33.7712,-15.0125 -5.9149,-8.2051 -17.4337,-18.7558 -18.2822,-28.6243 -0.8487,-9.8684 -23.7836,-10.6121 -33.4878,-14.4455 -9.7043,-3.8334 -11.9428,-27.0084 -31.3844,-32.284 5.3237,-14.6209 97.6313,-19.5261 101.1522,-6.625 3.0581,11.2046 -31.3327,8.8903 -26.385,11.6146 4.9478,2.7247 15.8223,5.1341 19.2489,15.2244 3.4267,10.0904 1.9896,20.862 2.9452,28.9403 0.9559,8.0785 12.0525,14.9191 22.8341,19.6159 10.8918,4.7448 13.7129,2.9923 22.8729,15.641 10.2162,14.1071 -25.9903,41.4407 19.7798,73.8866 z"
       id="path3023-2"
       inkscape:connector-curvature="0"
       sodipodi:nodetypes="csssscssssssc" />
    <path
       style="color:#000000;display:inline;overflow:visible;visibility:visible;fill:#ffffff;fill-opacity:1;fill-rule:nonzero;stroke:none;stroke-width:0.94320142px;marker:none;enable-background:accumulate"
       d="m 1816.1996,1684.1815 c 0.6729,-21.0291 47.1669,-115.8602 261.4771,-100.6255 214.3101,15.2349 250.8877,43.7339 251.9219,120.6922 0.4096,30.4898 -54.4557,77.6969 -86.0751,85.3143 -31.6198,7.6174 -96.9409,19.4875 -189.4513,19.8051 -91.577,0.3145 -179.2008,-20.5583 -210.8203,-47.9808 -31.6196,-27.4225 -27.7253,-58.35 -27.0523,-77.2053 z"
       id="path3365"
       inkscape:connector-curvature="0"
       sodipodi:nodetypes="csssssc" />
    <path
       style="color:#000000;display:inline;overflow:visible;visibility:visible;fill:#ffffff;fill-opacity:1;fill-rule:nonzero;stroke:none;stroke-width:1px;marker:none;enable-background:accumulate"
       d="m 1773.6345,1852.6935 c 20.6585,1.8503 42.0221,4.0502 66.635,-2.9295 7.0191,-2.1076 14.3439,-4.6924 21.2622,-8.6072 6.8497,-5.1792 10.0657,-12.467 9.831,-17.98 0.3909,-8.2705 -3.5388,-15.3573 1.1997,-24.9485 3.6243,-6.9865 12.0808,-11.4315 19.0666,-15.6028 17.8952,-10.396 36.4648,-19.1971 53.5972,-31.4906 19.8044,-13.0719 40.1589,-27.7498 54.2823,-45.8251 5.4819,-7.1824 10.3168,-14.933 11.2221,-21.9705 3.3226,-18.3701 -5.898,-33.4735 -24.721,-35.5762 -12.7554,-0.1579 -31.116,10.8278 -37.1785,23.8071 -3.3077,6.857 -1.2679,12.4236 2.5712,15.9087 4.8396,8.3144 1.708,21.3756 -6.8119,33.2872 -6.8835,9.8609 -16.573,19.0871 -27.2529,26.4949 -13.0662,12.4722 -29.8055,18.2178 -44.9671,25.8816 -6.9126,3.5757 -14.194,7.7145 -19.8565,13.2749 -6.6316,8.8458 -4.9747,16.822 -2.4875,23.0116 2.3193,6.5328 6.0945,13.475 0.9017,22.8012 -2.7306,6.501 -11.3267,8.4182 -17.2848,11.3996 -19.5136,7.7854 -38.7819,10.7385 -55.5968,9.9195 -1.533,-0.1984 -2.9725,-0.5244 -4.412,-0.8559 z"
       id="path4496"
       inkscape:connector-curvature="0" />
  </g>
  <g
     inkscape:groupmode="layer"
     id="layer1"
     inkscape:label="txt">
    <text
       xml:space="preserve"
       style="font-style:normal;font-variant:normal;font-weight:normal;font-stretch:normal;line-height:0%;font-family:Lavi;-inkscape-font-specification:Lavi;text-align:center;letter-spacing:0px;word-spacing:0px;text-anchor:middle;fill:#000000;fill-opacity:1;stroke:none"
       x="1413.4856"
       y="1404.2015"
       id="text4246-1"><tspan
         sodipodi:role="line"
         style="font-style:italic;font-variant:normal;font-weight:normal;font-stretch:normal;font-size:45px;line-height:1.25;font-family:Lavi;-inkscape-font-specification:'Lavi Italic'"
         x="1413.4856"
         y="1404.2015"
         id="tspan4329">&quot;En ægte Kaosah-heks har</tspan><tspan
         sodipodi:role="line"
         style="font-style:italic;font-variant:normal;font-weight:normal;font-stretch:normal;font-size:45px;line-height:1.25;font-family:Lavi;-inkscape-font-specification:'Lavi Italic'"
         x="1413.4856"
         y="1460.4515"
         id="tspan46">hverken brug for kort eller</tspan><tspan
         sodipodi:role="line"
         style="font-style:italic;font-variant:normal;font-weight:normal;font-stretch:normal;font-size:45px;line-height:1.25;font-family:Lavi;-inkscape-font-specification:'Lavi Italic'"
         x="1413.4856"
         y="1516.7015"
         id="tspan48">kompas under en stjernehimmel.&quot;</tspan></text>
    <text
       xml:space="preserve"
       style="font-style:normal;font-variant:normal;font-weight:normal;font-stretch:normal;line-height:0%;font-family:Lavi;-inkscape-font-specification:Lavi;text-align:center;letter-spacing:0px;word-spacing:0px;text-anchor:middle;fill:#000000;fill-opacity:1;stroke:none"
       x="454.11227"
       y="2501.3633"
       id="text4246-2-5-8"
       transform="scale(1.0253273,0.97529834)"><tspan
         sodipodi:role="line"
         style="font-size:46.13972855px;line-height:1.25"
         x="454.11227"
         y="2501.3633"
         id="tspan4487">Hold ud</tspan><tspan
         sodipodi:role="line"
         style="font-size:46.13972855px;line-height:1.25"
         x="454.11227"
         y="2559.0378"
         id="tspan86">Carrot!</tspan></text>
    <text
       xml:space="preserve"
       style="font-style:normal;font-variant:normal;font-weight:normal;font-stretch:normal;line-height:0%;font-family:Lavi;-inkscape-font-specification:Lavi;text-align:center;letter-spacing:0px;word-spacing:0px;text-anchor:middle;fill:#000000;fill-opacity:1;stroke:none"
       x="710.54004"
       y="2524.0591"
       id="text4246-2-5-8-5"><tspan
         sodipodi:role="line"
         style="font-size:45px;line-height:1.25"
         x="710.54004"
         y="2524.0591"
         id="tspan4487-4">Se, vi</tspan><tspan
         sodipodi:role="line"
         style="font-size:45px;line-height:1.25"
         x="710.54004"
         y="2580.3091"
         id="tspan106">er her!</tspan></text>
    <text
       xml:space="preserve"
       style="font-style:normal;font-variant:normal;font-weight:normal;font-stretch:normal;line-height:0%;font-family:Lavi;-inkscape-font-specification:Lavi;text-align:center;letter-spacing:0px;word-spacing:0px;text-anchor:middle;fill:#000000;fill-opacity:1;stroke:none"
       x="2067.9636"
       y="1638.4164"
       id="text4246-2-5-7"><tspan
         sodipodi:role="line"
         style="font-size:45px;line-height:1.25"
         x="2067.9636"
         y="1638.4164"
         id="tspan4300">... jeg ville</tspan><tspan
         sodipodi:role="line"
         style="font-size:45px;line-height:1.25"
         x="2067.9636"
         y="1694.6664"
         id="tspan72">hellere have haft</tspan><tspan
         sodipodi:role="line"
         style="font-size:45px;line-height:1.25"
         x="2067.9636"
         y="1750.9164"
         id="tspan66">spådomsundervisning!</tspan></text>
    <text
       xml:space="preserve"
       style="font-style:normal;font-weight:normal;font-size:5.33333349px;line-height:1.25;font-family:sans-serif;letter-spacing:0px;word-spacing:0px;fill:#000000;fill-opacity:1;stroke:none"
       x="1555.1605"
       y="1454.9471"
       id="text39"><tspan
         sodipodi:role="line"
         id="tspan37"
         x="1555.1605"
         y="1459.6659" /></text>
    <flowRoot
       xml:space="preserve"
       id="flowRoot50"
       style="fill:black;fill-opacity:1;stroke:none;font-family:sans-serif;font-style:normal;font-weight:normal;font-size:5.33333333px;line-height:1.25;letter-spacing:0px;word-spacing:0px"><flowRegion
         id="flowRegion52"><rect
           id="rect54"
           width="0"
           height="113.3086"
           x="2215.1831"
           y="1361.4675" /></flowRegion><flowPara
         id="flowPara56" /></flowRoot>    <flowRoot
       xml:space="preserve"
       id="flowRoot76"
       style="fill:black;fill-opacity:1;stroke:none;font-family:sans-serif;font-style:normal;font-weight:normal;font-size:5.33333333px;line-height:1.25;letter-spacing:0px;word-spacing:0px"><flowRegion
         id="flowRegion78"><rect
           id="rect80"
           width="45.323441"
           height="65.152443"
           x="2436.1348"
           y="1415.2891" /></flowRegion><flowPara
         id="flowPara82" /></flowRoot>    <flowRoot
       xml:space="preserve"
       id="flowRoot88"
       style="fill:black;fill-opacity:1;stroke:none;font-family:sans-serif;font-style:normal;font-weight:normal;font-size:5.33333333px;line-height:1.25;letter-spacing:0px;word-spacing:0px"><flowRegion
         id="flowRegion90"><rect
           id="rect92"
           width="11.33086"
           height="8.4981451"
           x="1005.6138"
           y="3471.8401" /></flowRegion><flowPara
         id="flowPara94" /></flowRoot>    <flowRoot
       xml:space="preserve"
       id="flowRoot98"
       style="fill:black;fill-opacity:1;stroke:none;font-family:sans-serif;font-style:normal;font-weight:normal;font-size:5.33333333px;line-height:1.25;letter-spacing:0px;word-spacing:0px"><flowRegion
         id="flowRegion100"><rect
           id="rect102"
           width="2.832715"
           height="33.99258"
           x="705.34601"
           y="2457.7283" /></flowRegion><flowPara
         id="flowPara104" /></flowRoot>    <flowRoot
       xml:space="preserve"
       id="flowRoot49"
       style="fill:black;fill-opacity:1;stroke:none;font-family:sans-serif;font-style:normal;font-weight:normal;font-size:5.33333333px;line-height:1.25;letter-spacing:0px;word-spacing:0px"><flowRegion
         id="flowRegion51"><rect
           id="rect53"
           width="12.677885"
           height="17.749039"
           x="2094.3867"
           y="1603.8528" /></flowRegion><flowPara
         id="flowPara55" /></flowRoot>    <flowRoot
       xml:space="preserve"
       id="flowRoot57"
       style="fill:black;fill-opacity:1;stroke:none;font-family:sans-serif;font-style:normal;font-weight:normal;font-size:5.33333333px;line-height:1.25;letter-spacing:0px;word-spacing:0px"><flowRegion
         id="flowRegion59"><rect
           id="rect61"
           width="0"
           height="10.142308"
           x="2084.2444"
           y="1416.2201" /></flowRegion><flowPara
         id="flowPara63" /></flowRoot>    <flowRoot
       xml:space="preserve"
       id="flowRoot65"
       style="fill:black;fill-opacity:1;stroke:none;font-family:sans-serif;font-style:normal;font-weight:normal;font-size:5.33333333px;line-height:1.25;letter-spacing:0px;word-spacing:0px"><flowRegion
         id="flowRegion67"><rect
           id="rect69"
           width="425.97693"
           height="43.104809"
           x="2117.2068"
           y="612.4422" /></flowRegion><flowPara
         id="flowPara71" /></flowRoot>    <flowRoot
       xml:space="preserve"
       id="flowRoot73"
       style="fill:black;fill-opacity:1;stroke:none;font-family:sans-serif;font-style:normal;font-weight:normal;font-size:5.33333333px;line-height:1.25;letter-spacing:0px;word-spacing:0px"><flowRegion
         id="flowRegion75"><rect
           id="rect77"
           width="514.72217"
           height="17.749039"
           x="1288.0731"
           y="3021.2405" /></flowRegion><flowPara
         id="flowPara79" /></flowRoot>  </g>
</svg>
