<?xml version="1.0" encoding="UTF-8" standalone="no"?>
<!-- Created With Inkscape (http://www.inkscape.org/) -->

<svg
   xmlns:dc="http://purl.org/dc/elements/1.1/"
   xmlns:cc="http://creativecommons.org/ns#"
   xmlns:rdf="http://www.w3.org/1999/02/22-rdf-syntax-ns#"
   xmlns:svg="http://www.w3.org/2000/svg"
   xmlns="http://www.w3.org/2000/svg"
   xmlns:xlink="http://www.w3.org/1999/xlink"
   xmlns:sodipodi="http://sodipodi.sourceforge.net/DTD/sodipodi-0.dtd"
   xmlns:inkscape="http://www.inkscape.org/namespaces/inkscape"
   id="svg2"
   version="1.1"
   inkscape:version="0.92.1 r15371"
   width="2481"
   height="3503"
   sodipodi:docname="E21P02.svg">
  <metadata
     id="metadata8">
    <rdf:RDF>
      <cc:Work
         rdf:about="">
        <dc:format>image/svg+xml</dc:format>
        <dc:type
           rdf:resource="http://purl.org/dc/dcmitype/StillImage" />
        <dc:title />
      </cc:Work>
    </rdf:RDF>
  </metadata>
  <defs
     id="defs6">
    <filter
       style="color-interpolation-filters:sRGB"
       id="filter4375-4-1-1-1-9"
       inkscape:label="deevad outline effect">
      <feFlood
         id="feFlood4377-7-9-0-8-1"
         flood-opacity="1"
         flood-color="rgb(0,0,0)"
         result="flood" />
      <feComposite
         id="feComposite4379-3-8-8-2-77"
         in2="SourceGraphic"
         in="flood"
         operator="in"
         result="composite1" />
      <feMorphology
         id="feMorphology4393-1-0-49-8-9"
         operator="dilate"
         radius="4"
         result="result3" />
      <feComposite
         id="feComposite4385-9-5-7-0-8"
         in2="result3"
         in="SourceGraphic"
         operator="over"
         result="composite2" />
    </filter>
    <filter
       inkscape:collect="always"
       style="color-interpolation-filters:sRGB"
       id="filter4210"
       x="-0.0015578248"
       width="1.0031157"
       y="-0.0045528179"
       height="1.0091056">
      <feGaussianBlur
         inkscape:collect="always"
         stdDeviation="0.2079876"
         id="feGaussianBlur4212" />
    </filter>
    <filter
       inkscape:collect="always"
       style="color-interpolation-filters:sRGB"
       id="filter4218"
       x="-0.0015404148"
       width="1.0030808"
       y="-0.0047074384"
       height="1.0094149">
      <feGaussianBlur
         inkscape:collect="always"
         stdDeviation="0.19873465"
         id="feGaussianBlur4220" />
    </filter>
    <filter
       inkscape:collect="always"
       style="color-interpolation-filters:sRGB"
       id="filter4202"
       x="-0.0016505915"
       width="1.0033011"
       y="-0.0039833132"
       height="1.0079666">
      <feGaussianBlur
         inkscape:collect="always"
         stdDeviation="0.11736083"
         id="feGaussianBlur4204" />
    </filter>
    <filter
       inkscape:collect="always"
       style="color-interpolation-filters:sRGB"
       id="filter4202-2"
       x="-0.0016505915"
       width="1.0033011"
       y="-0.0039833132"
       height="1.0079666">
      <feGaussianBlur
         inkscape:collect="always"
         stdDeviation="0.11736083"
         id="feGaussianBlur4204-9" />
    </filter>
    <filter
       inkscape:collect="always"
       style="color-interpolation-filters:sRGB"
       id="filter4325"
       x="-0.003899595"
       width="1.0077991"
       y="-0.012803033"
       height="1.0256062">
      <feGaussianBlur
         inkscape:collect="always"
         stdDeviation="0.3730953"
         id="feGaussianBlur4327" />
    </filter>
    <filter
       inkscape:collect="always"
       style="color-interpolation-filters:sRGB"
       id="filter4369"
       x="-0.0062486199"
       width="1.0124972"
       y="-0.023161722"
       height="1.0463234">
      <feGaussianBlur
         inkscape:collect="always"
         stdDeviation="0.69985892"
         id="feGaussianBlur4371" />
    </filter>
    <filter
       inkscape:collect="always"
       style="color-interpolation-filters:sRGB"
       id="filter4369-7"
       x="-0.0062486199"
       width="1.0124972"
       y="-0.023161722"
       height="1.0463234">
      <feGaussianBlur
         inkscape:collect="always"
         stdDeviation="0.69985892"
         id="feGaussianBlur4371-9" />
    </filter>
  </defs>
  <sodipodi:namedview
     pagecolor="#ffffff"
     bordercolor="#666666"
     borderopacity="1"
     objecttolerance="10"
     gridtolerance="10"
     guidetolerance="10"
     inkscape:pageopacity="0"
     inkscape:pageshadow="2"
     inkscape:window-width="1218"
     inkscape:window-height="777"
     id="namedview4"
     showgrid="false"
     inkscape:zoom="0.3652373"
     inkscape:cx="1112.0389"
     inkscape:cy="1517.8351"
     inkscape:window-x="54"
     inkscape:window-y="-8"
     inkscape:window-maximized="1"
     inkscape:current-layer="layer1" />
  <g
     inkscape:groupmode="layer"
     id="layer2"
     inkscape:label="artwork"
     sodipodi:insensitive="true">
    <image
       sodipodi:absref="../gfx_Pepper-and-Carrot_by-David-Revoy_E21P02.png"
       xlink:href="../gfx_Pepper-and-Carrot_by-David-Revoy_E21P02.png"
       y="0"
       x="0"
       id="image10"
       height="3503"
       width="2481" />
  </g>
  <g
     inkscape:groupmode="layer"
     id="layer3"
     inkscape:label="speechbubbles"
     style="display:inline">
    <path
       style="color:#000000;display:inline;overflow:visible;visibility:visible;fill:#ffffff;fill-opacity:1;fill-rule:nonzero;stroke:none;stroke-width:1.10871804px;marker:none;enable-background:accumulate"
       d="m 202.98128,548.16321 c 10.81212,-66.23346 61.30424,-104.64032 289.57559,-93.21867 122.27445,6.118 301.48843,-0.55922 287.07231,96.4617 -14.41625,97.0208 -233.35612,88.48114 -274.80273,90.93547 -41.44663,2.45443 -237.18929,0.20524 -273.01267,-32.61411 -22.42461,-20.54402 -30.63451,-41.05852 -28.8325,-61.56439 z"
       id="path4546-6"
       inkscape:connector-curvature="0"
       sodipodi:nodetypes="cssssc" />
    <path
       style="color:#000000;display:inline;overflow:visible;visibility:visible;fill:#ffffff;fill-opacity:1;fill-rule:nonzero;stroke:none;stroke-width:0.96617109px;marker:none;enable-background:accumulate"
       d="m 312.36414,893.69971 c 5.4253,-47.27153 41.55857,-87.72149 83.07765,-96.59184 41.51901,-8.87045 386.55944,-5.19569 413.04193,5.59215 26.48239,10.78802 66.79409,18.29857 58.11531,99.31801 -8.67896,81.01951 -57.71626,99.71897 -107.25532,103.04747 -49.53898,3.3282 -370.15041,12.4477 -404.33348,-19.78268 -19.12318,-18.03075 -42.66189,-38.69539 -42.64609,-91.58311 z"
       id="path4010"
       inkscape:connector-curvature="0"
       sodipodi:nodetypes="csssssc" />
    <path
       style="color:#000000;display:inline;overflow:visible;visibility:visible;fill:#ffffff;fill-opacity:1;fill-rule:nonzero;stroke:none;stroke-width:1px;marker:none;enable-background:accumulate"
       d="m 708.28728,324.66682 c -17.80302,-2.67292 -29.44884,-2.78409 -47.16698,2.02614 -5.00825,1.47381 -10.08814,3.34728 -14.32577,6.39934 -3.69997,4.15642 -3.59037,10.33514 -1.29957,15.14622 2.82169,7.17956 8.76937,13.55058 8.49474,21.65616 -0.3429,5.89548 -5.65216,9.33006 -9.84801,12.60191 -10.85858,8.12974 -22.88187,14.83631 -32.3875,24.65688 -11.42122,10.36094 -22.68704,22.09158 -27.50316,37.10006 -1.80609,5.97046 -2.86049,12.46873 -0.93358,18.54832 4.23596,15.82051 17.61171,29.44221 33.99141,32.24046 10.61786,0.79327 21.63745,-7.82582 21.71957,-18.81268 0.13014,-5.79897 -3.67523,-10.74961 -8.17826,-13.98082 -7.16767,-7.4865 -9.54283,-18.69535 -7.02055,-28.6264 1.9475,-8.22998 6.45887,-15.76324 12.48174,-21.66268 6.07198,-10.1853 17.74223,-14.32617 27.37733,-20.2179 4.36179,-2.75728 8.81469,-5.98576 11.38712,-10.53486 2.12502,-7.35941 -2.27973,-14.38799 -6.69225,-19.90395 -4.40425,-5.80612 -10.16904,-12.0434 -9.41757,-19.89494 -0.21215,-5.51878 6.17387,-6.74567 9.97179,-9.0346 10.38423,-5.22283 20.05102,-6.98163 39.3495,-7.70666 z"
       id="path4496"
       inkscape:connector-curvature="0"
       sodipodi:nodetypes="cccccccccccccccccccc" />
    <path
       style="color:#000000;display:inline;overflow:visible;visibility:visible;fill:#ffffff;fill-opacity:1;fill-rule:nonzero;stroke:none;stroke-width:1px;marker:none;enable-background:accumulate"
       d="M 1168.0796,835.09728 C 1057.6377,967.74155 882.15697,955.72384 797.11624,911.70094 712.07558,867.6781 771.45002,864.01032 771.45002,864.01032 l 33.38661,5.93526 c -30.12794,-5.49233 148.088,137.70612 363.24297,-34.8483 z"
       id="path3541"
       inkscape:connector-curvature="0"
       sodipodi:nodetypes="csccc" />
    <path
       style="color:#000000;display:inline;overflow:visible;visibility:visible;fill:#ffffff;fill-opacity:1;fill-rule:nonzero;stroke:none;stroke-width:1.02916884px;marker:none;enable-background:accumulate"
       d="m 906.16546,1985.027 c 9.15957,-51.3235 85.98578,-87.1131 279.36734,-72.5608 103.5856,7.7949 221.3565,14.1582 209.1438,89.3737 -12.2129,75.2156 -197.359,77.124 -232.4707,78.0089 -35.1119,0.885 -207.99278,-3.4963 -238.34072,-29.9478 -18.99726,-16.5581 -19.22632,-48.9459 -17.69972,-64.874 z"
       id="path4546-6-6"
       inkscape:connector-curvature="0"
       sodipodi:nodetypes="cssssc" />
    <path
       style="color:#000000;display:inline;overflow:visible;visibility:visible;fill:#ffffff;fill-opacity:1;fill-rule:nonzero;stroke:none;stroke-width:1px;marker:none;enable-background:accumulate"
       d="m 1208.9581,1837.3548 c -51.8093,6.6291 -63.1327,26.4049 -72.7535,39.757 3.2832,4.0843 7.7777,12.4211 7.7777,12.4211 0,0 -21.2954,24.4542 -26.3512,36.4684 -5.0561,12.014 13.5408,18.2582 13.5408,18.2582 0,0 28.706,-45.6159 40.7672,-52.8813 -9.4456,-10.8353 -10.9712,-13.8404 -15.9223,-16.3387 2.967,-9.4271 34.7001,-34.7514 52.9413,-37.6847 z"
       id="path4456"
       inkscape:connector-curvature="0"
       sodipodi:nodetypes="cccscccc" />
    <path
       style="fill:#ffffff;fill-rule:evenodd;stroke:none;stroke-width:1.09814072"
       d="m 1090.9937,2049.2351 c 31.1601,16.8002 31.8424,27.0815 0.7451,30.5655 31.2348,8.5327 24.6163,13.8009 9.1688,18.3075 40.6343,43.2361 29.7948,69.9222 17.7446,96.2189 42.7182,-11.3182 44.7641,12.2633 55.7173,28.2018 9.2151,-31.1032 14.1126,-10.9152 17.8054,23.5848 9.3624,-40.2374 16.0757,-43.2964 20.3732,-12.4523 9.0044,-25.3858 20.8541,-34.94 35.9739,-26.2963 28.2545,-23.2 39.1974,9.7363 55.7355,24.5285 6.8013,-26.6079 19.7871,-27.1137 34.7449,-19.2975 7.2107,-11.1561 12.7726,-27.5003 31.3774,-2.8062 4.6248,-21.9903 13.9403,-6.1385 21.8146,-1.916 -9.4948,-12.7374 7.3221,-15.8995 54.4029,-8.0474 -18.1549,-6.9579 -16.6075,-15.5653 8.1942,-26.1197 -27.2804,-12.2257 -26.8051,-25.8511 -11.7488,-40.2116 -31.0295,-22.6439 0.6862,-43.0935 16.7457,-64.0906 -31.9757,9.4605 -57.3872,8.6448 -62.6095,-23.7739 -48.7264,24.1373 -41.3003,10.4938 -36.4343,-1.4274 -30.4796,29.6732 -28.2792,3.0771 -35.8103,-6.7632 -82.8511,35.6354 -79.1899,-2.4711 -95.7673,-23.3263 -7.5913,43.5947 -24.5582,26.4391 -41.5641,9.0323 -0.08,36.9635 -10.3418,26.0441 -20.3912,16.1257 -1.627,15.9211 -11.8908,20.4016 -33.8,9.4568 15.5376,13.3257 5.7384,15.4187 -42.418,0.5066 z"
       id="path4289"
       inkscape:connector-curvature="0"
       sodipodi:nodetypes="cccccccccccccccccccccccc" />
    <path
       style="color:#000000;display:inline;overflow:visible;visibility:visible;fill:#ffffff;fill-opacity:1;fill-rule:nonzero;stroke:none;stroke-width:1.45134377px;marker:none;enable-background:accumulate"
       d="m 1145.7391,2222.7243 c 8.4528,-54.7457 79.3514,-92.9218 257.8124,-77.3992 95.5932,8.3147 204.2774,15.1024 193.0068,95.333 -11.2704,80.2307 -182.1314,82.2665 -214.534,83.2103 -32.4026,0.9441 -191.9448,-3.7293 -219.9512,-31.9445 -17.5316,-17.6621 -17.7431,-52.2095 -16.334,-69.1996 z"
       id="path4546-6-6-7"
       inkscape:connector-curvature="0"
       sodipodi:nodetypes="cssssc" />
    <path
       style="display:inline;fill:#ffffff;fill-opacity:1;stroke:none;stroke-width:0.92047352"
       d="m 1952.0866,2123.6849 c -1.9292,-23.3922 10.8663,-35.0287 22.5167,-40.541 14.765,-6.9861 121.2788,-14.7723 134.1319,4.8085 11.8374,18.0333 20.2477,51.1875 -15.0987,67.5649 -35.3464,16.3773 -94.3371,7.4067 -104.3787,4.429 -10.0415,-2.9777 -35.163,-10.951 -37.1712,-36.2614 z"
       id="path3659-8"
       inkscape:connector-curvature="0"
       sodipodi:nodetypes="cssssc" />
    <path
       style="color:#000000;display:inline;overflow:visible;visibility:visible;fill:#ffffff;fill-opacity:1;fill-rule:nonzero;stroke:none;stroke-width:1px;marker:none;enable-background:accumulate"
       d="m 1982.1675,2095.4596 c 0.3856,-31.752 -21.3304,-64.1917 -32.5323,-69.3608 -11.2018,-5.1692 49.8903,6.7173 65.5334,65.5673 15.6432,58.8498 -25.2443,31.1505 -25.2443,31.1505 z"
       id="path4035"
       inkscape:connector-curvature="0" />
  </g>
  <g
     inkscape:groupmode="layer"
     id="layer1"
     inkscape:label="txt"
     style="display:inline">
    <text
       xml:space="preserve"
       style="font-style:normal;font-variant:normal;font-weight:normal;font-stretch:normal;line-height:0%;font-family:Lavi;-inkscape-font-specification:Lavi;text-align:center;letter-spacing:0px;word-spacing:0px;text-anchor:middle;fill:#000000;fill-opacity:1;stroke:none"
       x="483.63678"
       y="520.64081"
       id="text4246-2"><tspan
         sodipodi:role="line"
         style="font-size:45px;line-height:110.00000238%"
         x="483.63678"
         y="520.64081"
         id="tspan83">.i xu do junri na'e .aidji</tspan><tspan
         sodipodi:role="line"
         style="font-size:45px;line-height:110.00000238%"
         x="483.63678"
         y="570.14081"
         id="tspan3605">le ka ba kansa mi'a</tspan><tspan
         sodipodi:role="line"
         style="font-size:45px;line-height:110.00000238%"
         x="483.63678"
         y="619.64081"
         id="tspan3607">le ka klama</tspan></text>
    <text
       xml:space="preserve"
       style="font-style:normal;font-variant:normal;font-weight:normal;font-stretch:normal;line-height:0%;font-family:Lavi;-inkscape-font-specification:Lavi;text-align:center;letter-spacing:0px;word-spacing:0px;text-anchor:middle;fill:#000000;fill-opacity:1;stroke:none"
       x="586.04688"
       y="858.25879"
       id="text4246-2-3"><tspan
         sodipodi:role="line"
         style="font-size:45px;line-height:1.25"
         x="586.04688"
         y="858.25879"
         id="tspan88">.i junri .i la kalsa zo'u</tspan><tspan
         sodipodi:role="line"
         style="font-size:45px;line-height:1.25"
         x="586.04688"
         y="914.50879"
         id="tspan90">mi'a ba'e zukte ju tigni</tspan><tspan
         sodipodi:role="line"
         style="font-size:45px;line-height:1.25"
         x="586.04688"
         y="970.75879"
         id="tspan93">lo'e jai makfa</tspan></text>
    <text
       xml:space="preserve"
       style="font-style:normal;font-variant:normal;font-weight:normal;font-stretch:normal;line-height:0%;font-family:Lavi;-inkscape-font-specification:Lavi;text-align:center;letter-spacing:0px;word-spacing:0px;text-anchor:middle;display:inline;opacity:0.6;fill:#000000;fill-opacity:1;stroke:none;filter:url(#filter4210)"
       x="1174.0292"
       y="1085.962"
       id="text4246-5"
       transform="matrix(0.86686897,-0.25363932,0.22723367,0.99032389,114.31368,30.332253)"><tspan
         sodipodi:role="line"
         style="font-style:normal;font-variant:normal;font-weight:normal;font-stretch:normal;font-size:45.00812149px;line-height:1.25;font-family:Fondamento;-inkscape-font-specification:Fondamento;stroke:#000000;stroke-width:3.39352751;stroke-miterlimit:4;stroke-dasharray:none;stroke-opacity:1"
         x="1174.0292"
         y="1085.962"
         id="tspan4217">LA KOMONAN.</tspan><tspan
         sodipodi:role="line"
         style="font-style:normal;font-variant:normal;font-weight:normal;font-stretch:normal;font-size:45.00812149px;line-height:1.25;font-family:Fondamento;-inkscape-font-specification:Fondamento;stroke:#000000;stroke-width:3.39352751;stroke-miterlimit:4;stroke-dasharray:none;stroke-opacity:1"
         x="1179.5233"
         y="1142.2222"
         id="tspan4207"> </tspan><tspan
         sodipodi:role="line"
         style="font-style:normal;font-variant:normal;font-weight:normal;font-stretch:normal;font-size:45.00812149px;line-height:1.25;font-family:Fondamento;-inkscape-font-specification:Fondamento;stroke:#000000;stroke-width:3.39352751;stroke-miterlimit:4;stroke-dasharray:none;stroke-opacity:1"
         x="1179.5233"
         y="1198.4823"
         id="tspan4209"> </tspan></text>
    <text
       xml:space="preserve"
       style="font-style:normal;font-variant:normal;font-weight:normal;font-stretch:normal;line-height:0%;font-family:Lavi;-inkscape-font-specification:Lavi;text-align:center;letter-spacing:0px;word-spacing:0px;text-anchor:middle;display:inline;opacity:0.6;fill:#000000;fill-opacity:1;stroke:#000000;stroke-width:0.70955449;stroke-miterlimit:4;stroke-dasharray:none;stroke-opacity:1;filter:url(#filter4218)"
       x="1294.5164"
       y="1174.9954"
       id="text4246-5-1"
       transform="matrix(0.90582459,-0.28353973,0.16581651,1.0520629,16.203619,-17.587284)"><tspan
         sodipodi:role="line"
         style="font-style:normal;font-variant:normal;font-weight:normal;font-stretch:normal;font-size:20.4427948px;line-height:1.25;font-family:Fondamento;-inkscape-font-specification:Fondamento;stroke:#000000;stroke-width:0.70955449;stroke-miterlimit:4;stroke-dasharray:none;stroke-opacity:1"
         x="1294.5164"
         y="1174.9954"
         id="tspan4222">.I LE CNINO TSINA PU'O AKTI</tspan></text>
    <text
       xml:space="preserve"
       style="font-style:normal;font-variant:normal;font-weight:normal;font-stretch:normal;line-height:0%;font-family:Lavi;-inkscape-font-specification:Lavi;text-align:start;letter-spacing:0px;word-spacing:0px;text-anchor:start;display:inline;opacity:0.6;fill:#000000;fill-opacity:1;stroke:#000000;stroke-width:0.49537376;stroke-miterlimit:4;stroke-dasharray:none;stroke-opacity:1;filter:url(#filter4202)"
       x="1131.04"
       y="1300.7131"
       id="text4246-5-1-3"
       transform="matrix(0.90128293,-0.29766095,0.18223745,1.0493431,-7.2837579,-35.713954)"><tspan
         sodipodi:role="line"
         style="font-style:normal;font-variant:normal;font-weight:normal;font-stretch:normal;font-size:10.78135014px;line-height:1.25;font-family:Fondamento;-inkscape-font-specification:Fondamento;text-align:start;text-anchor:start;stroke:#000000;stroke-width:0.49537376;stroke-miterlimit:4;stroke-dasharray:none;stroke-opacity:1"
         x="1131.04"
         y="1300.7131"
         id="tspan4048">.I LEI XABJU CU XANKA</tspan><tspan
         sodipodi:role="line"
         style="font-style:normal;font-variant:normal;font-weight:normal;font-stretch:normal;font-size:10.78135014px;line-height:1.25;font-family:Fondamento;-inkscape-font-specification:Fondamento;text-align:start;text-anchor:start;stroke:#000000;stroke-width:0.49537376;stroke-miterlimit:4;stroke-dasharray:none;stroke-opacity:1"
         x="1131.04"
         y="1314.1898"
         id="tspan3636">TU'A LO CTEKI</tspan></text>
    <text
       xml:space="preserve"
       style="font-style:normal;font-variant:normal;font-weight:normal;font-stretch:normal;line-height:0%;font-family:Fondamento;-inkscape-font-specification:'Fondamento, Normal';text-align:start;letter-spacing:0px;word-spacing:0px;writing-mode:lr-tb;text-anchor:start;display:inline;opacity:0.6;fill:#000000;fill-opacity:1;stroke:#000000;stroke-width:0.49537376;stroke-miterlimit:4;stroke-dasharray:none;stroke-opacity:1;filter:url(#filter4202-2)"
       x="1131.04"
       y="1300.7131"
       id="text4246-5-1-3-1"
       transform="matrix(0.81172816,-0.30643117,0.16412967,0.92516231,125.17724,215.40246)"><tspan
         sodipodi:role="line"
         id="tspan3411"
         x="1131.04"
         y="1300.7131"
         style="font-size:10.78128147px;line-height:1.25">.I RO PIKTA MO'U SE VECNU</tspan><tspan
         sodipodi:role="line"
         x="1131.04"
         y="1314.1897"
         id="tspan4060"
         style="font-size:10.78128147px;line-height:1.25">.I NA KU KA'E KU NA KU SNADA</tspan></text>
    <text
       xml:space="preserve"
       style="font-style:normal;font-variant:normal;font-weight:normal;font-stretch:normal;line-height:0%;font-family:Lavi;-inkscape-font-specification:Lavi;text-align:start;letter-spacing:0px;word-spacing:0px;text-anchor:start;display:inline;opacity:0.6;fill:#000000;fill-opacity:1;stroke:#000000;stroke-width:0.49537376;stroke-miterlimit:4;stroke-dasharray:none;stroke-opacity:1;filter:url(#filter4325)"
       x="1131.04"
       y="1300.7131"
       id="text4246-5-1-3-6"
       transform="matrix(0.7407423,0.2965061,0.201955,1.3197427,-207.19122,-1339.5667)"><tspan
         sodipodi:role="line"
         style="font-style:normal;font-variant:normal;font-weight:normal;font-stretch:normal;font-size:10.78135014px;line-height:1.25;font-family:Fondamento;-inkscape-font-specification:Fondamento;text-align:start;text-anchor:start;stroke:#000000;stroke-width:0.49537376;stroke-miterlimit:4;stroke-dasharray:none;stroke-opacity:1"
         x="1131.04"
         y="1300.7131"
         id="tspan4196-6">.I ZENBA LE KA PANTE TU'A LE JECTA</tspan></text>
    <text
       xml:space="preserve"
       style="font-style:normal;font-variant:normal;font-weight:normal;font-stretch:normal;line-height:0%;font-family:Lavi;-inkscape-font-specification:Lavi;text-align:start;letter-spacing:0px;word-spacing:0px;text-anchor:start;display:inline;opacity:0.6;fill:#000000;fill-opacity:1;stroke:#000000;stroke-width:0.49537376;stroke-miterlimit:4;stroke-dasharray:none;stroke-opacity:1;filter:url(#filter4369)"
       x="1131.04"
       y="1300.7131"
       id="text4246-5-1-3-6-1"
       transform="matrix(0.7407423,0.2965061,0.201955,1.3197427,-155.53599,-1088.9896)"><tspan
         sodipodi:role="line"
         style="font-style:normal;font-variant:normal;font-weight:normal;font-stretch:normal;font-size:10.78135014px;line-height:1.25;font-family:Fondamento;-inkscape-font-specification:Fondamento;text-align:start;text-anchor:start;stroke:#000000;stroke-width:0.49537376;stroke-miterlimit:4;stroke-dasharray:none;stroke-opacity:1"
         x="1131.04"
         y="1300.7131"
         id="tspan4196-6-8">.I LA .AX. CA'O SAZRI LE 0.8 SI'E BE LEI TUMLA</tspan></text>
    <text
       xml:space="preserve"
       style="font-style:normal;font-variant:normal;font-weight:normal;font-stretch:normal;line-height:0%;font-family:Lavi;-inkscape-font-specification:Lavi;text-align:start;letter-spacing:0px;word-spacing:0px;text-anchor:start;display:inline;opacity:0.6;fill:#000000;fill-opacity:1;stroke:#000000;stroke-width:0.49537376;stroke-miterlimit:4;stroke-dasharray:none;stroke-opacity:1;filter:url(#filter4369-7)"
       x="1131.04"
       y="1300.7131"
       id="text4246-5-1-3-6-1-2"
       transform="matrix(0.45709154,0.19808295,0.12462083,0.91251868,299.48835,-366.52798)"><tspan
         sodipodi:role="line"
         style="font-style:normal;font-variant:normal;font-weight:normal;font-stretch:normal;font-size:10.78135014px;line-height:1.25;font-family:Fondamento;-inkscape-font-specification:Fondamento;text-align:start;text-anchor:start;stroke:#000000;stroke-width:0.49537376;stroke-miterlimit:4;stroke-dasharray:none;stroke-opacity:1"
         x="1131.04"
         y="1300.7131"
         id="tspan4196-6-8-0">.i ja'o do ka'e viska lo mutce cmalu</tspan></text>
    <text
       xml:space="preserve"
       style="font-style:normal;font-variant:normal;font-weight:normal;font-stretch:normal;line-height:0%;font-family:Lavi;-inkscape-font-specification:Lavi;text-align:center;letter-spacing:0px;word-spacing:0px;text-anchor:middle;fill:#000000;fill-opacity:1;stroke:none"
       x="1133.7324"
       y="1973.7657"
       id="text4246-2-3-1"><tspan
         sodipodi:role="line"
         style="font-size:45px;line-height:1.25"
         x="1133.7324"
         y="1973.7657"
         id="tspan4064">.i ckire fi le ka</tspan><tspan
         sodipodi:role="line"
         style="font-size:45px;line-height:1.25"
         x="1133.7324"
         y="2030.0157"
         id="tspan3644">.e'ande mi le ka tigni</tspan></text>
    <text
       xml:space="preserve"
       style="font-style:normal;font-variant:normal;font-weight:normal;font-stretch:normal;line-height:0%;font-family:Lavi;-inkscape-font-specification:Lavi;text-align:center;letter-spacing:0px;word-spacing:0px;text-anchor:middle;fill:#000000;fill-opacity:1;stroke:none"
       x="1263.5112"
       y="2114.9883"
       id="text4246-2-3-1-0"><tspan
         sodipodi:role="line"
         style="font-size:45px;line-height:1.25;stroke:#000000;stroke-width:1.20000005;stroke-miterlimit:4;stroke-dasharray:none;stroke-opacity:1"
         x="1263.5112"
         y="2114.9883"
         id="tspan4452">.i mi ba jinga</tspan><tspan
         sodipodi:role="line"
         style="font-size:45px;line-height:1.25;stroke:#000000;stroke-width:1.20000005;stroke-miterlimit:4;stroke-dasharray:none;stroke-opacity:1"
         x="1263.5112"
         y="2171.2383"
         id="tspan3652">nu'e do</tspan></text>
    <text
       xml:space="preserve"
       style="font-style:normal;font-variant:normal;font-weight:normal;font-stretch:normal;line-height:0%;font-family:Lavi;-inkscape-font-specification:'Lavi, Normal';text-align:center;letter-spacing:0px;word-spacing:0px;writing-mode:lr-tb;text-anchor:middle;fill:#000000;fill-opacity:1;stroke:none"
       x="1365.5112"
       y="2215.4883"
       id="text4246-2-3-1-5"><tspan
         sodipodi:role="line"
         x="1365.5112"
         y="2215.4883"
         id="tspan3656"
         style="font-size:45px;line-height:110.00000238%">.i penmi do ca</tspan><tspan
         sodipodi:role="line"
         x="1365.5112"
         y="2264.9883"
         id="tspan3660"
         style="font-size:45px;line-height:110.00000238%">le lamji vanci pe ba</tspan></text>
    <text
       xml:space="preserve"
       style="font-style:normal;font-variant:normal;font-weight:normal;font-stretch:normal;line-height:0%;font-family:Lavi;-inkscape-font-specification:Lavi;text-align:center;letter-spacing:0px;word-spacing:0px;text-anchor:middle;fill:#000000;fill-opacity:1;stroke:none"
       x="2032.8628"
       y="2130.2102"
       id="text4246-2-3-6"><tspan
         sodipodi:role="line"
         style="font-size:45px;line-height:1.25"
         x="2032.8628"
         y="2130.2102"
         id="tspan4187-2">ge'e</tspan></text>
    <text
       xml:space="preserve"
       style="font-style:normal;font-variant:normal;font-weight:normal;font-stretch:normal;line-height:0%;font-family:Lavi;-inkscape-font-specification:Lavi;letter-spacing:0px;word-spacing:0px;fill:#000000;fill-opacity:1;stroke:#000000;stroke-width:0.99236238;stroke-miterlimit:4;stroke-dasharray:none;stroke-opacity:1;filter:url(#filter4375-4-1-1-1-9)"
       x="787.65729"
       y="1584.5073"
       id="text4580"
       transform="matrix(0.66983444,-0.42899526,0.00573176,0.82056131,1671.7153,441.03315)"><tspan
         sodipodi:role="line"
         id="tspan4582"
         x="787.65729"
         y="1584.5073"
         style="font-size:70px;line-height:1.25;fill:#ffffff"><tspan
           style="font-size:80.40014648px"
           id="tspan4617">bam.</tspan></tspan></text>
    <flowRoot
       xml:space="preserve"
       id="flowRoot4050"
       style="font-style:normal;font-variant:normal;font-weight:normal;font-stretch:normal;line-height:0.01%;font-family:sans-serif;-inkscape-font-specification:Clean;letter-spacing:0px;word-spacing:0px;fill:#000000;fill-opacity:1;stroke:none;stroke-width:1px;stroke-linecap:butt;stroke-linejoin:miter;stroke-opacity:1"><flowRegion
         id="flowRegion4052"
         style="font-family:sans-serif"><rect
           id="rect4054"
           width="1.5832587"
           height="22.165623"
           x="1378.2268"
           y="1077.4476"
           style="font-family:sans-serif" /></flowRegion><flowPara
         id="flowPara4056"
         style="font-size:6px;line-height:1.25;font-family:sans-serif"> </flowPara></flowRoot>  </g>
</svg>
