<?xml version="1.0" encoding="UTF-8" standalone="no"?>
<!-- Created with Inkscape (http://www.inkscape.org/) -->

<svg
   xmlns:dc="http://purl.org/dc/elements/1.1/"
   xmlns:cc="http://creativecommons.org/ns#"
   xmlns:rdf="http://www.w3.org/1999/02/22-rdf-syntax-ns#"
   xmlns:svg="http://www.w3.org/2000/svg"
   xmlns="http://www.w3.org/2000/svg"
   xmlns:xlink="http://www.w3.org/1999/xlink"
   xmlns:sodipodi="http://sodipodi.sourceforge.net/DTD/sodipodi-0.dtd"
   xmlns:inkscape="http://www.inkscape.org/namespaces/inkscape"
   id="svg2"
   version="1.1"
   inkscape:version="0.92.2 2405546, 2018-03-11"
   width="2481"
   height="3503"
   sodipodi:docname="E26P05.svg">
  <metadata
     id="metadata8">
    <rdf:RDF>
      <cc:Work
         rdf:about="">
        <dc:format>image/svg+xml</dc:format>
        <dc:type
           rdf:resource="http://purl.org/dc/dcmitype/StillImage" />
        <dc:title />
      </cc:Work>
    </rdf:RDF>
  </metadata>
  <defs
     id="defs6" />
  <sodipodi:namedview
     pagecolor="#ffffff"
     bordercolor="#666666"
     borderopacity="1"
     objecttolerance="10"
     gridtolerance="10"
     guidetolerance="10"
     inkscape:pageopacity="0"
     inkscape:pageshadow="2"
     inkscape:window-width="1916"
     inkscape:window-height="1022"
     id="namedview4"
     showgrid="false"
     inkscape:zoom="2.4196598"
     inkscape:cx="1955.7864"
     inkscape:cy="206.55191"
     inkscape:window-x="0"
     inkscape:window-y="24"
     inkscape:window-maximized="0"
     inkscape:current-layer="layer1"
     inkscape:snap-global="false" />
  <g
     inkscape:groupmode="layer"
     id="layer2"
     inkscape:label="artwork"
     sodipodi:insensitive="true">
    <image
       sodipodi:absref="/home/nightlock/peppercarrot/webcomics/new-ep26_Books-Are-Great/lang/kr/../gfx_Pepper-and-Carrot_by-David-Revoy_E26P05.png"
       xlink:href="../gfx_Pepper-and-Carrot_by-David-Revoy_E26P05.png"
       width="2481"
       height="3503"
       id="image10"
       x="0"
       y="0" />
  </g>
  <g
     inkscape:groupmode="layer"
     id="layer3"
     inkscape:label="speechbubbles">
    <path
       style="color:#000000;display:inline;overflow:visible;visibility:visible;fill:#ffffff;fill-opacity:1;fill-rule:nonzero;stroke:none;stroke-width:0.80651891px;marker:none;enable-background:accumulate"
       d="m 675.19621,164.85342 c 22.3858,-22.2946 196.45651,-36.28811 252.69192,16.63204 56.2354,52.92017 14.58863,108.98801 -21.6642,125.26033 -36.25281,16.2724 -139.99661,29.73073 -185.17451,10.58698 -45.178,-19.14377 -79.39139,-45.48954 -77.57915,-94.5376 0.73965,-20.01849 9.34007,-35.64707 31.72594,-57.94175 z"
       id="path4040"
       inkscape:connector-curvature="0"
       sodipodi:nodetypes="zssssz" />
    <path
       style="color:#000000;display:inline;overflow:visible;visibility:visible;fill:#ffffff;fill-opacity:1;fill-rule:nonzero;stroke:none;stroke-width:1px;marker:none;enable-background:accumulate"
       d="m 723.30366,175.8066 c 15.6509,39.1272 126.32477,118.49941 138.62187,131.91441 12.2971,13.415 38.0092,32.4196 58.1317,35.7734 20.1226,3.3537 29.8656,-15.8488 47.3048,-18.9433 14.983,-2.6587 26.47777,2.1745 35.42117,12.2357 -14.533,-25.7121 -39.12717,-25.7121 -49.18837,-21.2404 -10.0613,4.4717 -27.948,17.8867 -44.7168,5.5896 -16.7687,-12.2971 -86.0797,-88.31561 -103.96637,-91.66931 -17.8867,-3.3538 -40.245,-29.0659 -40.245,-43.5988 0,-14.533 -41.363,-10.0613 -41.363,-10.0613 z"
       id="path4562"
       inkscape:connector-curvature="0"
       sodipodi:nodetypes="cssscssssc" />
    <path
       style="color:#000000;display:inline;overflow:visible;visibility:visible;fill:#ffffff;fill-opacity:1;fill-rule:nonzero;stroke:none;stroke-width:1px;marker:none;enable-background:accumulate"
       d="m 629.44972,1457.2356 c 5.31864,112.846 187.39235,142.8215 217.19246,120.0477 -67.73192,45.7834 -243.1513,-13.454 -259.18624,-91.6691 -22.55675,-34.7368 41.99378,-28.3786 41.99378,-28.3786 z"
       id="path4480"
       inkscape:connector-curvature="0"
       sodipodi:nodetypes="cccc" />
    <path
       style="color:#000000;display:inline;overflow:visible;visibility:visible;fill:#ffffff;fill-opacity:1;fill-rule:nonzero;stroke:none;stroke-width:0.77267522px;marker:none;enable-background:accumulate"
       d="m 1697.506,1517.4852 c 5.6292,-47.4416 52.8446,-80.5244 171.6921,-67.0728 63.6611,7.2055 136.0402,13.0874 128.5345,82.6142 -7.5057,69.5266 -111.6467,63.8009 -133.2255,64.6189 -21.5789,0.818 -133.3386,-10.7214 -151.9897,-35.1724 -11.6753,-15.3056 -15.9497,-30.2645 -15.0114,-44.9879 z"
       id="path4546-6"
       inkscape:connector-curvature="0"
       sodipodi:nodetypes="cssssc" />
    <path
       style="fill:#ffffff;fill-opacity:1;stroke:none;stroke-width:1.07360196"
       d="m 1843.176,1642.7664 c -2.5861,-33.1575 14.5669,-49.6518 30.1849,-57.4653 19.7934,-9.9025 162.5813,-20.9391 179.8117,6.8159 15.8687,25.5615 27.1433,72.5563 -20.2407,95.7706 -47.3839,23.2142 -126.4643,10.4987 -139.9256,6.278 -13.4614,-4.2208 -47.1381,-15.5227 -49.8303,-51.3992 z"
       id="path3659-8"
       inkscape:connector-curvature="0"
       sodipodi:nodetypes="cssssc" />
    <path
       style="fill:#ffffff;fill-opacity:1;fill-rule:evenodd;stroke:none;stroke-width:0.55860311px;stroke-linecap:butt;stroke-linejoin:miter;stroke-opacity:1"
       d="m 2042.1946,1752.4365 c 2.728,6.2781 -2.5928,12.8754 -6.404,14.9282 -4.5269,4.1933 -9.5159,3.4238 -14.1351,2.3824 -4.5171,-1.6167 -8.5373,2.4725 -12.1895,6.7734 -5.5986,5.4542 -12.8111,6.5511 -17.8391,1.2394 -3.7739,-3.6716 -8.1079,-8.1406 -13.1667,-5.3035 -5.9475,2.7499 -13.3281,4.8375 -17.8209,-1.7964 -2.8415,-7.3562 -9.4668,-5.3756 -14.4229,-3.3626 -6.3256,2.2865 -13.0422,3.2535 -18.7277,-0.695 -3.8018,-2.3804 -8.6975,-3.9874 -9.786,-11.0177 -1.4153,-7.7322 -2.8209,-16.9207 -8.1607,-19.9579 -3.7332,-2.4942 -9.3174,-4.4919 -9.2895,-12.3212 1.0381,-6.8382 4.0591,-13.2886 6.7828,-18.978 6.7201,-6.9042 14.6335,0.321 22.1355,-0.7647 4.9023,-0.6887 9.7474,-3.071 14.2345,-6.8213 7.0489,-4.1094 13.8339,1.0655 20.9029,-1.2502 8.2283,-1.9266 16.5556,-0.2509 24.7039,-4.696 9.1229,-3.9035 18.8197,-0.7854 25.109,8.5566 2.624,4.5693 6.4398,6.697 10.5889,6.5043 5.4385,0.514 8.3868,-0.3982 11.4288,7.2374 2.5225,5.4974 1.8758,3.7813 3.2546,9.6865 1.4851,5.8484 6.4965,7.8078 7.1735,14.5687 0.4654,5.574 -4.2531,9.3467 -4.3723,15.0876 z"
       id="path4367-3-5"
       inkscape:connector-curvature="0"
       sodipodi:nodetypes="ccccccccccccccccccccccc" />
    <path
       style="opacity:1;fill:#ffffff;fill-rule:evenodd;stroke:none;stroke-width:1.3443836px;stroke-linecap:butt;stroke-linejoin:miter;stroke-opacity:1"
       d="m 1542.1535,1496.6176 c 57.2733,-8.6915 60.9764,19.7045 77.6569,27.317 17.2205,7.8588 50.5803,-25.7702 66.8815,-19.2081 16.3015,6.562 20.9961,40.3754 46.6514,50.2361 25.6551,9.861 44.0985,-16.5088 14.0519,-27.3374 -30.0465,-10.8286 -24.8419,-34.9697 -49.8325,-40.9228 -41.6779,-9.928 -54.8951,20.1792 -69.9481,24.4763 -9.9661,2.8447 -19.8986,-16.3184 -38.035,-21.5527 -18.1365,-5.2344 -47.4261,6.9916 -47.4261,6.9916 z"
       id="path4272"
       inkscape:connector-curvature="0"
       sodipodi:nodetypes="csssssssc" />
    <path
       style="color:#000000;display:inline;overflow:visible;visibility:visible;fill:#ffffff;fill-opacity:1;fill-rule:nonzero;stroke:none;stroke-width:0.83448213px;marker:none;enable-background:accumulate"
       d="m 1150.9981,2864.1872 c -12.0589,-10.5306 -30.8285,-23.9453 24.547,-26.9445 -69.2561,-25.4199 -55.4479,-66.5215 -17.9978,-77.5114 -57.0858,-2.4623 -62.142,-5.9422 13.7195,-86.1248 -88.2597,76.5575 -96.2624,77.6987 -101.2737,39.8671 -15.1659,22.2479 -44.4281,20.2317 -39.4381,-13.2081 -17.3057,26.9328 -63.31877,44.4068 -65.26674,3.5626 -21.61458,32.1468 -42.08341,30.134 -63.35215,23.193 4.4196,24.5984 3.1736,52.2255 2.28174,90.2578 -1.1073,22.4558 1.20399,27.1694 5.6531,42.6743 -3.61316,24.576 2.69265,25.021 5.5504,43.2742 37.41004,-21.8896 37.43483,-19.3678 38.08238,8.5148 68.38957,-49.2416 54.98857,-10.5176 70.40687,-3.5241 25.6115,-37.6615 51.2874,-14.6169 77.8583,-9.0224 11.862,-43.0546 28.8354,-39.8265 49.2292,-35.0085 z"
       id="path3549-3-78"
       inkscape:connector-curvature="0"
       sodipodi:nodetypes="ccccccccccccccc" />
    <path
       style="fill:#ffffff;fill-rule:evenodd;stroke:none;stroke-width:1.13942826px;stroke-linecap:butt;stroke-linejoin:miter;stroke-opacity:1"
       d="m 1070.4314,2830.0957 c -27.4547,59.5841 -59.0694,67.5264 -95.81266,11.7969 -9.7776,18.9638 -0.91279,72.9945 -62.71442,-5.8985 6.6343,35.9292 -2.9074,46.3002 -19.40432,45.6814 v 210.3491 c 16.05537,-5.021 28.38838,-0.9441 33.34086,21.1844 34.74206,-24.3217 58.66519,-25.9635 60.97336,17.6953 32.71888,-50.0516 46.27008,-29.7987 60.97138,-13.7629 49.431,-48.3175 69.8826,-11.6016 97.5537,3.9322 -5.0554,-27.0789 3.263,-41.2211 62.7144,-5.8984 -11.2028,-17.1802 -28.0186,-35.416 41.8096,-37.3545 -29.8231,-13.9992 -44.3185,-33.6991 -22.6479,-66.8466 -40.7922,-22.7542 -20.1556,-41.4306 17.4207,-58.9821 -54.0943,-11.4374 -45.0779,-31.2542 -20.9049,-53.0835 -54.7124,20.744 -109.0353,15.4029 -80.3776,-23.6821 -33.623,21.5488 -57.4016,40.8165 -72.9222,-45.1307 z"
       id="path4582"
       inkscape:connector-curvature="0"
       sodipodi:nodetypes="cccccccccccccccc" />
    <path
       style="fill:#ffffff;fill-rule:evenodd;stroke:none;stroke-width:0.97864747px;stroke-linecap:butt;stroke-linejoin:miter;stroke-opacity:1"
       d="m 889.1222,3112.1477 c 26.68633,2.7051 65.76398,-10.089 44.18918,-50.8159 41.87691,28.8558 76.21162,23.8184 144.33082,-21.4911 -5.6607,63.1309 24.7852,57.2326 52.2327,45.1123 -26.342,21.244 20.9429,33.4174 46.3779,34.6108 -53.8053,45.9493 -25.5515,60.5625 -4.3504,77.8691 -52.8779,-12.8043 -40.0892,13.1396 -46.4049,27.8104 -45.3613,-33.2402 -78.3497,-25.3512 -104.4112,5.5621 -13.6306,-16.8115 -17.9091,-51.558 -68.15728,1.854 18.47745,-46.1099 -5.74243,-41.27 -44.95483,-18.5402 6.14546,-15.7057 42.67059,-39.5884 -18.85199,-37.0806 38.42816,-14.9306 46.48674,-35.1561 0,-64.8909 z"
       id="path4584"
       inkscape:connector-curvature="0"
       sodipodi:nodetypes="cccccccccccc" />
    <path
       style="fill:#ffffff;fill-opacity:1;fill-rule:evenodd;stroke:none;stroke-width:1.11439276px;stroke-linecap:butt;stroke-linejoin:miter;stroke-opacity:1"
       d="m 1999.9989,2095.4121 c -16.5275,-1.455 -25.7404,17.25 -38.8966,24.1978 -13.4819,3.2493 -28.5441,-8.8053 -40.7602,2.3915 -11.0541,6.4399 -23.0417,18.4901 -19.1811,34.4797 1.0966,14.5148 -12.7339,23.199 -10.9653,37.512 0.4975,14.9876 15.9483,22.9474 13.4679,38.6673 -4.2928,14.4332 -13.8422,31.2861 -3.1512,45.7315 11.1152,16.4632 32.1204,7.3034 45.3638,18.313 10.6083,16.4451 23.1529,35.3547 42.4138,36.3645 18.0059,1.4166 31.4476,-13.7588 49.5896,-11.3603 13.4278,-0.2743 29.5518,13.0535 42.8289,17.0684 11.1365,-0.9747 23.7096,2.8301 33.5053,-5.2936 9.4935,-10.9424 22.4957,-9.9512 28.7091,4.2911 10.4325,10.8294 25.9511,3.2684 36.8056,-2.9753 13.2497,-11.2104 25.2571,5.7337 36.7013,11.7228 15.5349,8.5166 31.4505,-19.7741 40.0287,-34.174 8.2352,-15.7777 25.0153,-8.0933 37.665,-11.1197 11.5987,-5.3118 23.2194,-16.7119 26.6455,-31.2344 -1.9909,-13.1731 -2.9033,-27.7059 4.2241,-39.5519 4.214,-14.5929 -6.425,-26.4673 -14.5101,-35.506 -9.9696,-14.3198 4.3638,-29.8117 0.2069,-45.0946 -3.3949,-20.0832 -23.2126,-22.8669 -37.6049,-20.484 -13.1788,3.5888 -21.1036,-8.6408 -29.7781,-17.5181 -13.0882,-14.4281 -33.2406,-18.472 -49.5298,-9.1296 -14.4168,9.3712 -27.2713,2.1835 -43.4615,4.8547 -11.7547,3.6209 -23.6861,14.2403 -35.9936,12.1074 -10.2845,-2.3973 -22.4261,14.5509 -33.227,-1.2023 -8.6563,-12.5056 -22.7749,-4.2472 -34.1533,-0.3323 -15.1065,8.5891 -24.5313,-11.7057 -35.7733,-19.1901 -3.3851,-2.2431 -7.2495,-3.6585 -11.1695,-3.5355 z"
       id="path4367"
       inkscape:connector-curvature="0"
       sodipodi:nodetypes="cccccccccccccccccccccccccccccc" />
    <path
       style="color:#000000;display:inline;overflow:visible;visibility:visible;fill:#ffffff;fill-opacity:1;fill-rule:nonzero;stroke:none;stroke-width:1.3837055px;marker:none;enable-background:accumulate"
       d="m 2170.3615,2309.0962 c -0.3713,38.0127 6.7641,58.9988 10.8638,63.5533 4.0997,4.5543 14.1043,16.9116 18.197,24.3263 3.3617,6.1716 9.6066,12.58 5.6022,19.0563 -4.0042,6.4764 -34.1758,30.3537 -35.5389,56.2139 -1.3632,25.8606 5.3064,30.7584 16.8647,34.3062 11.5583,3.5478 26.5828,8.5604 26.6542,27.601 0.071,19.0406 -9.8738,34.7396 -15.8025,39.9571 -5.9287,5.2176 -38.3186,24.4352 -54.9686,48.0709 -8.8964,12.629 -3.6957,116.332 -77.1531,147.1353 96.1421,-38.7249 86.06,-126.0636 93.2119,-138.7724 6.2517,-11.109 19.0349,-23.9504 28.6904,-28.7662 12.35,-6.1599 23.5652,-12.3444 30.546,-25.4347 6.9807,-13.0901 15.9013,-23.3083 13.774,-42.6236 -2.1271,-19.3153 -5.4443,-39.4224 -23.4332,-41.8264 -11.5582,-3.5478 -18.351,-12.9635 -18.0761,-18.9365 0.2753,-5.9731 12.8845,-27.1311 24.7298,-33.5613 11.8453,-6.4303 16.5638,-17.6507 16.086,-29.7343 -0.4779,-12.0835 -10.5747,-31.5425 -12.3436,-41.7953 -1.7687,-10.2527 -15.6194,-65.4734 -15.6194,-65.4734 z"
       id="path5058"
       inkscape:connector-curvature="0"
       sodipodi:nodetypes="cscsssssscssssccscccc" />
  </g>
  <g
     inkscape:groupmode="layer"
     id="layer1"
     inkscape:label="txt">
    <path
       style="fill:#ffffff;fill-opacity:1;fill-rule:evenodd;stroke:none;stroke-width:0.9326129px;stroke-linecap:butt;stroke-linejoin:miter;stroke-opacity:1"
       d="m 337.8574,1202.3778 c -6.6742,-8.5996 1.61188,-19.3901 8.21833,-23.2096 7.40645,-7.1039 16.92229,-7.0471 25.81571,-6.5131 8.84698,1.3971 15.33255,-5.4459 21.07721,-12.5198 9.0924,-9.1782 22.29458,-12.3279 33.02412,-5.6348 7.97424,4.5624 17.1955,10.1714 25.93609,4.9375 10.4235,-5.2969 23.69134,-9.9318 33.75259,-1.1899 7.15722,10.1523 19.04019,5.8356 27.796,1.8292 11.24623,-4.6999 23.55466,-7.5533 35.17073,-2.9954 7.70197,2.6678 17.25376,3.9699 21.05348,14.0209 4.58625,11.0078 9.52022,24.1481 20.26112,27.4471 7.60272,2.8488 18.5393,4.575 20.45326,16.0339 -0.22279,10.2257 -4.24825,20.309 -7.90926,29.2151 -10.82405,11.5394 -27.42592,2.6654 -41.172,5.8607 -8.98795,2.0576 -17.44373,6.5807 -24.88679,13.028 -12.14017,7.5216 -26.11864,1.4049 -38.74673,6.3068 -14.89227,4.5811 -30.87408,3.9138 -44.98427,12.162 -16.0674,7.6646 -34.97082,5.1806 -49.06923,-7.1381 -6.05085,-6.1221 -13.71569,-8.4171 -21.4206,-7.2464 -10.29187,0.4132 -15.57209,2.3794 -23.17406,-8.1387 -6.09402,-7.5017 -4.4547,-5.1298 -8.514,-13.4728 -4.24387,-8.2372 -14.10059,-10.0299 -17.06344,-19.7751 -2.26948,-8.0541 5.60073,-14.584 4.38174,-23.0075 z"
       id="path4367-3"
       inkscape:connector-curvature="0"
       sodipodi:nodetypes="ccccccccccccccccccccccc" />
    <path
       style="color:#000000;display:inline;overflow:visible;visibility:visible;fill:#ffffff;fill-opacity:1;fill-rule:nonzero;stroke:none;stroke-width:1.16089892px;marker:none;enable-background:accumulate"
       d="m 424.11747,1282.9378 c 43.85593,-38.7655 238.33787,-80.662 319.68824,-5.1413 81.35032,75.5207 52.55082,180.9783 5.87431,209.8134 -46.6764,28.8352 -190.91637,39.3072 -256.99021,27.2248 -111.98567,-20.4777 -120.92407,-65.5663 -124.11134,-141.2153 -1.30085,-30.8754 11.68308,-51.9161 55.539,-90.6816 z"
       id="path4040-3"
       inkscape:connector-curvature="0"
       sodipodi:nodetypes="zssssz" />
    <text
       xml:space="preserve"
       style="color:#000000;font-style:normal;font-variant:normal;font-weight:normal;font-stretch:normal;font-size:13.68011093px;line-height:0.01%;font-family:Arial;-inkscape-font-specification:Arial;letter-spacing:1.1032722px;word-spacing:0px;display:inline;overflow:visible;visibility:visible;fill:#e69d76;fill-opacity:1;fill-rule:nonzero;stroke:#e99f77;stroke-width:0;stroke-miterlimit:4;stroke-dasharray:none;stroke-opacity:1;marker:none;enable-background:accumulate"
       x="2813.7102"
       y="434.09442"
       id="text1711-2-3-9"
       transform="matrix(0.8793411,0.03700556,-0.36761453,1.1217447,0,0)"><tspan
         sodipodi:role="line"
         x="2815.1904"
         y="434.09442"
         id="tspan1709-8-6-2"
         style="font-style:normal;font-variant:normal;font-weight:bold;font-stretch:normal;font-family:Lavi;-inkscape-font-specification:'Lavi Bold';letter-spacing:2.96047211px;word-spacing:0px;fill:#ffffff;fill-opacity:1;stroke:#ffffff;stroke-width:0;stroke-miterlimit:4;stroke-dasharray:none;stroke-opacity:1"><tspan
           x="2813.7102"
           y="434.09442"
           style="color:#000000;font-style:normal;font-variant:normal;font-weight:bold;font-stretch:normal;font-size:72.96060944px;line-height:1.25;font-family:Lavi;-inkscape-font-specification:'Lavi Bold';text-align:center;letter-spacing:2.96047211px;word-spacing:0px;text-anchor:middle;display:inline;overflow:visible;visibility:visible;fill:#ffffff;fill-opacity:1;fill-rule:nonzero;stroke:#ffffff;stroke-width:0;stroke-miterlimit:4;stroke-dasharray:none;stroke-opacity:1;marker:none;enable-background:accumulate"
           id="tspan1707-9-7-2">?!</tspan></tspan></text>
    <text
       id="text911"
       y="161.89673"
       x="794.17334"
       style="font-style:normal;font-variant:normal;font-weight:normal;font-stretch:normal;font-size:15.19510746px;line-height:100%;font-family:'Nanum Pen Script OTF';-inkscape-font-specification:'Nanum Pen Script OTF';text-align:center;letter-spacing:0px;word-spacing:0px;text-anchor:middle;fill:#000000;fill-opacity:1;stroke:none;stroke-width:1.26625896"
       xml:space="preserve"><tspan
         id="tspan901"
         y="172.94772"
         x="794.17334"
         style="font-style:normal;font-variant:normal;font-weight:normal;font-stretch:normal;font-size:56.98165512px;line-height:100%;font-family:'Nanum Pen Script OTF';-inkscape-font-specification:'Nanum Pen Script OTF';stroke-width:1.26625896"
         sodipodi:role="line" /><tspan
         id="tspan907"
         y="218.53304"
         x="794.17334"
         style="font-style:normal;font-variant:normal;font-weight:normal;font-stretch:normal;font-size:56.98165512px;line-height:100%;font-family:'Nanum Pen Script OTF';-inkscape-font-specification:'Nanum Pen Script OTF';stroke-width:1.26625896"
         sodipodi:role="line">아하!</tspan><tspan
         y="275.51471"
         x="794.17334"
         style="font-style:normal;font-variant:normal;font-weight:normal;font-stretch:normal;font-size:56.98165512px;line-height:100%;font-family:'Nanum Pen Script OTF';-inkscape-font-specification:'Nanum Pen Script OTF';stroke-width:1.26625896"
         sodipodi:role="line"
         id="tspan1091">여기가 출구다!</tspan><tspan
         id="tspan909"
         y="302.10614"
         x="794.17334"
         style="font-style:normal;font-variant:normal;font-weight:normal;font-stretch:normal;font-size:56.98165512px;line-height:100%;font-family:'Nanum Pen Script OTF';-inkscape-font-specification:'Nanum Pen Script OTF';stroke-width:1.26625896"
         sodipodi:role="line" /></text>
    <text
       id="text927"
       y="1171.2004"
       x="480.80505"
       style="font-style:normal;font-variant:normal;font-weight:normal;font-stretch:normal;font-size:15.7642374px;line-height:100%;font-family:'Nanum Pen Script OTF';-inkscape-font-specification:'Nanum Pen Script OTF';text-align:center;letter-spacing:0px;word-spacing:0px;text-anchor:middle;fill:#000000;fill-opacity:1;stroke:none;stroke-width:1.31368649"
       xml:space="preserve"><tspan
         id="tspan921"
         y="1182.6653"
         x="480.80505"
         style="font-style:normal;font-variant:normal;font-weight:normal;font-stretch:normal;font-size:59.1158905px;line-height:100%;font-family:'Nanum Pen Script OTF';-inkscape-font-specification:'Nanum Pen Script OTF';stroke-width:1.31368649"
         sodipodi:role="line" /><tspan
         id="tspan923"
         y="1237.9198"
         x="480.80505"
         style="font-style:normal;font-variant:normal;font-weight:normal;font-stretch:normal;font-size:70.0632782px;line-height:100%;font-family:'Nanum Pen Script OTF';-inkscape-font-specification:'Nanum Pen Script OTF';stroke-width:1.31368649"
         sodipodi:role="line">으웨에에...</tspan><tspan
         id="tspan925"
         y="1268.4928"
         x="480.80505"
         style="font-style:normal;font-variant:normal;font-weight:normal;font-stretch:normal;font-size:70.0632782px;line-height:100%;font-family:'Nanum Pen Script OTF';-inkscape-font-specification:'Nanum Pen Script OTF';stroke-width:1.31368649"
         sodipodi:role="line" /></text>
    <text
       id="text941"
       y="1209.933"
       x="584.42462"
       style="font-style:normal;font-variant:normal;font-weight:normal;font-stretch:normal;font-size:57.43529129px;line-height:100%;font-family:'Nanum Pen Script OTF';-inkscape-font-specification:'Nanum Pen Script OTF';font-variant-ligatures:normal;font-variant-caps:normal;font-variant-numeric:normal;font-feature-settings:normal;text-align:center;letter-spacing:0px;word-spacing:0px;writing-mode:lr-tb;text-anchor:middle;fill:#000000;fill-opacity:1;stroke:none;stroke-width:1.27633977"
       xml:space="preserve"><tspan
         id="tspan939"
         y="1251.7041"
         x="584.42462"
         style="font-style:normal;font-variant:normal;font-weight:normal;font-stretch:normal;font-size:57.43529129px;line-height:100%;font-family:'Nanum Pen Script OTF';-inkscape-font-specification:'Nanum Pen Script OTF';font-variant-ligatures:normal;font-variant-caps:normal;font-variant-numeric:normal;font-feature-settings:normal;text-align:center;writing-mode:lr-tb;text-anchor:middle;stroke-width:1.27633977"
         sodipodi:role="line" /><tspan
         y="1309.1394"
         x="584.42462"
         style="font-style:normal;font-variant:normal;font-weight:normal;font-stretch:normal;font-size:57.43529129px;line-height:100%;font-family:'Nanum Pen Script OTF';-inkscape-font-specification:'Nanum Pen Script OTF';font-variant-ligatures:normal;font-variant-caps:normal;font-variant-numeric:normal;font-feature-settings:normal;text-align:center;writing-mode:lr-tb;text-anchor:middle;stroke-width:1.27633977"
         sodipodi:role="line"
         id="tspan1136">이 책 안에</tspan><tspan
         y="1366.5747"
         x="584.42462"
         style="font-style:normal;font-variant:normal;font-weight:normal;font-stretch:normal;font-size:57.43529129px;line-height:100%;font-family:'Nanum Pen Script OTF';-inkscape-font-specification:'Nanum Pen Script OTF';font-variant-ligatures:normal;font-variant-caps:normal;font-variant-numeric:normal;font-feature-settings:normal;text-align:center;writing-mode:lr-tb;text-anchor:middle;stroke-width:1.27633977"
         sodipodi:role="line"
         id="tspan1138">“얘네”를 어떻게</tspan><tspan
         y="1424.01"
         x="584.42462"
         style="font-style:normal;font-variant:normal;font-weight:normal;font-stretch:normal;font-size:57.43529129px;line-height:100%;font-family:'Nanum Pen Script OTF';-inkscape-font-specification:'Nanum Pen Script OTF';font-variant-ligatures:normal;font-variant-caps:normal;font-variant-numeric:normal;font-feature-settings:normal;text-align:center;writing-mode:lr-tb;text-anchor:middle;stroke-width:1.27633977"
         sodipodi:role="line"
         id="tspan1140">떼어내는 방법이</tspan><tspan
         y="1481.4453"
         x="584.42462"
         style="font-style:normal;font-variant:normal;font-weight:normal;font-stretch:normal;font-size:57.43529129px;line-height:100%;font-family:'Nanum Pen Script OTF';-inkscape-font-specification:'Nanum Pen Script OTF';font-variant-ligatures:normal;font-variant-caps:normal;font-variant-numeric:normal;font-feature-settings:normal;text-align:center;writing-mode:lr-tb;text-anchor:middle;stroke-width:1.27633977"
         sodipodi:role="line"
         id="tspan1142">있을 텐데...</tspan></text>
    <text
       id="text951"
       y="1465.3915"
       x="1847.3546"
       style="font-style:normal;font-variant:normal;font-weight:normal;font-stretch:normal;font-size:12.48153591px;line-height:100%;font-family:'Nanum Pen Script OTF';-inkscape-font-specification:'Nanum Pen Script OTF';text-align:center;letter-spacing:0px;word-spacing:0px;text-anchor:middle;fill:#000000;fill-opacity:1;stroke:none;stroke-width:1.04012799"
       xml:space="preserve"><tspan
         id="tspan947"
         y="1474.469"
         x="1847.3546"
         style="font-style:normal;font-variant:normal;font-weight:normal;font-stretch:normal;font-size:46.84004593px;line-height:100%;font-family:'Nanum Pen Script OTF';-inkscape-font-specification:'Nanum Pen Script OTF';stroke-width:1.04012799"
         sodipodi:role="line" /><tspan
         y="1511.9385"
         x="1847.3546"
         style="font-style:normal;font-variant:normal;font-weight:normal;font-stretch:normal;font-size:46.84004593px;line-height:100%;font-family:'Nanum Pen Script OTF';-inkscape-font-specification:'Nanum Pen Script OTF';stroke-width:1.04012799"
         sodipodi:role="line"
         id="tspan1148">당근아... 그거 좀</tspan><tspan
         y="1558.7786"
         x="1847.3546"
         style="font-style:normal;font-variant:normal;font-weight:normal;font-stretch:normal;font-size:46.84004593px;line-height:100%;font-family:'Nanum Pen Script OTF';-inkscape-font-specification:'Nanum Pen Script OTF';stroke-width:1.04012799"
         sodipodi:role="line"
         id="tspan1150">읽어줄 수 있어?</tspan><tspan
         id="tspan949"
         y="1580.6306"
         x="1847.3546"
         style="font-style:normal;font-variant:normal;font-weight:normal;font-stretch:normal;font-size:46.84004593px;line-height:100%;font-family:'Nanum Pen Script OTF';-inkscape-font-specification:'Nanum Pen Script OTF';stroke-width:1.04012799"
         sodipodi:role="line" /></text>
    <text
       id="text961"
       y="1584.5154"
       x="1955.4856"
       style="font-style:normal;font-variant:normal;font-weight:normal;font-stretch:normal;font-size:12.52187252px;line-height:100%;font-family:'Nanum Pen Script OTF';-inkscape-font-specification:'Nanum Pen Script OTF';text-align:center;letter-spacing:0px;word-spacing:0px;text-anchor:middle;fill:#000000;fill-opacity:1;stroke:none;stroke-width:1.04348946"
       xml:space="preserve"><tspan
         id="tspan953"
         y="1593.6222"
         x="1955.4856"
         style="font-style:normal;font-variant:normal;font-weight:normal;font-stretch:normal;font-size:46.95702362px;line-height:100%;font-family:'Nanum Pen Script OTF';-inkscape-font-specification:'Nanum Pen Script OTF';stroke-width:1.04348946"
         sodipodi:role="line" /><tspan
         id="tspan957"
         y="1626.4646"
         x="1955.4856"
         style="font-style:normal;font-variant:normal;font-weight:normal;font-stretch:normal;font-size:40.46261215px;line-height:100%;font-family:'Nanum Pen Script OTF';-inkscape-font-specification:'Nanum Pen Script OTF';stroke-width:1.04348946"
         sodipodi:role="line">음... 당연히</tspan><tspan
         y="1666.9272"
         x="1955.4856"
         style="font-style:normal;font-variant:normal;font-weight:normal;font-stretch:normal;font-size:40.46261215px;line-height:100%;font-family:'Nanum Pen Script OTF';-inkscape-font-specification:'Nanum Pen Script OTF';stroke-width:1.04348946"
         sodipodi:role="line"
         id="tspan1154">못 할 거고...</tspan><tspan
         id="tspan959"
         y="1687.0693"
         x="1955.4856"
         style="font-style:normal;font-variant:normal;font-weight:normal;font-stretch:normal;font-size:40.46261215px;line-height:100%;font-family:'Nanum Pen Script OTF';-inkscape-font-specification:'Nanum Pen Script OTF';stroke-width:1.04348946"
         sodipodi:role="line" /></text>
    <text
       id="text969"
       y="1704.4001"
       x="1984.9065"
       style="font-style:normal;font-variant:normal;font-weight:normal;font-stretch:normal;font-size:15.22588348px;line-height:100%;font-family:'Nanum Pen Script OTF';-inkscape-font-specification:'Nanum Pen Script OTF';text-align:center;letter-spacing:0px;word-spacing:0px;text-anchor:middle;fill:#000000;fill-opacity:1;stroke:none;stroke-width:1.26882362"
       xml:space="preserve"><tspan
         id="tspan963"
         y="1715.4735"
         x="1984.9065"
         style="font-style:normal;font-variant:normal;font-weight:normal;font-stretch:normal;font-size:57.09706116px;line-height:100%;font-family:'Nanum Pen Script OTF';-inkscape-font-specification:'Nanum Pen Script OTF';stroke-width:1.26882362"
         sodipodi:role="line" /><tspan
         id="tspan965"
         y="1747.7933"
         x="1984.9065"
         style="font-style:normal;font-variant:normal;font-weight:normal;font-stretch:normal;font-size:38.72998047px;line-height:100%;font-family:'Nanum Pen Script OTF';-inkscape-font-specification:'Nanum Pen Script OTF';stroke-width:1.26882362"
         sodipodi:role="line">으어...</tspan><tspan
         id="tspan967"
         y="1769.4293"
         x="1984.9065"
         style="font-style:normal;font-variant:normal;font-weight:normal;font-stretch:normal;font-size:57.09706116px;line-height:100%;font-family:'Nanum Pen Script OTF';-inkscape-font-specification:'Nanum Pen Script OTF';stroke-width:1.26882362"
         sodipodi:role="line" /></text>
    <text
       id="text983"
       y="3108.9634"
       x="1036.3169"
       style="font-style:normal;font-variant:normal;font-weight:normal;font-stretch:normal;font-size:16.73648071px;line-height:100%;font-family:'Nanum Pen Script OTF';-inkscape-font-specification:'Nanum Pen Script OTF';text-align:center;letter-spacing:0px;word-spacing:0px;text-anchor:middle;fill:#000000;fill-opacity:1;stroke:#000000;stroke-width:1.39470673;stroke-opacity:1;"
       xml:space="preserve"><tspan
         id="tspan979"
         y="3121.1353"
         x="1036.3169"
         style="font-style:normal;font-variant:normal;font-weight:normal;font-stretch:normal;font-size:74.38435364px;line-height:100%;font-family:'Nanum Pen Script OTF';-inkscape-font-specification:'Nanum Pen Script OTF';stroke-width:1.39470673;stroke:#000000;stroke-opacity:1;"
         sodipodi:role="line" /><tspan
         y="3179.7976"
         x="1036.3169"
         style="font-style:normal;font-variant:normal;font-weight:normal;font-stretch:normal;font-size:74.38435364px;line-height:100%;font-family:'Nanum Pen Script OTF';-inkscape-font-specification:'Nanum Pen Script OTF';stroke-width:1.39470673;stroke:#000000;stroke-opacity:1;"
         sodipodi:role="line"
         id="tspan1174">으으으!!!</tspan><tspan
         id="tspan981"
         y="3212.2561"
         x="1036.3169"
         style="font-style:normal;font-variant:normal;font-weight:normal;font-stretch:normal;font-size:74.38435364px;line-height:100%;font-family:'Nanum Pen Script OTF';-inkscape-font-specification:'Nanum Pen Script OTF';stroke-width:1.39470673;stroke:#000000;stroke-opacity:1;"
         sodipodi:role="line" /></text>
    <text
       id="text993"
       y="2748.5283"
       x="1024.0109"
       style="font-style:normal;font-variant:normal;font-weight:normal;font-stretch:normal;font-size:14.54130268px;line-height:100%;font-family:'Nanum Pen Script OTF';-inkscape-font-specification:'Nanum Pen Script OTF';text-align:center;letter-spacing:0px;word-spacing:0px;text-anchor:middle;fill:#000000;fill-opacity:1;stroke:#000000;stroke-width:1.46624797;stroke-opacity:1;"
       xml:space="preserve"><tspan
         id="tspan989"
         y="2759.1038"
         x="1024.0109"
         style="font-style:normal;font-variant:normal;font-weight:normal;font-stretch:normal;font-size:56.54950714px;line-height:100%;font-family:'Nanum Pen Script OTF';-inkscape-font-specification:'Nanum Pen Script OTF';stroke-width:1.46624797;stroke:#000000;stroke-opacity:1;"
         sodipodi:role="line" /><tspan
         y="2804.1965"
         x="1024.0109"
         style="font-style:normal;font-variant:normal;font-weight:normal;font-stretch:normal;font-size:56.54950714px;line-height:100%;font-family:'Nanum Pen Script OTF';-inkscape-font-specification:'Nanum Pen Script OTF';stroke-width:1.46624797;stroke:#000000;stroke-opacity:1;"
         sodipodi:role="line"
         id="tspan1160">내 이럴 줄</tspan><tspan
         y="2860.7461"
         x="1024.0109"
         style="font-style:normal;font-variant:normal;font-weight:normal;font-stretch:normal;font-size:56.54950714px;line-height:100%;font-family:'Nanum Pen Script OTF';-inkscape-font-specification:'Nanum Pen Script OTF';stroke-width:1.46624797;stroke:#000000;stroke-opacity:1;"
         sodipodi:role="line"
         id="tspan1162">알았어!!!</tspan><tspan
         id="tspan991"
         y="2886.7441"
         x="1024.0109"
         style="font-style:normal;font-variant:normal;font-weight:normal;font-stretch:normal;font-size:56.54950714px;line-height:100%;font-family:'Nanum Pen Script OTF';-inkscape-font-specification:'Nanum Pen Script OTF';stroke-width:1.46624797;stroke:#000000;stroke-opacity:1;"
         sodipodi:role="line" /></text>
    <text
       id="text1005"
       y="2901.1814"
       x="1046.7388"
       style="font-style:normal;font-variant:normal;font-weight:normal;font-stretch:normal;font-size:15.40543365px;line-height:100%;font-family:'Nanum Pen Script OTF';-inkscape-font-specification:'Nanum Pen Script OTF';text-align:center;letter-spacing:0px;word-spacing:0px;text-anchor:middle;fill:#000000;fill-opacity:1;stroke:none;stroke-width:1.28378606"
       xml:space="preserve"><tspan
         id="tspan995"
         y="2912.3853"
         x="1046.7388"
         style="font-style:normal;font-variant:normal;font-weight:normal;font-stretch:normal;font-size:57.7703743px;line-height:100%;font-family:'Nanum Pen Script OTF';-inkscape-font-specification:'Nanum Pen Script OTF';stroke-width:1.28378606"
         sodipodi:role="line" /><tspan
         id="tspan1001"
         y="2958.6016"
         x="1046.7388"
         style="font-style:normal;font-variant:normal;font-weight:normal;font-stretch:normal;font-size:57.7703743px;line-height:100%;font-family:'Nanum Pen Script OTF';-inkscape-font-specification:'Nanum Pen Script OTF';stroke-width:1.28378606"
         sodipodi:role="line">어쩐지 너무</tspan><tspan
         y="3016.3721"
         x="1046.7388"
         style="font-style:normal;font-variant:normal;font-weight:normal;font-stretch:normal;font-size:57.7703743px;line-height:100%;font-family:'Nanum Pen Script OTF';-inkscape-font-specification:'Nanum Pen Script OTF';stroke-width:1.28378606"
         sodipodi:role="line"
         id="tspan1168">잘 돼 있다</tspan><tspan
         y="3074.1423"
         x="1046.7388"
         style="font-style:normal;font-variant:normal;font-weight:normal;font-stretch:normal;font-size:57.7703743px;line-height:100%;font-family:'Nanum Pen Script OTF';-inkscape-font-specification:'Nanum Pen Script OTF';stroke-width:1.28378606"
         sodipodi:role="line"
         id="tspan1170">했는데!</tspan><tspan
         id="tspan1003"
         y="3101.1018"
         x="1046.7388"
         style="font-style:normal;font-variant:normal;font-weight:normal;font-stretch:normal;font-size:57.7703743px;line-height:100%;font-family:'Nanum Pen Script OTF';-inkscape-font-specification:'Nanum Pen Script OTF';stroke-width:1.28378606"
         sodipodi:role="line" /></text>
    <text
       id="text1017"
       y="2133.0188"
       x="2106.9827"
       style="font-style:normal;font-variant:normal;font-weight:normal;font-stretch:normal;font-size:15.14423847px;line-height:100%;font-family:'Nanum Pen Script OTF';-inkscape-font-specification:'Nanum Pen Script OTF';text-align:center;letter-spacing:0px;word-spacing:0px;text-anchor:middle;fill:#000000;fill-opacity:1;stroke:none;stroke-width:1.26201987"
       xml:space="preserve"><tspan
         id="tspan1007"
         y="2144.0327"
         x="2106.9827"
         style="font-style:normal;font-variant:normal;font-weight:normal;font-stretch:normal;font-size:56.79089355px;line-height:100%;font-family:'Nanum Pen Script OTF';-inkscape-font-specification:'Nanum Pen Script OTF';stroke-width:1.26201987"
         sodipodi:role="line" /><tspan
         id="tspan1013"
         y="2189.4656"
         x="2106.9827"
         style="font-style:normal;font-variant:normal;font-weight:normal;font-stretch:normal;font-size:56.79089355px;line-height:100%;font-family:'Nanum Pen Script OTF';-inkscape-font-specification:'Nanum Pen Script OTF';stroke-width:1.26201987"
         sodipodi:role="line">책이라도 모든 상황을</tspan><tspan
         y="2246.2563"
         x="2106.9827"
         style="font-style:normal;font-variant:normal;font-weight:normal;font-stretch:normal;font-size:56.79089355px;line-height:100%;font-family:'Nanum Pen Script OTF';-inkscape-font-specification:'Nanum Pen Script OTF';stroke-width:1.26201987"
         sodipodi:role="line"
         id="tspan1180">해결할 수 있는 건</tspan><tspan
         y="2303.0474"
         x="2106.9827"
         style="font-style:normal;font-variant:normal;font-weight:normal;font-stretch:normal;font-size:56.79089355px;line-height:100%;font-family:'Nanum Pen Script OTF';-inkscape-font-specification:'Nanum Pen Script OTF';stroke-width:1.26201987"
         sodipodi:role="line"
         id="tspan1182">아닌가 봐...</tspan><tspan
         id="tspan1015"
         y="2329.5498"
         x="2106.9827"
         style="font-style:normal;font-variant:normal;font-weight:normal;font-stretch:normal;font-size:56.79089355px;line-height:100%;font-family:'Nanum Pen Script OTF';-inkscape-font-specification:'Nanum Pen Script OTF';stroke-width:1.26201987"
         sodipodi:role="line" /></text>
    <text
       transform="matrix(0.79338838,0.2929682,-0.69069394,1.0053697,0,0)"
       id="text1023"
       y="2075.3066"
       x="4269.5962"
       style="color:#000000;font-style:normal;font-variant:normal;font-weight:normal;font-stretch:normal;font-size:13.03422451px;line-height:100%;font-family:'Nanum Pen Script OTF';-inkscape-font-specification:'Nanum Pen Script OTF';letter-spacing:1.05118287px;word-spacing:0px;display:inline;overflow:visible;visibility:visible;fill:#e69d76;fill-opacity:1;fill-rule:nonzero;stroke:#e99f77;stroke-width:2.38308263;stroke-miterlimit:4;stroke-dasharray:none;stroke-opacity:1;marker:none;enable-background:accumulate"
       xml:space="preserve"><tspan
         style="font-style:normal;font-variant:normal;font-weight:normal;font-stretch:normal;line-height:100%;font-family:'Nanum Pen Script OTF';-inkscape-font-specification:'Nanum Pen Script OTF';letter-spacing:2.82069778px;word-spacing:0px;fill:#ffffff;fill-opacity:1;stroke:#ffffff;stroke-width:2.38308263;stroke-miterlimit:4;stroke-dasharray:none;stroke-opacity:1"
         id="tspan1021"
         y="2075.3066"
         x="4271.0063"
         sodipodi:role="line"><tspan
           id="tspan1019"
           style="color:#000000;font-style:normal;font-variant:normal;font-weight:normal;font-stretch:normal;font-size:69.51587677px;line-height:100%;font-family:'Nanum Pen Script OTF';-inkscape-font-specification:'Nanum Pen Script OTF';text-align:center;letter-spacing:2.82069778px;word-spacing:0px;text-anchor:middle;display:inline;overflow:visible;visibility:visible;fill:#ffffff;fill-opacity:1;fill-rule:nonzero;stroke:#ffffff;stroke-width:2.38308263;stroke-miterlimit:4;stroke-dasharray:none;stroke-opacity:1;marker:none;enable-background:accumulate"
           y="2075.3066"
           x="4269.5962">툭!</tspan></tspan></text>
    <text
       id="text911-2"
       y="576.18237"
       x="170.2303"
       style="font-style:normal;font-variant:normal;font-weight:normal;font-stretch:normal;font-size:20.54725075px;line-height:100%;font-family:'Nanum Pen Script OTF';-inkscape-font-specification:'Nanum Pen Script OTF';text-align:center;letter-spacing:0px;word-spacing:0px;text-anchor:middle;fill:#000000;fill-opacity:1;stroke:#ffffff;stroke-width:2.25624204;stroke-opacity:1"
       xml:space="preserve"
       transform="skewY(23.074773)"><tspan
         id="tspan909-2"
         y="576.18237"
         x="170.2303"
         style="font-style:normal;font-variant:normal;font-weight:normal;font-stretch:normal;font-size:77.05218506px;line-height:100%;font-family:'Nanum Pen Script OTF';-inkscape-font-specification:'Nanum Pen Script OTF';fill:#ffffff;fill-opacity:1;stroke:#ffffff;stroke-width:2.25624204;stroke-opacity:1"
         sodipodi:role="line">슈</tspan><tspan
         y="653.23456"
         x="170.2303"
         style="font-style:normal;font-variant:normal;font-weight:normal;font-stretch:normal;font-size:77.05218506px;line-height:100%;font-family:'Nanum Pen Script OTF';-inkscape-font-specification:'Nanum Pen Script OTF';fill:#ffffff;fill-opacity:1;stroke:#ffffff;stroke-width:2.25624204;stroke-opacity:1"
         sodipodi:role="line"
         id="tspan1077">구</tspan><tspan
         y="730.28674"
         x="170.2303"
         style="font-style:normal;font-variant:normal;font-weight:normal;font-stretch:normal;font-size:77.05218506px;line-height:100%;font-family:'Nanum Pen Script OTF';-inkscape-font-specification:'Nanum Pen Script OTF';fill:#ffffff;fill-opacity:1;stroke:#ffffff;stroke-width:2.25624204;stroke-opacity:1"
         sodipodi:role="line"
         id="tspan1079">궁</tspan><tspan
         y="807.33893"
         x="170.2303"
         style="font-style:normal;font-variant:normal;font-weight:normal;font-stretch:normal;font-size:77.05218506px;line-height:100%;font-family:'Nanum Pen Script OTF';-inkscape-font-specification:'Nanum Pen Script OTF';fill:#ffffff;fill-opacity:1;stroke:#ffffff;stroke-width:2.25624204;stroke-opacity:1"
         sodipodi:role="line"
         id="tspan1081">!</tspan></text>
    <text
       id="text911-2-1"
       y="-600.09106"
       x="1817.5341"
       style="font-style:normal;font-variant:normal;font-weight:normal;font-stretch:normal;font-size:20.3166008px;line-height:100%;font-family:'Nanum Pen Script OTF';-inkscape-font-specification:'Nanum Pen Script OTF';text-align:center;letter-spacing:0px;word-spacing:0px;text-anchor:middle;fill:#000000;fill-opacity:1;stroke:#ffffff;stroke-width:2.23091507;stroke-opacity:1"
       xml:space="preserve"
       transform="skewY(23.074773)"><tspan
         y="-600.09106"
         x="1817.5341"
         style="font-style:normal;font-variant:normal;font-weight:normal;font-stretch:normal;font-size:76.18724823px;line-height:100%;font-family:'Nanum Pen Script OTF';-inkscape-font-specification:'Nanum Pen Script OTF';fill:#ffffff;fill-opacity:1;stroke:#ffffff;stroke-width:2.23091507;stroke-opacity:1"
         sodipodi:role="line"
         id="tspan1079-9">슈</tspan><tspan
         y="-523.90381"
         x="1817.5341"
         style="font-style:normal;font-variant:normal;font-weight:normal;font-stretch:normal;font-size:76.18724823px;line-height:100%;font-family:'Nanum Pen Script OTF';-inkscape-font-specification:'Nanum Pen Script OTF';fill:#ffffff;fill-opacity:1;stroke:#ffffff;stroke-width:2.23091507;stroke-opacity:1"
         sodipodi:role="line"
         id="tspan1126">욱</tspan><tspan
         y="-447.71655"
         x="1817.5341"
         style="font-style:normal;font-variant:normal;font-weight:normal;font-stretch:normal;font-size:76.18724823px;line-height:100%;font-family:'Nanum Pen Script OTF';-inkscape-font-specification:'Nanum Pen Script OTF';fill:#ffffff;fill-opacity:1;stroke:#ffffff;stroke-width:2.23091507;stroke-opacity:1"
         sodipodi:role="line"
         id="tspan1081-1">!</tspan></text>
  </g>
</svg>
