<?xml version="1.0" encoding="UTF-8" standalone="no"?>
<!-- Created with Inkscape (http://www.inkscape.org/) -->

<svg
   xmlns:dc="http://purl.org/dc/elements/1.1/"
   xmlns:cc="http://creativecommons.org/ns#"
   xmlns:rdf="http://www.w3.org/1999/02/22-rdf-syntax-ns#"
   xmlns:svg="http://www.w3.org/2000/svg"
   xmlns="http://www.w3.org/2000/svg"
   xmlns:xlink="http://www.w3.org/1999/xlink"
   xmlns:sodipodi="http://sodipodi.sourceforge.net/DTD/sodipodi-0.dtd"
   xmlns:inkscape="http://www.inkscape.org/namespaces/inkscape"
   id="svg2"
   version="1.1"
   inkscape:version="0.91 r13725"
   width="2481"
   height="3503"
   sodipodi:docname="E26P01.svg">
  <metadata
     id="metadata8">
    <rdf:RDF>
      <cc:Work
         rdf:about="">
        <dc:format>image/svg+xml</dc:format>
        <dc:type
           rdf:resource="http://purl.org/dc/dcmitype/StillImage" />
        <dc:title />
      </cc:Work>
    </rdf:RDF>
  </metadata>
  <defs
     id="defs6" />
  <sodipodi:namedview
     pagecolor="#ffffff"
     bordercolor="#666666"
     borderopacity="1"
     objecttolerance="10"
     gridtolerance="10"
     guidetolerance="10"
     inkscape:pageopacity="0"
     inkscape:pageshadow="2"
     inkscape:window-width="1438"
     inkscape:window-height="836"
     id="namedview4"
     showgrid="false"
     inkscape:zoom="0.34586209"
     inkscape:cx="1599.0283"
     inkscape:cy="1214.6548"
     inkscape:window-x="0"
     inkscape:window-y="0"
     inkscape:window-maximized="0"
     inkscape:current-layer="layer1"
     inkscape:snap-global="false" />
  <g
     inkscape:groupmode="layer"
     id="layer2"
     inkscape:label="artwork"
     sodipodi:insensitive="true">
    <image
       sodipodi:absref="/home/jorge/Quellcode/webcomics/ep26_Books-Are-Great/lang/eo/../gfx_Pepper-and-Carrot_by-David-Revoy_E26P01.png"
       xlink:href="../gfx_Pepper-and-Carrot_by-David-Revoy_E26P01.png"
       width="2481"
       height="3503"
       id="image10"
       x="0"
       y="0" />
  </g>
  <g
     inkscape:groupmode="layer"
     id="layer3"
     inkscape:label="speechbubbles"
     style="display:inline;opacity:1">
    <path
       style="fill:#ffffff;fill-opacity:1;stroke:none;stroke-width:1.33979297"
       d="m 261.91033,1886.1776 c -70.25404,0.4163 -103.28886,-10.1327 -119.80262,-19.4702 -27.40102,-15.4936 -32.75993,-108.6848 22.45255,-127.2534 55.50305,-18.6663 163.74161,-14.5153 208.1649,21.3805 44.42312,35.8958 12.74043,83.1585 2.52612,92.8715 -10.21448,9.7129 -37.3362,32.099 -113.34095,32.4716 z"
       id="path3659-8"
       inkscape:connector-curvature="0"
       sodipodi:nodetypes="cssssc" />
    <path
       style="color:#000000;display:inline;overflow:visible;visibility:visible;fill:#ffffff;fill-opacity:1;fill-rule:nonzero;stroke:none;stroke-width:0.77001458px;marker:none;enable-background:accumulate"
       d="m 274.67689,1855.3732 c 11.17842,15.8247 25.32183,43.4204 25.79652,49.4209 -6.73911,-0.5556 -13.09406,0.387 -18.03883,1.0204 1.81058,10.7946 32.21158,51.6223 41.64451,56.3046 -23.83945,-10.0592 -58.27989,-45.5693 -59.88737,-63.8703 6.68489,-2.1454 10.75049,-2.4727 14.26692,-3.6967 -0.36416,-9.3034 -20.80365,-30.8908 -20.80365,-30.8908 z"
       id="path5066"
       inkscape:connector-curvature="0"
       sodipodi:nodetypes="cccccccc" />
    <path
       style="color:#000000;display:inline;overflow:visible;visibility:visible;fill:#ffffff;fill-opacity:1;fill-rule:nonzero;stroke:none;stroke-width:1.12914014px;marker:none;enable-background:accumulate"
       d="m 1769.4196,1959.3191 c -40.2549,-49.7059 -38.839,-154.5338 -27.3374,-176.9014 17.9863,-41.8224 61.0791,-49.2864 115.7109,-49.2864 54.6317,0 442.4098,-25.3961 498.4792,26.7951 56.0693,52.1912 38.4195,149.3892 -10.4615,210.2788 -48.8811,60.8897 -320.2658,48.4632 -320.2658,48.4632 0,0 -194.3052,4.0256 -256.1254,-59.3493 z"
       id="path3992"
       inkscape:connector-curvature="0"
       sodipodi:nodetypes="ccscccc" />
    <path
       style="color:#000000;display:inline;overflow:visible;visibility:visible;fill:#ffffff;fill-opacity:1;fill-rule:nonzero;stroke:none;stroke-width:1px;marker:none;enable-background:accumulate"
       d="m 1984.9695,2224.8076 c 97.5172,-13.4683 140.8945,-73.5032 173.5649,-113.8088 15.274,-18.8437 -32.2063,-50.3843 -32.2063,-50.3843 l -20.4844,64.3961 c 4.4776,5.3732 -31.2523,71.0033 -120.8742,99.797 z"
       id="path4000"
       inkscape:connector-curvature="0"
       sodipodi:nodetypes="csccc" />
    <path
       style="color:#000000;display:inline;overflow:visible;visibility:visible;fill:#ffffff;fill-opacity:1;fill-rule:nonzero;stroke:none;stroke-width:0.83059144px;marker:none;enable-background:accumulate"
       d="m 1986.9871,2045.8133 c 16.1003,-23.0063 28.0556,-67.3113 146.6344,-51.7323 63.5172,8.3448 135.7326,7.6994 128.2439,88.2216 -7.4887,80.5222 -112.6372,70.1622 -134.1673,71.1095 -21.53,0.9474 -123.0936,0.012 -141.7025,-28.3054 -11.6488,-17.7262 -15.0761,-57.9183 0.9915,-79.2934 z"
       id="path4546-6"
       inkscape:connector-curvature="0"
       sodipodi:nodetypes="cssssc" />
    <path
       style="color:#000000;display:inline;overflow:visible;visibility:visible;opacity:1;vector-effect:none;fill:#ffffff;fill-opacity:1;fill-rule:nonzero;stroke:none;stroke-width:1.09742534;stroke-linecap:butt;stroke-linejoin:miter;stroke-miterlimit:4;stroke-dasharray:none;stroke-dashoffset:0;stroke-opacity:1;marker:none;paint-order:stroke fill markers;enable-background:accumulate"
       d="m 892.15013,2690.5487 c -38.71503,-50.7299 -34.56706,-149.6531 -23.50553,-172.4815 -6.48685,-34.1094 17.8463,-62.4869 78.81276,-57.0711 52.33566,4.6491 428.44094,-29.6046 482.36544,23.6617 53.9243,53.2664 51.6137,156.328 4.6026,218.4721 -47.0112,62.1442 -308.6025,44.4898 -308.6025,44.4898 -0.247,0.3529 -182.98149,20.1295 -233.67277,-57.071 z"
       id="path3992-0"
       inkscape:connector-curvature="0"
       sodipodi:nodetypes="ccscscc" />
    <path
       style="color:#000000;display:inline;overflow:visible;visibility:visible;fill:#ffffff;fill-opacity:1;fill-rule:nonzero;stroke:none;stroke-width:1.1471467px;marker:none;enable-background:accumulate"
       d="m 1107.7917,2663.674 c -41.0805,41.3971 -74.3212,126.4523 -32.6058,262.3106 -64.481,-107.4324 -40.7404,-218.5665 -31.5488,-251.0486 9.1915,-32.4819 64.1546,-11.262 64.1546,-11.262 z"
       id="path4008"
       inkscape:connector-curvature="0" />
    <path
       style="color:#000000;display:inline;overflow:visible;visibility:visible;fill:#ffffff;fill-opacity:1;fill-rule:nonzero;stroke:none;stroke-width:1.1471467px;marker:none;enable-background:accumulate"
       d="m 1891.9827,2656.832 c -40.4116,58.3597 -53.3089,167.7072 24.2468,263.2149 -108.4132,-99.3198 -82.2954,-214.0613 -72.6196,-244.9782 2.0322,-33.6961 48.3728,-18.2367 48.3728,-18.2367 z"
       id="path4008-0"
       inkscape:connector-curvature="0"
       sodipodi:nodetypes="cccc" />
    <path
       style="color:#000000;display:inline;overflow:visible;visibility:visible;opacity:1;fill:#ffffff;fill-opacity:1;fill-rule:nonzero;stroke:none;stroke-width:1.3938657px;marker:none;enable-background:accumulate"
       d="m 1845.3514,2744.4158 c -85.6293,-11.4249 -99.8946,-33.2233 -120.3181,-85.7917 -20.4236,-52.5684 17.7873,-199.8538 35.6615,-211.8218 11.3819,-4.5693 198.495,-1.6759 272.5373,10.4072 74.0423,12.0833 107.6533,4.1407 131.9719,86.3811 21.0739,71.2666 -25.7194,178.7306 -123.6327,195.4587 -97.9134,16.7282 -196.2199,5.3665 -196.2199,5.3665 z"
       id="path3970"
       inkscape:connector-curvature="0"
       sodipodi:nodetypes="csccssc" />
  </g>
  <g
     inkscape:groupmode="layer"
     id="layer1"
     inkscape:label="txt">
    <text
       xml:space="preserve"
       style="font-style:normal;font-variant:normal;font-weight:normal;font-stretch:normal;line-height:0%;font-family:Lavi;-inkscape-font-specification:Lavi;text-align:center;letter-spacing:0px;word-spacing:0px;text-anchor:middle;fill:#000000;fill-opacity:1;stroke:none"
       x="257.67841"
       y="1799.1"
       id="text4246"
       sodipodi:linespacing="0%"><tspan
         sodipodi:role="line"
         style="font-size:45px;line-height:1.25"
         x="264.84149"
         y="1799.1"
         id="tspan825">Libroj estas </tspan><tspan
         sodipodi:role="line"
         style="font-size:45px;line-height:1.25"
         x="257.67841"
         y="1855.35"
         id="tspan3369">bonegaj!</tspan></text>
    <text
       xml:space="preserve"
       style="font-style:normal;font-variant:normal;font-weight:normal;font-stretch:normal;line-height:0%;font-family:Lavi;-inkscape-font-specification:Lavi;text-align:center;letter-spacing:0px;word-spacing:0px;text-anchor:middle;fill:#000000;fill-opacity:1;stroke:none"
       x="2116.688"
       y="2064.3848"
       id="text4246-3-5-9"
       sodipodi:linespacing="0%"><tspan
         sodipodi:role="line"
         style="font-size:40px;line-height:1.25"
         x="2116.688"
         y="2064.3848"
         id="tspan927-2">Tio estas</tspan><tspan
         sodipodi:role="line"
         style="font-size:40px;line-height:1.25"
         x="2116.688"
         y="2120.6348"
         id="tspan958">inda kiel oro!</tspan></text>
    <text
       xml:space="preserve"
       style="font-style:normal;font-variant:normal;font-weight:normal;font-stretch:normal;line-height:0%;font-family:Lavi;-inkscape-font-specification:Lavi;text-align:center;letter-spacing:0px;word-spacing:0px;text-anchor:middle;fill:#000000;fill-opacity:1;stroke:none"
       x="2064.4888"
       y="1804.0963"
       id="text4246-3-3"
       sodipodi:linespacing="0%"><tspan
         sodipodi:role="line"
         style="font-size:45px;line-height:1.25"
         x="2071.6519"
         y="1804.0963"
         id="tspan3417">Ĉi tiu rara libro enhavas la </tspan><tspan
         sodipodi:role="line"
         style="font-size:45px;line-height:1.25"
         x="2064.4888"
         y="1860.3463"
         id="tspan3415">notojn el scipova aventurulo,</tspan><tspan
         sodipodi:role="line"
         style="font-size:45px;line-height:1.25"
         x="2064.4888"
         y="1916.5963"
         id="tspan3399">kaj priskribas ĉion pri</tspan><tspan
         sodipodi:role="line"
         style="font-size:45px;line-height:1.25"
         x="2064.4888"
         y="1972.8463"
         id="tspan1107">tiu ĉi malliberejo.</tspan></text>
    <text
       xml:space="preserve"
       style="font-style:normal;font-variant:normal;font-weight:normal;font-stretch:normal;line-height:0%;font-family:Lavi;-inkscape-font-specification:Lavi;text-align:center;letter-spacing:0px;word-spacing:0px;text-anchor:middle;fill:#000000;fill-opacity:1;stroke:none"
       x="1169.5636"
       y="2524.3982"
       id="text4246-3-3-1"
       sodipodi:linespacing="0%"><tspan
         sodipodi:role="line"
         style="font-size:40px;line-height:1.25"
         x="1175.9308"
         y="2524.3982"
         id="tspan1149">Ekzemple: ĉi tiu malbona </tspan><tspan
         sodipodi:role="line"
         style="font-size:40px;line-height:1.25"
         x="1175.9308"
         y="2574.3982"
         id="tspan1153">okulo en la fronta pordo </tspan><tspan
         sodipodi:role="line"
         style="font-size:40px;line-height:1.25"
         x="1175.9308"
         y="2624.3982"
         id="tspan1157">pafas mortigajn fajrabulojn </tspan><tspan
         sodipodi:role="line"
         style="font-size:40px;line-height:1.25"
         x="1175.9308"
         y="2674.3982"
         id="tspan1244">por deturni nerajtigitajn </tspan><tspan
         sodipodi:role="line"
         style="font-size:40px;line-height:1.25"
         x="1169.5636"
         y="2724.3982"
         id="tspan3463">vizitantojn.</tspan></text>
    <text
       xml:space="preserve"
       style="font-style:normal;font-variant:normal;font-weight:normal;font-stretch:normal;line-height:0%;font-family:Lavi;-inkscape-font-specification:Lavi;text-align:center;letter-spacing:0px;word-spacing:0px;text-anchor:middle;fill:#000000;fill-opacity:1;stroke:none"
       x="1943.1216"
       y="2538.2783"
       id="text4246-3-3-1-2"
       sodipodi:linespacing="0%"><tspan
         sodipodi:role="line"
         style="font-size:45px;line-height:1.25"
         x="1943.1216"
         y="2538.2783"
         id="tspan1222">Sed se vi zorge</tspan><tspan
         sodipodi:role="line"
         style="font-size:45px;line-height:1.25"
         x="1943.1216"
         y="2594.5283"
         id="tspan1226">alproksimiĝas al ĝi</tspan><tspan
         sodipodi:role="line"
         style="font-size:45px;line-height:1.25"
         x="1950.2847"
         y="2650.7783"
         id="tspan41">el la flanko, ekster </tspan><tspan
         sodipodi:role="line"
         style="font-size:45px;line-height:1.25"
         x="1943.1216"
         y="2707.0283"
         id="tspan3449">rigardo...</tspan><tspan
         sodipodi:role="line"
         style="font-size:45px;line-height:1.25"
         x="1943.1216"
         y="2763.2783"
         id="tspan1230" /></text>
    <flowRoot
       xml:space="preserve"
       id="flowRoot3371"
       style="fill:black;stroke:none;stroke-opacity:1;stroke-width:1px;stroke-linejoin:miter;stroke-linecap:butt;fill-opacity:1;font-family:sans-serif;font-style:normal;font-weight:normal;font-size:40px;line-height:125%;letter-spacing:0px;word-spacing:0px"><flowRegion
         id="flowRegion3373"><rect
           id="rect3375"
           width="16.355808"
           height="61.334282"
           x="265.78189"
           y="1759.0619" /></flowRegion><flowPara
         id="flowPara3377" /></flowRoot>    <flowRoot
       xml:space="preserve"
       id="flowRoot3379"
       style="fill:black;stroke:none;stroke-opacity:1;stroke-width:1px;stroke-linejoin:miter;stroke-linecap:butt;fill-opacity:1;font-family:sans-serif;font-style:normal;font-weight:normal;font-size:40px;line-height:125%;letter-spacing:0px;word-spacing:0px"><flowRegion
         id="flowRegion3381"><rect
           id="rect3383"
           width="40.889523"
           height="49.067425"
           x="269.87085"
           y="1804.0404" /></flowRegion><flowPara
         id="flowPara3385" /></flowRoot>    <flowRoot
       xml:space="preserve"
       id="flowRoot3439"
       style="fill:black;stroke:none;stroke-opacity:1;stroke-width:1px;stroke-linejoin:miter;stroke-linecap:butt;fill-opacity:1;font-family:sans-serif;font-style:normal;font-weight:normal;font-size:40px;line-height:125%;letter-spacing:0px;word-spacing:0px"><flowRegion
         id="flowRegion3441"><rect
           id="rect3443"
           width="547.91962"
           height="157.42467"
           x="885.25818"
           y="2540.0518" /></flowRegion><flowPara
         id="flowPara3445" /></flowRoot>  </g>
</svg>
