<?xml version="1.0" encoding="UTF-8" standalone="no"?>
<!-- Created with Inkscape (http://www.inkscape.org/) -->

<svg
   xmlns:dc="http://purl.org/dc/elements/1.1/"
   xmlns:cc="http://creativecommons.org/ns#"
   xmlns:rdf="http://www.w3.org/1999/02/22-rdf-syntax-ns#"
   xmlns:svg="http://www.w3.org/2000/svg"
   xmlns="http://www.w3.org/2000/svg"
   xmlns:xlink="http://www.w3.org/1999/xlink"
   xmlns:sodipodi="http://sodipodi.sourceforge.net/DTD/sodipodi-0.dtd"
   xmlns:inkscape="http://www.inkscape.org/namespaces/inkscape"
   id="svg2"
   version="1.1"
   inkscape:version="0.92.2 2405546, 2018-03-11"
   width="2481"
   height="3503"
   sodipodi:docname="E16P02.svg">
  <metadata
     id="metadata8">
    <rdf:RDF>
      <cc:Work
         rdf:about="">
        <dc:format>image/svg+xml</dc:format>
        <dc:type
           rdf:resource="http://purl.org/dc/dcmitype/StillImage" />
        <dc:title />
      </cc:Work>
    </rdf:RDF>
  </metadata>
  <defs
     id="defs6" />
  <sodipodi:namedview
     pagecolor="#ffffff"
     bordercolor="#666666"
     borderopacity="1"
     objecttolerance="10"
     gridtolerance="10"
     guidetolerance="10"
     inkscape:pageopacity="0"
     inkscape:pageshadow="2"
     inkscape:window-width="950"
     inkscape:window-height="1006"
     id="namedview4"
     showgrid="false"
     inkscape:zoom="0.46"
     inkscape:cx="1392.701"
     inkscape:cy="1824.3625"
     inkscape:window-x="960"
     inkscape:window-y="41"
     inkscape:window-maximized="0"
     inkscape:current-layer="layer1" />
  <g
     inkscape:groupmode="layer"
     id="layer2"
     inkscape:label="artwork"
     sodipodi:insensitive="true">
    <image
       sodipodi:absref="/home/nightlock/peppercarrot/webcomics/ep16_The-Sage-of-the-Mountain/lang/kr/../gfx_Pepper-and-Carrot_by-David-Revoy_E16P02.png"
       xlink:href="../gfx_Pepper-and-Carrot_by-David-Revoy_E16P02.png"
       y="0"
       x="0"
       id="image10"
       height="3503"
       width="2481" />
  </g>
  <g
     inkscape:groupmode="layer"
     id="layer3"
     inkscape:label="speechbubbles">
    <path
       style="fill:#ffffff;fill-rule:evenodd;stroke:none;stroke-width:1px;stroke-linecap:butt;stroke-linejoin:miter;stroke-opacity:1"
       d="m 159.47183,1204.4941 c 8.4673,-30.5523 31.2689,-53.7332 56.0849,-69.2079 11.8098,-7.471 25.3086,-12.9459 39.1219,-11.5058 13.7227,0.8605 27.1264,5.9979 41.0009,4.2135 16.871,-0.5894 34.0382,-3.1608 50.7155,0.5135 14.8255,4.0092 30.1,6.0856 45.3989,6.206 10.7929,-2.5448 20.6691,4.2379 30.3078,8.2947 8.6531,4.3821 17.4915,8.9796 24.7596,15.758 6.6961,9.5154 14.7138,17.7936 21.4881,27.2243 4.4326,5.1557 4.0067,12.2771 3.8025,18.8678 -0.5757,13.4964 -1.5506,27.2058 -5.1691,40.2084 -2.1654,8.2549 -10.1691,10.9868 -16.319,14.7801 -14.5516,8.0076 -30.0035,14.08 -43.8912,23.5033 -13.7587,4.8251 -28.3804,2.5682 -42.4906,1.839 -11.8234,-1.4363 -23.7171,-3.4392 -35.6421,-1.7689 -15.1777,1.2223 -30.3093,4.3872 -45.5413,3.9818 -19.0815,-2.7818 -37.3564,-9.6313 -55.848,-15.1258 -16.5903,-4.8429 -31.711,-13.9495 -46.2197,-23.6913 -7.75,-5.532 -15.9543,-11.9621 -18.6894,-22.1569 -2.2421,-7.02 -2.7704,-14.5367 -2.8697,-21.9338 z"
       id="path4365"
       inkscape:connector-curvature="0" />
    <path
       style="fill:#ffffff;stroke:none"
       d="m 526.05317,1332.6787 c -30.94804,-5.9742 -33.65755,-15.3739 -35.85896,-26.3529 -2.20164,-10.979 -2.97755,-21.2157 -9.14413,-25.0411 -6.16635,-3.8252 -15.85979,-4.8779 -23.17719,-4.6934 -7.31743,0.1844 -5.29357,-9.0401 -8.28411,-16.1281 -2.99067,-7.0881 -31.76642,-37.2963 -31.76642,-37.2963 0,0 -1.64154,31.4089 0.94371,41.0513 2.58502,9.6423 3.48097,13.1815 5.57556,16.7304 2.09482,3.5489 8.54676,11.5174 16.06913,13.2832 7.52237,1.7658 15.47204,-0.2404 21.46624,-0.192 5.99426,0.048 8.9236,8.3554 12.37845,16.2997 3.45476,7.9444 7.26292,13.1493 20.83234,18.6149 11.63149,4.6851 30.96538,3.7243 30.96538,3.7243 z"
       id="path3023-2"
       inkscape:connector-curvature="0"
       sodipodi:nodetypes="csssscssssssc" />
    <path
       style="color:#000000;display:inline;overflow:visible;visibility:visible;fill:#ffffff;fill-opacity:1;fill-rule:nonzero;stroke:none;stroke-width:0.91776329px;marker:none;enable-background:accumulate"
       d="m 1361.8627,1390.7278 c -48.0683,-47.6477 -86.7173,-164.5605 -72.9833,-186.0019 13.7338,-21.4414 39.3559,-29.6035 104.5917,-29.6035 65.2356,0 656.5869,-26.6326 723.5392,23.3974 66.9523,50.03 39.967,140.9867 -18.4017,199.355 -58.3687,58.3683 -446.6191,46.4565 -446.6191,46.4565 0,0 -216.3075,7.1471 -290.1268,-53.6035 z"
       id="path3992"
       inkscape:connector-curvature="0"
       sodipodi:nodetypes="csssscc" />
    <path
       style="fill:#ffffff;stroke:none;stroke-width:0.84991992"
       d="m 1807.268,1511.1983 c -1.8011,-38.2437 30.4901,-133.9831 188.0045,-126.7818 157.5146,7.2012 206.8141,49.2679 211.43,117.2462 7.302,107.5396 -75.5662,136.2779 -194.5575,144.2432 -122.6671,8.2116 -206.7808,-65.6073 -204.877,-134.7076 z"
       id="path3280-8"
       inkscape:connector-curvature="0"
       sodipodi:nodetypes="csssc" />
    <path
       style="color:#000000;display:inline;overflow:visible;visibility:visible;fill:#ffffff;fill-opacity:1;fill-rule:nonzero;stroke:none;stroke-width:1px;marker:none;enable-background:accumulate"
       d="m 1219.1793,1379.025 c 11.1145,-52.0341 49.4885,-48.0105 61.0024,-50.7043 11.5139,-2.6938 53.2465,-12.1003 59.6337,-55.0276 6.3873,-42.9274 50.5704,-62.6224 50.5704,-62.6224 l -8.1471,64.4127 c 0,0 -26.1867,43.4877 -51.8954,55.4317 -25.7088,11.9439 -66.72,11.6091 -78.3208,20.0382 -11.601,8.429 -26.2997,13.0823 -32.8432,28.4717 z"
       id="path4018"
       inkscape:connector-curvature="0" />
    <path
       style="color:#000000;display:inline;overflow:visible;visibility:visible;fill:#ffffff;fill-opacity:1;fill-rule:nonzero;stroke:none;stroke-width:0.96647686px;marker:none;enable-background:accumulate"
       d="M 196.43945,197.48784 C 201.09254,122.88885 245.74527,78.680011 461.84656,81.754231 640.47719,84.295391 727.82013,103.73769 719.55231,199.64957 708.07561,332.78635 556.984,310.59438 451.14022,318.43093 381.61542,316.65876 198.68083,333.49284 196.43945,197.48784 Z"
       id="path4546"
       inkscape:connector-curvature="0"
       sodipodi:nodetypes="csscc" />
    <path
       style="color:#000000;display:inline;overflow:visible;visibility:visible;fill:#ffffff;fill-opacity:1;fill-rule:nonzero;stroke:none;stroke-width:0.87639785px;marker:none;enable-background:accumulate"
       d="M 990.62343,418.22097 C 987.51266,518.04158 941.3202,596.88442 737.13081,591.73875 568.34668,587.48534 483.6841,544.21581 483.07109,415.31751 482.30624,254.49341 660.64791,275.47313 751.90446,275.43332 c 65.70595,2.70361 238.07817,-9.4207 238.71897,142.78765 z"
       id="path4546-3"
       inkscape:connector-curvature="0"
       sodipodi:nodetypes="csscc" />
    <path
       style="color:#000000;display:inline;overflow:visible;visibility:visible;fill:#ffffff;fill-opacity:1;fill-rule:nonzero;stroke:none;stroke-width:1.19391561px;marker:none;enable-background:accumulate"
       d="m 1212.2695,581.1681 c -89.5332,22.15011 -202.7093,0.84584 -255.79361,-45.99325 -53.08412,-46.83909 19.05863,-43.73484 19.05863,-43.73484 0,0 102.96198,109.21134 236.73498,89.72809 z"
       id="path5002"
       inkscape:connector-curvature="0"
       sodipodi:nodetypes="cscc" />
    <path
       style="fill:#ffffff;fill-rule:evenodd;stroke:none;stroke-width:1px;stroke-linecap:butt;stroke-linejoin:miter;stroke-opacity:1"
       d="m 79.966435,2099.1511 23.546955,16.5657 5.77671,-21.4719 13.96365,6.4871 -8.37819,-75.0437 30.72004,69.1176 2.79273,-17.9728 12.56729,24.3675 36.42692,-12.4014 6.8604,-60.1338 15.36001,50.8644 11.17093,-21.4922 7.8925,27.5955 c 0,0 1.88205,5.8508 15.8457,3.444 13.96366,-2.4068 141.79599,8.1107 167.56383,27.4464 l 22.98224,10.8299 22.56755,-15.6995 -6.45156,25.9982 47.36086,-44.6486 -27.28149,57.896 17.92704,-10.5738 -8.71946,22.558 c 0,0 4.22581,12.5723 8.41491,18.2243 40.49459,49.2001 60.14929,161.0823 67.33048,184.8243 l 30.72004,-4.0456 -20.94548,14.463 c 9.14048,6.8815 41.99548,17.939 111.3259,-11.0639 0,0 -64.15436,46.875 -108.60984,42.3299 -9.56642,5.363 39.34647,16.1258 39.34647,16.1258 l -53.28076,7.0224 -5.84311,50.2449 39.09823,18.1639 -44.68369,-8.9001 37.70186,43.4558 -46.80583,-10.4859 -4.82814,27.4284 -7.68395,10.0525 c -16.12139,12.0575 -39.33705,38.6664 -60.92293,44.5464 0,4.4469 23.38547,49.1163 23.38547,49.1163 l -52.01461,-29.4904 24.0873,35.7863 -56.27233,-30.2588 -14.37279,-0.407 -8.37819,3.5193 c -43.28733,26.5831 -143.43861,11.3479 -160.19499,8.0103 -1.39637,0.093 -18.15274,42.707 -18.15274,42.707 l -7.69184,-37.5036 -11.85728,15.0808 -6.95817,-10.1598 -51.07677,69.2495 17.83286,-82.0028 -35.99696,34.0016 5.36921,-46.4598 -27.96162,33.5054 4.93852,-42.7868 -16.109444,4.9859 z"
       id="path4603"
       inkscape:connector-curvature="0"
       sodipodi:nodetypes="cccccccccccccsscccccccccccccccccccccccccccccccccccccccccc" />
    <path
       style="color:#000000;display:inline;overflow:visible;visibility:visible;fill:#ffffff;fill-opacity:1;fill-rule:nonzero;stroke:none;stroke-width:0.87594312px;marker:none;enable-background:accumulate"
       d="m 986.80224,2905.1862 c 20.07146,-35.2543 63.04016,-65.5675 119.84486,-78.8643 56.8046,-13.2967 162.3217,-12.838 180.9164,-9.3658 18.5947,3.4721 120.7376,15.071 143.1651,34.2365 22.4274,19.1652 52.7743,42.8654 59.6193,67.9563 6.8451,25.0909 2.183,86.0066 -18.2527,99.9521 -20.4358,13.9453 -113.9982,45.553 -168.8405,48.5351 -54.8423,2.9823 -182.6114,-6.3821 -219.1017,-14.1337 -36.4904,-7.7516 -75.159,-17.8163 -87.03247,-45.1473 -11.87361,-27.331 -33.87179,-63.0881 -10.31829,-103.1689 z"
       id="path3533"
       inkscape:connector-curvature="0" />
    <path
       style="fill:#ffffff;stroke:none"
       d="m 1653.0187,3027.9651 c -45.7195,6.3375 -53.9298,-5.1776 -62.1848,-19.0773 -8.2551,-13.8997 -14.1828,-27.4561 -24.5416,-29.7762 -10.3587,-2.3201 -24.2907,0.778 -34.3436,4.4479 -10.0531,3.6701 -16.0502,-4.3086 -23.5544,-12.549 -7.5042,-8.2404 -57.2715,-41.3793 -57.2715,-41.3793 0,0 12.6136,43.4743 20.7667,55.3773 8.1531,11.903 11.0722,16.2967 15.6572,20.1434 4.5852,3.8466 17.3035,11.6669 28.565,10.553 11.2614,-1.1138 21.3268,-7.5562 29.6567,-10.2912 8.3298,-2.7351 21.007,2.5425 29.5605,11.7303 8.5534,9.1878 31.1188,27.0998 49.1012,23.41 17.9825,-3.6897 28.5886,-12.5889 28.5886,-12.5889 z"
       id="path3023"
       inkscape:connector-curvature="0"
       sodipodi:nodetypes="csssscssssssc" />
  </g>
  <g
     inkscape:groupmode="layer"
     id="layer1"
     inkscape:label="txt"
     style="display:inline">
    <text
       id="text71"
       y="277.77167"
       x="736.9483"
       style="font-style:normal;font-variant:normal;font-weight:normal;font-stretch:normal;font-size:15.0463419px;line-height:100%;font-family:'Nanum Pen Script OTF';-inkscape-font-specification:'Nanum Pen Script OTF';text-align:center;letter-spacing:0px;word-spacing:0px;text-anchor:middle;fill:#000000;fill-opacity:1;stroke:none;stroke-width:1.25386178"
       xml:space="preserve"><tspan
         id="tspan59"
         y="277.77167"
         x="744.82782"
         style="font-style:normal;font-variant:normal;font-weight:normal;font-stretch:normal;font-size:56.42378235px;line-height:100%;font-family:'Nanum Pen Script OTF';-inkscape-font-specification:'Nanum Pen Script OTF';stroke-width:1.25386178"
         sodipodi:role="line"> </tspan><tspan
         id="tspan65"
         y="334.19547"
         x="736.9483"
         style="font-style:normal;font-variant:normal;font-weight:normal;font-stretch:normal;font-size:56.42378235px;line-height:100%;font-family:'Nanum Pen Script OTF';-inkscape-font-specification:'Nanum Pen Script OTF';stroke-width:1.25386178"
         sodipodi:role="line">개인적으로, 나는</tspan><tspan
         y="390.61923"
         x="736.9483"
         style="font-style:normal;font-variant:normal;font-weight:normal;font-stretch:normal;font-size:56.42378235px;line-height:100%;font-family:'Nanum Pen Script OTF';-inkscape-font-specification:'Nanum Pen Script OTF';stroke-width:1.25386178"
         sodipodi:role="line"
         id="tspan148">아무리 친한 친구라도</tspan><tspan
         y="447.043"
         x="736.9483"
         style="font-style:normal;font-variant:normal;font-weight:normal;font-stretch:normal;font-size:56.42378235px;line-height:100%;font-family:'Nanum Pen Script OTF';-inkscape-font-specification:'Nanum Pen Script OTF';stroke-width:1.25386178"
         sodipodi:role="line"
         id="tspan150">중재를 도와주지는 않아.</tspan><tspan
         id="tspan69"
         y="503.46683"
         x="736.9483"
         style="font-style:normal;font-variant:normal;font-weight:normal;font-stretch:normal;font-size:56.42378235px;line-height:100%;font-family:'Nanum Pen Script OTF';-inkscape-font-specification:'Nanum Pen Script OTF';stroke-width:1.25386178"
         sodipodi:role="line">이런 일은 항상 끝이</tspan><tspan
         y="559.89056"
         x="736.9483"
         style="font-style:normal;font-variant:normal;font-weight:normal;font-stretch:normal;font-size:56.42378235px;line-height:100%;font-family:'Nanum Pen Script OTF';-inkscape-font-specification:'Nanum Pen Script OTF';stroke-width:1.25386178"
         sodipodi:role="line"
         id="tspan154">안 좋단 말이야.</tspan></text>
    <text
       id="text79"
       y="172.12527"
       x="459.25589"
       style="font-style:normal;font-variant:normal;font-weight:normal;font-stretch:normal;font-size:14.88302517px;line-height:100%;font-family:'Nanum Pen Script OTF';-inkscape-font-specification:'Nanum Pen Script OTF';text-align:center;letter-spacing:0px;word-spacing:0px;text-anchor:middle;fill:#000000;fill-opacity:1;stroke:none;stroke-width:1.24025214"
       xml:space="preserve"><tspan
         id="tspan77"
         y="172.12527"
         x="459.25589"
         style="font-style:normal;font-variant:normal;font-weight:normal;font-stretch:normal;font-size:55.81134415px;line-height:100%;font-family:'Nanum Pen Script OTF';-inkscape-font-specification:'Nanum Pen Script OTF';stroke-width:1.24025214"
         sodipodi:role="line">이건 네가</tspan><tspan
         y="227.93661"
         x="459.25589"
         style="font-style:normal;font-variant:normal;font-weight:normal;font-stretch:normal;font-size:55.81134415px;line-height:100%;font-family:'Nanum Pen Script OTF';-inkscape-font-specification:'Nanum Pen Script OTF';stroke-width:1.24025214"
         sodipodi:role="line"
         id="tspan139">알아서 해결해야 할</tspan><tspan
         y="283.74796"
         x="459.25589"
         style="font-style:normal;font-variant:normal;font-weight:normal;font-stretch:normal;font-size:55.81134415px;line-height:100%;font-family:'Nanum Pen Script OTF';-inkscape-font-specification:'Nanum Pen Script OTF';stroke-width:1.24025214"
         sodipodi:role="line"
         id="tspan141">부분이야.</tspan></text>
    <text
       id="text87"
       y="1137.1085"
       x="317.08487"
       style="font-style:normal;font-variant:normal;font-weight:normal;font-stretch:normal;font-size:16.54604912px;line-height:100%;font-family:'Nanum Pen Script OTF';-inkscape-font-specification:'Nanum Pen Script OTF';text-align:center;letter-spacing:0px;word-spacing:0px;text-anchor:middle;fill:#000000;fill-opacity:1;stroke:none;stroke-width:1.37883747"
       xml:space="preserve"><tspan
         id="tspan81"
         y="1137.1085"
         x="325.74973"
         style="font-style:normal;font-variant:normal;font-weight:normal;font-stretch:normal;font-size:62.04768372px;line-height:100%;font-family:'Nanum Pen Script OTF';-inkscape-font-specification:'Nanum Pen Script OTF';stroke-width:1.37883747"
         sodipodi:role="line"> </tspan><tspan
         id="tspan85"
         y="1199.1562"
         x="317.08487"
         style="font-style:normal;font-variant:normal;font-weight:normal;font-stretch:normal;font-size:62.04768372px;line-height:100%;font-family:'Nanum Pen Script OTF';-inkscape-font-specification:'Nanum Pen Script OTF';stroke-width:1.37883747"
         sodipodi:role="line">ㅈ-제발</tspan><tspan
         y="1261.2039"
         x="317.08487"
         style="font-style:normal;font-variant:normal;font-weight:normal;font-stretch:normal;font-size:62.04768372px;line-height:100%;font-family:'Nanum Pen Script OTF';-inkscape-font-specification:'Nanum Pen Script OTF';stroke-width:1.37883747"
         sodipodi:role="line"
         id="tspan158">사프란...</tspan></text>
    <text
       id="text97"
       y="1238.1357"
       x="1746.5399"
       style="font-style:normal;font-variant:normal;font-weight:normal;font-stretch:normal;font-size:15.68518829px;line-height:100%;font-family:'Nanum Pen Script OTF';-inkscape-font-specification:'Nanum Pen Script OTF';text-align:center;letter-spacing:0px;word-spacing:0px;text-anchor:middle;fill:#000000;fill-opacity:1;stroke:none;stroke-width:1.30709898"
       xml:space="preserve"><tspan
         id="tspan89"
         y="1238.1357"
         x="1746.5399"
         style="font-style:normal;font-variant:normal;font-weight:normal;font-stretch:normal;font-size:58.81945801px;line-height:100%;font-family:'Nanum Pen Script OTF';-inkscape-font-specification:'Nanum Pen Script OTF';stroke-width:1.30709898"
         sodipodi:role="line">정말 대모들한테서 배우는 게 없어,</tspan><tspan
         id="tspan91"
         y="1296.9552"
         x="1746.5399"
         style="font-style:normal;font-variant:normal;font-weight:normal;font-stretch:normal;font-size:58.81945801px;line-height:100%;font-family:'Nanum Pen Script OTF';-inkscape-font-specification:'Nanum Pen Script OTF';stroke-width:1.30709898"
         sodipodi:role="line">그 분들이 하는 일이라곤 내 집에 눌러앉아서,</tspan><tspan
         id="tspan93"
         y="1355.7747"
         x="1746.5399"
         style="font-style:normal;font-variant:normal;font-weight:normal;font-stretch:normal;font-size:58.81945801px;line-height:100%;font-family:'Nanum Pen Script OTF';-inkscape-font-specification:'Nanum Pen Script OTF';stroke-width:1.30709898"
         sodipodi:role="line">자기들 관절 삐걱대는 거 투덜거리고</tspan><tspan
         id="tspan95"
         y="1414.5941"
         x="1746.5399"
         style="font-style:normal;font-variant:normal;font-weight:normal;font-stretch:normal;font-size:58.81945801px;line-height:100%;font-family:'Nanum Pen Script OTF';-inkscape-font-specification:'Nanum Pen Script OTF';stroke-width:1.30709898"
         sodipodi:role="line">뭐만 하면 소리 지르는 거 밖에 없어...</tspan></text>
    <text
       id="text109"
       y="2140.1997"
       x="313.22894"
       style="font-style:normal;font-variant:normal;font-weight:normal;font-stretch:normal;font-size:14.86382103px;line-height:100%;font-family:'Nanum Pen Script OTF';-inkscape-font-specification:'Nanum Pen Script OTF';text-align:center;letter-spacing:0px;word-spacing:0px;text-anchor:middle;fill:#000000;fill-opacity:1;stroke:none;stroke-width:1.23865175"
       xml:space="preserve"><tspan
         id="tspan99"
         y="2140.1997"
         x="321.01285"
         style="font-style:normal;font-variant:normal;font-weight:normal;font-stretch:normal;font-size:55.73933029px;line-height:100%;font-family:'Nanum Pen Script OTF';-inkscape-font-specification:'Nanum Pen Script OTF';stroke-width:1.23865175"
         sodipodi:role="line"> </tspan><tspan
         id="tspan101"
         y="2195.939"
         x="313.22894"
         style="font-style:normal;font-variant:normal;font-weight:normal;font-stretch:normal;font-size:55.73933029px;line-height:100%;font-family:'Nanum Pen Script OTF';-inkscape-font-specification:'Nanum Pen Script OTF';stroke-width:1.23865175"
         sodipodi:role="line">야,</tspan><tspan
         id="tspan105"
         y="2251.6785"
         x="313.22894"
         style="font-style:normal;font-variant:normal;font-weight:normal;font-stretch:normal;font-size:55.73933029px;line-height:100%;font-family:'Nanum Pen Script OTF';-inkscape-font-specification:'Nanum Pen Script OTF';stroke-width:1.23865175"
         sodipodi:role="line">넌 마녀잖아,</tspan><tspan
         id="tspan107"
         y="2307.4177"
         x="313.22894"
         style="font-style:normal;font-variant:normal;font-weight:normal;font-stretch:normal;font-size:55.73933029px;line-height:100%;font-family:'Nanum Pen Script OTF';-inkscape-font-specification:'Nanum Pen Script OTF';stroke-width:1.23865175"
         sodipodi:role="line">마녀답게 좀 행동해!</tspan></text>
    <text
       id="text113"
       y="2557.7119"
       x="301.96671"
       style="font-style:normal;font-variant:normal;font-weight:normal;font-stretch:normal;font-size:16.04363632px;line-height:100%;font-family:'Nanum Pen Script OTF';-inkscape-font-specification:'Nanum Pen Script OTF';text-align:center;letter-spacing:0px;word-spacing:0px;text-anchor:middle;fill:#000000;fill-opacity:1;stroke:none;stroke-width:1.33696973"
       xml:space="preserve"><tspan
         id="tspan111"
         y="2557.7119"
         x="301.96671"
         style="font-style:normal;font-variant:normal;font-weight:normal;font-stretch:normal;font-size:60.16363907px;line-height:100%;font-family:'Nanum Pen Script OTF';-inkscape-font-specification:'Nanum Pen Script OTF';stroke-width:1.33696973"
         sodipodi:role="line">당당하게!</tspan></text>
    <text
       id="text117"
       y="2423.4858"
       x="321.51108"
       style="font-style:normal;font-variant:normal;font-weight:normal;font-stretch:normal;font-size:14.78025341px;line-height:100%;font-family:'Nanum Pen Script OTF';-inkscape-font-specification:'Nanum Pen Script OTF';text-align:center;letter-spacing:0px;word-spacing:0px;text-anchor:middle;fill:#000000;fill-opacity:1;stroke:none;stroke-width:1.23168778"
       xml:space="preserve"><tspan
         id="tspan115"
         y="2423.4858"
         x="321.51108"
         style="font-style:normal;font-variant:normal;font-weight:normal;font-stretch:normal;font-size:55.4259491px;line-height:100%;font-family:'Nanum Pen Script OTF';-inkscape-font-specification:'Nanum Pen Script OTF';stroke-width:1.23168778"
         sodipodi:role="line">그냥 가서 말 해봐!</tspan></text>
    <text
       id="text125"
       y="1490.472"
       x="2014.7515"
       style="font-style:normal;font-variant:normal;font-weight:normal;font-stretch:normal;font-size:14.8932333px;line-height:100%;font-family:'Nanum Pen Script OTF';-inkscape-font-specification:'Nanum Pen Script OTF';text-align:center;letter-spacing:0px;word-spacing:0px;text-anchor:middle;fill:#000000;fill-opacity:1;stroke:none;stroke-width:1.24110281"
       xml:space="preserve"><tspan
         y="1490.472"
         x="2014.7515"
         style="font-style:normal;font-variant:normal;font-weight:normal;font-stretch:normal;font-size:55.84962463px;line-height:100%;font-family:'Nanum Pen Script OTF';-inkscape-font-specification:'Nanum Pen Script OTF';stroke-width:1.24110281"
         sodipodi:role="line"
         id="tspan197">정말 나랑 같이 가서</tspan><tspan
         y="1546.3217"
         x="2014.7515"
         style="font-style:normal;font-variant:normal;font-weight:normal;font-stretch:normal;font-size:55.84962463px;line-height:100%;font-family:'Nanum Pen Script OTF';-inkscape-font-specification:'Nanum Pen Script OTF';stroke-width:1.24110281"
         sodipodi:role="line"
         id="tspan204">얘기하는 거 못</tspan><tspan
         y="1602.1713"
         x="2014.7515"
         style="font-style:normal;font-variant:normal;font-weight:normal;font-stretch:normal;font-size:55.84962463px;line-height:100%;font-family:'Nanum Pen Script OTF';-inkscape-font-specification:'Nanum Pen Script OTF';stroke-width:1.24110281"
         sodipodi:role="line"
         id="tspan206">도와주겠어 ...?</tspan></text>
    <text
       id="text133"
       y="2900.4026"
       x="1241.525"
       style="font-style:normal;font-variant:normal;font-weight:normal;font-stretch:normal;font-size:15.56438732px;line-height:100%;font-family:'Nanum Pen Script OTF';-inkscape-font-specification:'Nanum Pen Script OTF';text-align:center;letter-spacing:0px;word-spacing:0px;text-anchor:middle;fill:#000000;fill-opacity:1;stroke:none;stroke-width:1.29703224"
       xml:space="preserve"><tspan
         id="tspan127"
         y="2900.4026"
         x="1241.525"
         style="font-style:normal;font-variant:normal;font-weight:normal;font-stretch:normal;font-size:58.36645126px;line-height:100%;font-family:'Nanum Pen Script OTF';-inkscape-font-specification:'Nanum Pen Script OTF';stroke-width:1.29703224"
         sodipodi:role="line">그래, 그래!</tspan><tspan
         id="tspan131"
         y="2958.769"
         x="1241.525"
         style="font-style:normal;font-variant:normal;font-weight:normal;font-stretch:normal;font-size:58.36645126px;line-height:100%;font-family:'Nanum Pen Script OTF';-inkscape-font-specification:'Nanum Pen Script OTF';stroke-width:1.29703224"
         sodipodi:role="line">그럼 너랑 같이 가서</tspan><tspan
         y="3017.1355"
         x="1241.525"
         style="font-style:normal;font-variant:normal;font-weight:normal;font-stretch:normal;font-size:58.36645126px;line-height:100%;font-family:'Nanum Pen Script OTF';-inkscape-font-specification:'Nanum Pen Script OTF';stroke-width:1.29703224"
         sodipodi:role="line"
         id="tspan212">한 번 얘기 해 보지 뭐.</tspan></text>
  </g>
</svg>
