<?xml version="1.0" encoding="UTF-8" standalone="no"?>
<!-- Created with Inkscape (http://www.inkscape.org/) -->

<svg
   xmlns:dc="http://purl.org/dc/elements/1.1/"
   xmlns:cc="http://creativecommons.org/ns#"
   xmlns:rdf="http://www.w3.org/1999/02/22-rdf-syntax-ns#"
   xmlns:svg="http://www.w3.org/2000/svg"
   xmlns="http://www.w3.org/2000/svg"
   xmlns:xlink="http://www.w3.org/1999/xlink"
   xmlns:sodipodi="http://sodipodi.sourceforge.net/DTD/sodipodi-0.dtd"
   xmlns:inkscape="http://www.inkscape.org/namespaces/inkscape"
   id="svg2"
   version="1.1"
   inkscape:version="0.92.2 2405546, 2018-03-11"
   width="2481"
   height="3503"
   sodipodi:docname="E16P03.svg">
  <metadata
     id="metadata8">
    <rdf:RDF>
      <cc:Work
         rdf:about="">
        <dc:format>image/svg+xml</dc:format>
        <dc:type
           rdf:resource="http://purl.org/dc/dcmitype/StillImage" />
        <dc:title />
      </cc:Work>
    </rdf:RDF>
  </metadata>
  <defs
     id="defs6">
    <filter
       style="color-interpolation-filters:sRGB"
       id="filter4375-4-1-1-1"
       inkscape:label="deevad outline effect">
      <feFlood
         id="feFlood4377-7-9-0-8"
         flood-opacity="1"
         flood-color="rgb(0,0,0)"
         result="flood" />
      <feComposite
         id="feComposite4379-3-8-8-2"
         in2="SourceGraphic"
         in="flood"
         operator="in"
         result="composite1" />
      <feMorphology
         id="feMorphology4393-1-0-49-8"
         operator="dilate"
         radius="4"
         result="result3" />
      <feComposite
         id="feComposite4385-9-5-7-0"
         in2="result3"
         in="SourceGraphic"
         operator="over"
         result="composite2" />
    </filter>
    <filter
       style="color-interpolation-filters:sRGB"
       id="filter4375-4-1-1-1-8"
       inkscape:label="deevad outline effect">
      <feFlood
         id="feFlood4377-7-9-0-8-4"
         flood-opacity="1"
         flood-color="rgb(0,0,0)"
         result="flood" />
      <feComposite
         id="feComposite4379-3-8-8-2-5"
         in2="SourceGraphic"
         in="flood"
         operator="in"
         result="composite1" />
      <feMorphology
         id="feMorphology4393-1-0-49-8-1"
         operator="dilate"
         radius="4"
         result="result3" />
      <feComposite
         id="feComposite4385-9-5-7-0-7"
         in2="result3"
         in="SourceGraphic"
         operator="over"
         result="composite2" />
    </filter>
  </defs>
  <sodipodi:namedview
     pagecolor="#ffffff"
     bordercolor="#666666"
     borderopacity="1"
     objecttolerance="10"
     gridtolerance="10"
     guidetolerance="10"
     inkscape:pageopacity="0"
     inkscape:pageshadow="2"
     inkscape:window-width="1920"
     inkscape:window-height="1010"
     id="namedview4"
     showgrid="false"
     inkscape:zoom="0.34980127"
     inkscape:cx="1705.0797"
     inkscape:cy="1058.2639"
     inkscape:window-x="0"
     inkscape:window-y="41"
     inkscape:window-maximized="1"
     inkscape:current-layer="layer1" />
  <g
     inkscape:groupmode="layer"
     id="layer2"
     inkscape:label="artwork"
     sodipodi:insensitive="true">
    <image
       sodipodi:absref="/home/nightlock/peppercarrot/webcomics/ep16_The-Sage-of-the-Mountain/lang/kr/../gfx_Pepper-and-Carrot_by-David-Revoy_E16P03.png"
       xlink:href="../gfx_Pepper-and-Carrot_by-David-Revoy_E16P03.png"
       width="2481"
       height="3503"
       id="image10"
       x="0"
       y="0" />
  </g>
  <g
     inkscape:groupmode="layer"
     id="layer3"
     inkscape:label="speechbubbles">
    <path
       style="color:#000000;display:inline;overflow:visible;visibility:visible;fill:#ffffff;fill-opacity:1;fill-rule:nonzero;stroke:none;stroke-width:1px;marker:none;enable-background:accumulate"
       d="m 1530.5664,614.12504 c -23.5422,-44.79099 -54.1129,-86.36208 -69.4889,-134.89415 l -9.2637,44.46765 c -14.5297,-14.22937 -19.1139,-35.6541 -27.0752,-54.63573 l -11.338,37.30803 c -33.8829,-34.01763 -74.8115,-85.94086 -98.9326,-124.1838 l -58.8695,-5.7337 c 28.9026,35.70192 134.8788,118.42738 157.7121,160.07431 l 12.6468,-24.8312 c 9.8817,13.23086 19.2558,26.89199 26.3633,42.47502 L 1465.44,521.55 Z"
       id="path4032"
       inkscape:connector-curvature="0"
       sodipodi:nodetypes="cccccccccccc" />
    <path
       style="color:#000000;display:inline;overflow:visible;visibility:visible;fill:#ffffff;fill-opacity:1;fill-rule:nonzero;stroke:none;stroke-width:1px;marker:none;enable-background:accumulate"
       d="m 1027.4098,237.31343 -47.70566,-8.62236 4.22464,14.09441 c -28.4095,0.76478 -43.21138,-3.65883 -63.36885,-6.04045 l 31.68437,18.12127 -5.2807,5.03373 c 5.1441,2.94322 12.906,4.95064 14.78602,9.06067 -14.35141,2.56124 -24.66978,2.55955 -36.53844,3.543 11.1676,3.40383 20.4652,7.34232 27.03312,12.06145 l -38.02127,8.05387 34.85051,7.04607 c -26.21347,11.58645 -59.16043,18.89383 -89.77028,27.68651 l 108.78326,-4.02702 -16.89827,9.06067 c 11.19474,2.78405 9.99484,1.88393 14.78601,3.52363 2.3736,3.39377 -37.39656,17.50461 -33.79673,16.10785 4.22467,-0.50341 40.13364,-2.51691 40.13364,-2.51691 0,0 -31.68448,14.0944 -27.45982,14.0944 4.2245,0 39.07743,-3.52362 39.07743,-3.52362 l -11.61761,13.591 33.65373,-6.89718 -8.5568,24.24952 c 11.979,-0.99416 25.8096,-2.32127 31.5727,-1.34549 -4.0128,6.82503 -8.7462,9.37481 -18.8886,20.24412 19.2492,-4.71821 62.6223,-13.64591 62.6223,-13.64591 l 6.2676,22.19484 42.2461,-17.61795 7.3931,12.08089 31.6843,-15.10112 0,15.60452 c 16.3674,-3.01772 25.7608,-12.52262 41.1899,-18.12135 l 3.1683,58.39091 55.1268,-54.86198 11.025,28.54067 26.7896,-21.4988 3.1684,16.10783 29.5722,-21.64489 22.1791,19.63139 21.1231,-18.12128 c 34.1271,18.37512 53.1524,35.00224 79.211,49.33023 -4.4579,-20.32012 -8.1779,-40.05427 -6.3368,-55.37067 11.9697,-1.59608 23.9392,1.59628 35.9089,6.04044 l -6.3369,-13.591 44.3584,9.06067 -20.0669,-21.14157 c 67.7114,-0.67737 54.1181,2.95086 69.7059,5.03372 l -12.6737,-13.591 46.4707,10.57078 c -12.6952,-11.24696 -29.3696,-23.44229 -38.0216,-33.72578 l 48.5828,2.51683 c -19.0379,-9.04805 -42.9572,-15.76968 -56.2765,-27.54316 l 42.5467,-1.1489 -40.1336,-15.10111 31.6842,-8.55728 -25.3473,-2.01352 42.2458,-18.12126 -55.9759,-1.51012 67.5936,-32.71907 -78.1551,7.04725 6.3368,-23.65841 -43.3019,17.11456 43.3019,-59.39762 c -35.2879,20.98117 -68.0465,32.90986 -109.3821,53.57048 l -15.2507,-5.96477 -16.8911,3.089 4.2246,-16.96892 -62.3127,20.6381 6.3369,-9.564 -19.0107,9.06068 4.2244,-12.58429 -32.7405,15.10111 3.0144,-13.15756 -15.6882,8.62723 -4.8308,-8.26719 -18.4044,5.24697 c -17.7088,-20.23219 -34.0653,-55.95509 -34.0653,-55.95509 0,0 -19.2981,25.43081 -40.9215,56.96187 l -11.6176,-9.56061 -14.4853,8.84054 -14.6321,-11.4274 -22.0301,13.65531 c -17.4211,-10.40298 -27.5675,-16.77675 -34.4004,-27.17975 3.3699,9.74979 5.8198,16.29936 0.9044,27.03632 -64.3105,-16.43858 -62.3853,-17.90451 -86.4526,-27.03632 -6.5949,11.73738 16.5842,22.75764 12.8527,31.77737 z"
       id="path4024"
       inkscape:connector-curvature="0"
       sodipodi:nodetypes="cccccccccccccccccsccccccccccccccccccccccccccccccccccccccccccccccccccccccccccccccccccc" />
    <path
       inkscape:connector-curvature="0"
       style="fill:#ffffff;fill-rule:evenodd;stroke:none;stroke-width:0.9179098"
       d="m 603.39665,1199.0507 c -123.5311,-0.1258 -247.31905,1.1314 -256.54544,2.641 -10.44065,1.7081 -28.10062,13.4061 -45.18252,27.7978 l -10.17606,-0.6247 6.3985,3.8649 c -0.70918,0.6171 -1.41699,1.2358 -2.12155,1.8598 l -34.0061,-8.7452 24.46313,17.5504 c -7.32167,7.039 -14.02155,14.1698 -19.33724,20.6927 3.70845,34.8451 6.59673,56.2509 16.44406,73.3865 l -6.19229,12.1561 15.84319,0.9711 c 0.10342,0.113 0.21135,0.2255 0.31574,0.3383 l -11.03305,13.7867 19.20836,-5.9555 c 0.042,0.036 0.0803,0.071 0.12244,0.1075 l -24.45668,32.0139 26.65394,-9.0583 -31.77983,29.1847 60.82757,-30.7882 c 0.90947,0.5341 1.79443,1.061 2.73209,1.6035 0.53503,0.3096 1.10419,0.6129 1.69144,0.9124 l -0.66691,9.1517 14.13242,-4.2224 c 73.71869,20.189 306.6393,8.5724 411.82812,-0.7654 l 21.00774,22.0969 -4.10135,-16.1018 30.7553,24.1527 -15.37765,-32.2052 16.40218,11.0714 -6.15041,-12.0772 16.40218,6.0378 -1.85093,-10.2949 c 46.92223,-10.4912 72.15965,-33.7358 79.76209,-56.1255 8.20123,-24.1532 4.10099,-57.3643 2.05068,-69.4408 -1.04527,-6.1567 -7.96149,-16.7557 -16.65509,-26.7384 l 11.5292,-12.5104 -17.90676,5.625 c -6.75871,-6.8314 -13.95239,-12.7091 -20.02349,-15.6891 -8.20122,-4.0255 -131.47592,-5.534 -255.00702,-5.6598 z"
       id="path4212" />
    <path
       style="fill:#ffffff;fill-rule:evenodd;stroke:none;stroke-width:1px;stroke-linecap:butt;stroke-linejoin:miter;stroke-opacity:1"
       d="m 859.93893,1272.3203 c 56.86661,-10.0335 105.79244,-10.5381 175.55377,-36.0453 l -19.7842,24.3214 30.6717,-8.1632 -12.4294,26.1018 c 0,0 202.5995,-33.5594 193.8989,-33.5594 -8.7006,0 -224.9071,61.577 -224.9071,61.577 l 17.0647,-28.9567 -42.99824,16.0553 22.13933,-23.8168 -161.58242,57.1754 z"
       id="path4230"
       inkscape:connector-curvature="0"
       sodipodi:nodetypes="cccccscccccc" />
    <path
       style="fill:#ffffff;fill-rule:evenodd;stroke:none;stroke-width:0.90702349"
       d="m 798.10186,1817.3945 -40.08519,24.5414 -13.36171,12.2706 11.30607,11.2482 h -15.41738 l 4.11131,19.4286 -38.02954,2.0451 35.97389,15.3384 -27.75128,2.0451 27.75128,15.3384 -2.05566,8.1804 -11.30607,9.203 11.30607,36.8121 38.02953,18.4061 -16.4452,7.1579 30.83475,1.0225 17.47304,18.4061 35.97387,10.2256 27.75128,4.0902 -24.66781,13.2933 44.19649,-8.1805 -19.52868,15.3384 43.16866,-11.2482 68.86425,1.0226 109.97737,-4.0903 37.0017,-4.0902 28.7791,12.2707 -6.167,-9.203 27.7514,-1.0226 74.0033,17.3835 22.6122,5.1128 -14.3896,-26.5865 20.5565,11.2481 -5.1391,-22.4962 35.9739,-4.0903 18.5008,-11.2481 50.3634,24.5414 -19.5286,-24.5414 27.7512,15.3384 -18.5008,-21.4738 24.6678,9.2031 -18.5009,-20.4512 26.7235,-2.0451 3.0834,-32.7219 c 0,0 -15.4173,-9.203 -11.306,-9.203 4.1112,0 22.6122,-9.203 22.6122,-9.203 l -14.3896,-7.1579 24.6678,-4.0903 -27.7513,-14.3158 12.3339,-12.2707 -16.4452,-28.6315 -4.1113,-21.4738 -22.6122,-13.2933 -35.9738,-31.6993 -26.7235,-7.1579 -333.01533,-8.1804 -101.75468,8.1804 z"
       id="path4294"
       inkscape:connector-curvature="0" />
    <path
       style="fill:#ffffff;fill-rule:evenodd;stroke:none;stroke-width:1px;stroke-linecap:butt;stroke-linejoin:miter;stroke-opacity:1"
       d="m 1462.9425,2161.5115 -101.9212,-93.2206 6.2147,28.5876 -91.9777,-82.0341 -62.1471,11.1865 178.9836,110.6218 -9.9435,-28.5877 z"
       id="path4305"
       inkscape:connector-curvature="0" />
    <path
       style="fill:#ffffff;fill-rule:evenodd;stroke:none;stroke-width:1px;stroke-linecap:butt;stroke-linejoin:miter;stroke-opacity:1"
       d="m 422.51878,2625.9484 c -14.35862,14.0495 -15.62916,51.2796 -15.00801,64.6324 0.62116,13.3527 14.95155,63.2387 27.14244,67.1321 12.19087,3.8935 93.84089,16.4505 107.32269,15.8234 13.48181,-0.6272 89.60264,-10.1156 101.37943,-15.1239 11.77678,-5.0085 21.62108,-51.5585 21.13795,-61.9441 -0.48311,-10.3853 -5.89465,-62.1732 -21.15051,-67.4109 -15.25585,-5.2377 -80.84221,-27.463 -94.255,-25.3521 -13.41279,2.1107 -122.97226,2.7468 -126.56899,22.2431 z"
       id="path4408"
       inkscape:connector-curvature="0" />
    <path
       style="fill:#ffffff;fill-rule:evenodd;stroke:none;stroke-width:1px;stroke-linecap:butt;stroke-linejoin:miter;stroke-opacity:1"
       d="m 775.86914,2700.9124 c 14.79411,-21.3692 37.80717,-29.5882 55.88887,-29.5882 18.0817,0 290.95099,-4.9314 300.81369,-1.6438 9.8628,3.2876 55.8889,14.7941 55.8889,37.8072 0,23.0131 4.9314,49.3137 -8.219,64.1078 -13.1503,14.7941 -133.147,26.3007 -167.6666,23.0131 -34.51963,-3.2876 -184.10457,-8.219 -202.18627,-9.8628 -18.08169,-1.6437 -42.73855,-23.013 -39.45097,-39.4509 3.28758,-16.4379 4.93138,-44.3824 4.93138,-44.3824 z"
       id="path4410"
       inkscape:connector-curvature="0"
       sodipodi:nodetypes="csssssssc" />
    <path
       style="fill:#ffffff;fill-rule:evenodd;stroke:none;stroke-width:1px;stroke-linecap:butt;stroke-linejoin:miter;stroke-opacity:1"
       d="m 522.03985,2689.4104 c 193.55341,-0.3243 379.15326,41.3597 567.43005,79.9806 44.8357,122.0573 105.1467,166.4381 215.0829,188.0625 -136.5707,-22.4748 -165.0897,-59.102 -228.0528,-171.8502 -183.40766,-54.4054 -369.51017,-68.3491 -558.78343,-82.1423 z"
       id="path4412"
       inkscape:connector-curvature="0"
       sodipodi:nodetypes="cccccc" />
  </g>
  <g
     inkscape:groupmode="layer"
     id="layer1"
     inkscape:label="txt">
    <text
       id="text150"
       y="303.69287"
       x="1269.2319"
       style="font-style:normal;font-variant:normal;font-weight:normal;font-stretch:normal;font-size:19.20801163px;line-height:100%;font-family:'Nanum Pen Script OTF';-inkscape-font-specification:'Nanum Pen Script OTF';text-align:center;letter-spacing:0px;word-spacing:0px;text-anchor:middle;fill:#000000;fill-opacity:1;stroke:none;stroke-width:1.60066772"
       xml:space="preserve"><tspan
         y="303.69287"
         x="1269.2319"
         style="font-style:normal;font-variant:normal;font-weight:normal;font-stretch:normal;font-size:72.03004456px;line-height:100%;font-family:'Nanum Pen Script OTF';-inkscape-font-specification:'Nanum Pen Script OTF';stroke-width:1.60066772"
         sodipodi:role="line"
         id="tspan226">아무것도 배우는 게 없다니,</tspan><tspan
         y="375.7229"
         x="1269.2319"
         style="font-style:normal;font-variant:normal;font-weight:normal;font-stretch:normal;font-size:72.03004456px;line-height:100%;font-family:'Nanum Pen Script OTF';-inkscape-font-specification:'Nanum Pen Script OTF';stroke-width:1.60066772"
         sodipodi:role="line"
         id="tspan230">무슨 소리야?!</tspan></text>
    <text
       id="text156"
       y="1293.74"
       x="583.07416"
       style="font-style:normal;font-variant:normal;font-weight:normal;font-stretch:normal;font-size:15.71663666px;line-height:100%;font-family:'Nanum Pen Script OTF';-inkscape-font-specification:'Nanum Pen Script OTF';text-align:center;letter-spacing:0px;word-spacing:0px;text-anchor:middle;fill:#000000;fill-opacity:1;stroke:none;stroke-width:1.30971968"
       xml:space="preserve"><tspan
         id="tspan154"
         y="1293.74"
         x="583.07416"
         style="font-style:normal;font-variant:normal;font-weight:normal;font-stretch:normal;font-size:58.93738556px;line-height:100%;font-family:'Nanum Pen Script OTF';-inkscape-font-specification:'Nanum Pen Script OTF';stroke-width:1.30971968"
         sodipodi:role="line">거기다 너 스스로 와서 말할</tspan><tspan
         y="1352.6774"
         x="583.07416"
         style="font-style:normal;font-variant:normal;font-weight:normal;font-stretch:normal;font-size:58.93738556px;line-height:100%;font-family:'Nanum Pen Script OTF';-inkscape-font-specification:'Nanum Pen Script OTF';stroke-width:1.30971968"
         sodipodi:role="line"
         id="tspan294">용기도 없어?!</tspan></text>
    <text
       id="text166"
       y="1887.9792"
       x="1079.6329"
       style="font-style:normal;font-variant:normal;font-weight:normal;font-stretch:normal;font-size:15.06915188px;line-height:100%;font-family:'Nanum Pen Script OTF';-inkscape-font-specification:'Nanum Pen Script OTF';text-align:center;letter-spacing:0px;word-spacing:0px;text-anchor:middle;fill:#000000;fill-opacity:1;stroke:none;stroke-width:1.25576258"
       xml:space="preserve"><tspan
         id="tspan164"
         y="1887.9792"
         x="1079.6329"
         style="font-style:normal;font-variant:normal;font-weight:normal;font-stretch:normal;font-size:56.50931931px;line-height:100%;font-family:'Nanum Pen Script OTF';-inkscape-font-specification:'Nanum Pen Script OTF';stroke-width:1.25576258"
         sodipodi:role="line">오늘 내 등만 이상하지 않았어도</tspan><tspan
         y="1944.4885"
         x="1079.6329"
         style="font-style:normal;font-variant:normal;font-weight:normal;font-stretch:normal;font-size:56.50931931px;line-height:100%;font-family:'Nanum Pen Script OTF';-inkscape-font-specification:'Nanum Pen Script OTF';stroke-width:1.25576258"
         sodipodi:role="line"
         id="tspan302">너한테 좋은 내용 가르쳐 줬을 게다!</tspan><tspan
         y="2000.9979"
         x="1079.6329"
         style="font-style:normal;font-variant:normal;font-weight:normal;font-stretch:normal;font-size:56.50931931px;line-height:100%;font-family:'Nanum Pen Script OTF';-inkscape-font-specification:'Nanum Pen Script OTF';stroke-width:1.25576258"
         sodipodi:role="line"
         id="tspan306">마법보다 더 중요한 내용을!</tspan></text>
    <text
       id="text172"
       y="2677.4675"
       x="536.53479"
       style="font-style:normal;font-variant:normal;font-weight:normal;font-stretch:normal;font-size:16.09179115px;line-height:100%;font-family:'Nanum Pen Script OTF';-inkscape-font-specification:'Nanum Pen Script OTF';text-align:center;letter-spacing:0px;word-spacing:0px;text-anchor:middle;fill:#000000;fill-opacity:1;stroke:none;stroke-width:1.34098268"
       xml:space="preserve"><tspan
         id="tspan170"
         y="2677.4675"
         x="536.53479"
         style="font-style:normal;font-variant:normal;font-weight:normal;font-stretch:normal;font-size:60.34421539px;line-height:100%;font-family:'Nanum Pen Script OTF';-inkscape-font-specification:'Nanum Pen Script OTF';stroke-width:1.34098268"
         sodipodi:role="line">백리향,</tspan><tspan
         y="2737.8118"
         x="536.53479"
         style="font-style:normal;font-variant:normal;font-weight:normal;font-stretch:normal;font-size:60.34421539px;line-height:100%;font-family:'Nanum Pen Script OTF';-inkscape-font-specification:'Nanum Pen Script OTF';stroke-width:1.34098268"
         sodipodi:role="line"
         id="tspan74">진정해</tspan></text>
    <text
       id="text176"
       y="2749.2461"
       x="983.23639"
       style="font-style:normal;font-variant:normal;font-weight:normal;font-stretch:normal;font-size:15.81375694px;line-height:100%;font-family:'Nanum Pen Script OTF';-inkscape-font-specification:'Nanum Pen Script OTF';text-align:center;letter-spacing:0px;word-spacing:0px;text-anchor:middle;fill:#000000;fill-opacity:1;stroke:none;stroke-width:1.31781304"
       xml:space="preserve"><tspan
         id="tspan174"
         y="2749.2461"
         x="983.23639"
         style="font-style:normal;font-variant:normal;font-weight:normal;font-stretch:normal;font-size:59.30158615px;line-height:100%;font-family:'Nanum Pen Script OTF';-inkscape-font-specification:'Nanum Pen Script OTF';stroke-width:1.31781304"
         sodipodi:role="line">애들 말이 맞아...</tspan></text>
    <text
       transform="matrix(0.89618362,-0.24886542,0.02679547,1.1084018,0,0)"
       id="text188"
       y="939.03308"
       x="334.76431"
       style="font-style:normal;font-variant:normal;font-weight:normal;font-stretch:normal;font-size:15.39790821px;line-height:100%;font-family:'Nanum Pen Script OTF';-inkscape-font-specification:'Nanum Pen Script OTF';text-align:center;letter-spacing:0px;word-spacing:0px;text-anchor:middle;fill:#ffffff;fill-opacity:1;stroke:#ffffff;stroke-width:0.52629507;stroke-miterlimit:4;stroke-dasharray:none;stroke-opacity:1"
       xml:space="preserve"><tspan
         id="tspan186"
         y="939.03308"
         x="334.76431"
         style="font-style:normal;font-variant:normal;font-weight:normal;font-stretch:normal;font-size:39.47212601px;line-height:100%;font-family:'Nanum Pen Script OTF';-inkscape-font-specification:'Nanum Pen Script OTF';fill:#ffffff;stroke:#ffffff;stroke-width:0.52629507;stroke-miterlimit:4;stroke-dasharray:none;stroke-opacity:1"
         sodipodi:role="line">짹짹</tspan></text>
    <text
       transform="matrix(0.73686042,-0.56755246,0.44156597,1.0170015,0,0)"
       id="text212"
       y="858.33484"
       x="-93.291656"
       style="font-style:normal;font-variant:normal;font-weight:normal;font-stretch:normal;font-size:17.22915268px;line-height:100%;font-family:'Nanum Pen Script OTF';-inkscape-font-specification:'Nanum Pen Script OTF';text-align:center;letter-spacing:0px;word-spacing:0px;text-anchor:middle;fill:#ffffff;fill-opacity:1;stroke:#ffffff;stroke-width:0.58888638;stroke-miterlimit:4;stroke-dasharray:none;stroke-opacity:1"
       xml:space="preserve"><tspan
         id="tspan210"
         y="858.33484"
         x="-93.291656"
         style="font-style:normal;font-variant:normal;font-weight:normal;font-stretch:normal;font-size:44.1664772px;line-height:100%;font-family:'Nanum Pen Script OTF';-inkscape-font-specification:'Nanum Pen Script OTF';fill:#ffffff;stroke:#ffffff;stroke-width:0.58888638;stroke-miterlimit:4;stroke-dasharray:none;stroke-opacity:1"
         sodipodi:role="line">짹짹</tspan></text>
    <text
       transform="matrix(1.2643505,-0.62888136,-0.23341774,1.6664187,635.48181,-507.78692)"
       id="text222"
       y="1584.5073"
       x="787.65729"
       style="font-style:normal;font-variant:normal;font-weight:normal;font-stretch:normal;line-height:100%;font-family:'Nanum Pen Script OTF';-inkscape-font-specification:'Nanum Pen Script OTF';letter-spacing:0px;word-spacing:0px;fill:#000000;fill-opacity:1;stroke:#000000;stroke-width:0.72695441;stroke-miterlimit:4;stroke-dasharray:none;stroke-opacity:1;filter:url(#filter4375-4-1-1-1);"
       xml:space="preserve"><tspan
         style="font-style:normal;font-variant:normal;font-weight:normal;font-stretch:normal;font-size:70px;line-height:100%;font-family:'Nanum Pen Script OTF';-inkscape-font-specification:'Nanum Pen Script OTF';fill:#ffffff;stroke-width:0.72695441;"
         y="1584.5073"
         x="787.65729"
         id="tspan220"
         sodipodi:role="line"><tspan
           id="tspan218"
           style="font-style:normal;font-variant:normal;font-weight:normal;font-stretch:normal;font-size:80.40014648px;line-height:100%;font-family:'Nanum Pen Script OTF';-inkscape-font-specification:'Nanum Pen Script OTF';stroke-width:0.72695441;">쾅!</tspan></tspan></text>
    <text
       transform="matrix(0.89618362,-0.24886542,0.02679547,1.1084018,0,0)"
       id="text188-3"
       y="1092.0483"
       x="332.36868"
       style="font-style:normal;font-variant:normal;font-weight:normal;font-stretch:normal;font-size:15.39790821px;line-height:100%;font-family:'Nanum Pen Script OTF';-inkscape-font-specification:'Nanum Pen Script OTF';text-align:center;letter-spacing:0px;word-spacing:0px;text-anchor:middle;fill:#ffffff;fill-opacity:1;stroke:#ffffff;stroke-width:0.52629507;stroke-miterlimit:4;stroke-dasharray:none;stroke-opacity:1"
       xml:space="preserve"><tspan
         id="tspan186-6"
         y="1092.0483"
         x="332.36868"
         style="font-style:normal;font-variant:normal;font-weight:normal;font-stretch:normal;font-size:39.47212601px;line-height:100%;font-family:'Nanum Pen Script OTF';-inkscape-font-specification:'Nanum Pen Script OTF';fill:#ffffff;stroke:#ffffff;stroke-width:0.52629507;stroke-miterlimit:4;stroke-dasharray:none;stroke-opacity:1"
         sodipodi:role="line">짹짹</tspan></text>
    <text
       transform="matrix(0.73686042,-0.56755246,0.44156597,1.0170015,0,0)"
       id="text212-7"
       y="984.85596"
       x="-166.45917"
       style="font-style:normal;font-variant:normal;font-weight:normal;font-stretch:normal;font-size:17.22915268px;line-height:100%;font-family:'Nanum Pen Script OTF';-inkscape-font-specification:'Nanum Pen Script OTF';text-align:center;letter-spacing:0px;word-spacing:0px;text-anchor:middle;fill:#ffffff;fill-opacity:1;stroke:#ffffff;stroke-width:0.58888638;stroke-miterlimit:4;stroke-dasharray:none;stroke-opacity:1"
       xml:space="preserve"><tspan
         id="tspan210-5"
         y="984.85596"
         x="-166.45917"
         style="font-style:normal;font-variant:normal;font-weight:normal;font-stretch:normal;font-size:44.1664772px;line-height:100%;font-family:'Nanum Pen Script OTF';-inkscape-font-specification:'Nanum Pen Script OTF';fill:#ffffff;stroke:#ffffff;stroke-width:0.58888638;stroke-miterlimit:4;stroke-dasharray:none;stroke-opacity:1"
         sodipodi:role="line">짹짹</tspan></text>
    <text
       transform="matrix(0.89618362,-0.24886542,0.02679547,1.1084018,0,0)"
       id="text188-35"
       y="1023.4706"
       x="544.75604"
       style="font-style:normal;font-variant:normal;font-weight:normal;font-stretch:normal;font-size:15.39790821px;line-height:100%;font-family:'Nanum Pen Script OTF';-inkscape-font-specification:'Nanum Pen Script OTF';text-align:center;letter-spacing:0px;word-spacing:0px;text-anchor:middle;fill:#ffffff;fill-opacity:1;stroke:#ffffff;stroke-width:0.52629507;stroke-miterlimit:4;stroke-dasharray:none;stroke-opacity:1"
       xml:space="preserve"><tspan
         id="tspan186-62"
         y="1023.4706"
         x="544.75604"
         style="font-style:normal;font-variant:normal;font-weight:normal;font-stretch:normal;font-size:39.47212601px;line-height:100%;font-family:'Nanum Pen Script OTF';-inkscape-font-specification:'Nanum Pen Script OTF';fill:#ffffff;stroke:#ffffff;stroke-width:0.52629507;stroke-miterlimit:4;stroke-dasharray:none;stroke-opacity:1"
         sodipodi:role="line">짹짹</tspan></text>
    <text
       transform="matrix(0.73686042,-0.56755246,0.44156597,1.0170015,0,0)"
       id="text212-9"
       y="998.8902"
       x="85.747353"
       style="font-style:normal;font-variant:normal;font-weight:normal;font-stretch:normal;font-size:17.22915268px;line-height:100%;font-family:'Nanum Pen Script OTF';-inkscape-font-specification:'Nanum Pen Script OTF';text-align:center;letter-spacing:0px;word-spacing:0px;text-anchor:middle;fill:#ffffff;fill-opacity:1;stroke:#ffffff;stroke-width:0.58888638;stroke-miterlimit:4;stroke-dasharray:none;stroke-opacity:1"
       xml:space="preserve"><tspan
         id="tspan210-1"
         y="998.8902"
         x="85.747353"
         style="font-style:normal;font-variant:normal;font-weight:normal;font-stretch:normal;font-size:44.1664772px;line-height:100%;font-family:'Nanum Pen Script OTF';-inkscape-font-specification:'Nanum Pen Script OTF';fill:#ffffff;stroke:#ffffff;stroke-width:0.58888638;stroke-miterlimit:4;stroke-dasharray:none;stroke-opacity:1"
         sodipodi:role="line">짹짹</tspan></text>
    <text
       transform="matrix(0.89618362,-0.24886542,0.02679547,1.1084018,0,0)"
       id="text188-2"
       y="934.19873"
       x="765.71503"
       style="font-style:normal;font-variant:normal;font-weight:normal;font-stretch:normal;font-size:17.06130409px;line-height:100%;font-family:'Nanum Pen Script OTF';-inkscape-font-specification:'Nanum Pen Script OTF';text-align:center;letter-spacing:0px;word-spacing:0px;text-anchor:middle;fill:#ffffff;fill-opacity:1;stroke:#ffffff;stroke-width:0.58314937;stroke-miterlimit:4;stroke-dasharray:none;stroke-opacity:1"
       xml:space="preserve"><tspan
         id="tspan186-7"
         y="934.19873"
         x="765.71503"
         style="font-style:normal;font-variant:normal;font-weight:normal;font-stretch:normal;font-size:43.73619843px;line-height:100%;font-family:'Nanum Pen Script OTF';-inkscape-font-specification:'Nanum Pen Script OTF';fill:#ffffff;stroke:#ffffff;stroke-width:0.58314937;stroke-miterlimit:4;stroke-dasharray:none;stroke-opacity:1"
         sodipodi:role="line">짹짹</tspan></text>
    <text
       transform="matrix(0.73686042,-0.56755246,0.44156597,1.0170015,0,0)"
       id="text212-0"
       y="997.0578"
       x="352.26282"
       style="font-style:normal;font-variant:normal;font-weight:normal;font-stretch:normal;font-size:17.22915268px;line-height:100%;font-family:'Nanum Pen Script OTF';-inkscape-font-specification:'Nanum Pen Script OTF';text-align:center;letter-spacing:0px;word-spacing:0px;text-anchor:middle;fill:#ffffff;fill-opacity:1;stroke:#ffffff;stroke-width:0.58888638;stroke-miterlimit:4;stroke-dasharray:none;stroke-opacity:1"
       xml:space="preserve"><tspan
         id="tspan210-9"
         y="997.0578"
         x="352.26282"
         style="font-style:normal;font-variant:normal;font-weight:normal;font-stretch:normal;font-size:44.1664772px;line-height:100%;font-family:'Nanum Pen Script OTF';-inkscape-font-specification:'Nanum Pen Script OTF';fill:#ffffff;stroke:#ffffff;stroke-width:0.58888638;stroke-miterlimit:4;stroke-dasharray:none;stroke-opacity:1"
         sodipodi:role="line">짹짹</tspan></text>
    <text
       transform="matrix(0.89618362,-0.24886542,0.02679547,1.1084018,0,0)"
       id="text188-36"
       y="849.79077"
       x="544.92395"
       style="font-style:normal;font-variant:normal;font-weight:normal;font-stretch:normal;font-size:15.96718693px;line-height:100%;font-family:'Nanum Pen Script OTF';-inkscape-font-specification:'Nanum Pen Script OTF';text-align:center;letter-spacing:0px;word-spacing:0px;text-anchor:middle;fill:#ffffff;fill-opacity:1;stroke:#ffffff;stroke-width:0.54575282;stroke-miterlimit:4;stroke-dasharray:none;stroke-opacity:1"
       xml:space="preserve"><tspan
         id="tspan186-0"
         y="849.79077"
         x="544.92395"
         style="font-style:normal;font-variant:normal;font-weight:normal;font-stretch:normal;font-size:40.93145752px;line-height:100%;font-family:'Nanum Pen Script OTF';-inkscape-font-specification:'Nanum Pen Script OTF';fill:#ffffff;stroke:#ffffff;stroke-width:0.54575282;stroke-miterlimit:4;stroke-dasharray:none;stroke-opacity:1"
         sodipodi:role="line">짹짹</tspan></text>
    <text
       transform="matrix(0.73686042,-0.56755246,0.44156597,1.0170015,0,0)"
       id="text212-6"
       y="858.32129"
       x="153.52371"
       style="font-style:normal;font-variant:normal;font-weight:normal;font-stretch:normal;font-size:17.22915268px;line-height:100%;font-family:'Nanum Pen Script OTF';-inkscape-font-specification:'Nanum Pen Script OTF';text-align:center;letter-spacing:0px;word-spacing:0px;text-anchor:middle;fill:#ffffff;fill-opacity:1;stroke:#ffffff;stroke-width:0.58888638;stroke-miterlimit:4;stroke-dasharray:none;stroke-opacity:1"
       xml:space="preserve"><tspan
         id="tspan210-2"
         y="858.32129"
         x="153.52371"
         style="font-style:normal;font-variant:normal;font-weight:normal;font-stretch:normal;font-size:44.1664772px;line-height:100%;font-family:'Nanum Pen Script OTF';-inkscape-font-specification:'Nanum Pen Script OTF';fill:#ffffff;stroke:#ffffff;stroke-width:0.58888638;stroke-miterlimit:4;stroke-dasharray:none;stroke-opacity:1"
         sodipodi:role="line">짹짹</tspan></text>
  </g>
</svg>
