<?xml version="1.0" encoding="UTF-8" standalone="no"?>
<!-- Created with Inkscape (http://www.inkscape.org/) -->

<svg
   xmlns:dc="http://purl.org/dc/elements/1.1/"
   xmlns:cc="http://creativecommons.org/ns#"
   xmlns:rdf="http://www.w3.org/1999/02/22-rdf-syntax-ns#"
   xmlns:svg="http://www.w3.org/2000/svg"
   xmlns="http://www.w3.org/2000/svg"
   xmlns:xlink="http://www.w3.org/1999/xlink"
   xmlns:sodipodi="http://sodipodi.sourceforge.net/DTD/sodipodi-0.dtd"
   xmlns:inkscape="http://www.inkscape.org/namespaces/inkscape"
   id="svg2"
   version="1.1"
   inkscape:version="0.92.2 2405546, 2018-03-11"
   width="2481"
   height="3503"
   sodipodi:docname="E27P03.svg">
  <metadata
     id="metadata8">
    <rdf:RDF>
      <cc:Work
         rdf:about="">
        <dc:format>image/svg+xml</dc:format>
        <dc:type
           rdf:resource="http://purl.org/dc/dcmitype/StillImage" />
        <dc:title />
      </cc:Work>
    </rdf:RDF>
  </metadata>
  <defs
     id="defs6">
    <filter
       style="color-interpolation-filters:sRGB"
       id="filter4375-4-1-1-1-9"
       inkscape:label="deevad outline effect">
      <feFlood
         id="feFlood4377-7-9-0-8-1"
         flood-opacity="1"
         flood-color="rgb(0,0,0)"
         result="flood" />
      <feComposite
         id="feComposite4379-3-8-8-2-77"
         in2="SourceGraphic"
         in="flood"
         operator="in"
         result="composite1" />
      <feMorphology
         id="feMorphology4393-1-0-49-8-9"
         operator="dilate"
         radius="4"
         result="result3" />
      <feComposite
         id="feComposite4385-9-5-7-0-8"
         in2="result3"
         in="SourceGraphic"
         operator="over"
         result="composite2" />
    </filter>
    <filter
       style="color-interpolation-filters:sRGB"
       id="filter4375-4-1-1-1-9-5"
       inkscape:label="deevad outline effect">
      <feFlood
         id="feFlood4377-7-9-0-8-1-8"
         flood-opacity="1"
         flood-color="rgb(0,0,0)"
         result="flood" />
      <feComposite
         id="feComposite4379-3-8-8-2-77-0"
         in2="SourceGraphic"
         in="flood"
         operator="in"
         result="composite1" />
      <feMorphology
         id="feMorphology4393-1-0-49-8-9-0"
         operator="dilate"
         radius="4"
         result="result3" />
      <feComposite
         id="feComposite4385-9-5-7-0-8-0"
         in2="result3"
         in="SourceGraphic"
         operator="over"
         result="composite2" />
    </filter>
  </defs>
  <sodipodi:namedview
     pagecolor="#ffffff"
     bordercolor="#666666"
     borderopacity="1"
     objecttolerance="10"
     gridtolerance="10"
     guidetolerance="10"
     inkscape:pageopacity="0"
     inkscape:pageshadow="2"
     inkscape:window-width="1280"
     inkscape:window-height="972"
     id="namedview4"
     showgrid="false"
     inkscape:zoom="0.60491494"
     inkscape:cx="1554.9614"
     inkscape:cy="616.10441"
     inkscape:window-x="0"
     inkscape:window-y="26"
     inkscape:window-maximized="1"
     inkscape:current-layer="layer1"
     inkscape:snap-global="false" />
  <g
     inkscape:groupmode="layer"
     id="layer2"
     inkscape:label="artwork"
     sodipodi:insensitive="true">
    <image
       sodipodi:absref="/home/zveryok/Downloads/webcomics-master/ep27_Coriander-s-Invention/lang/uk/../gfx_Pepper-and-Carrot_by-David-Revoy_E27P03.png"
       xlink:href="../gfx_Pepper-and-Carrot_by-David-Revoy_E27P03.png"
       width="2481"
       height="3503"
       id="image10"
       x="0"
       y="0" />
  </g>
  <g
     inkscape:groupmode="layer"
     id="layer3"
     inkscape:label="speechbubbles">
    <path
       style="fill:#ffffff;fill-rule:evenodd;stroke:none;stroke-width:1.02923155px;stroke-linecap:butt;stroke-linejoin:miter;stroke-opacity:1"
       d="m 1151.5449,1570.8987 c 2.9681,-53.7853 1.1123,-90.5493 24.8686,-103.5774 23.7567,-13.0279 204.2522,-13.4149 218.8127,-12.4266 14.5607,0.9884 45.4384,7.0493 58.2427,3.9532 12.8043,-3.096 49.8925,-4.0862 69.3865,-0.4754 19.4941,3.6107 103.6941,4.0921 113.7528,14.8401 10.0586,10.7482 35.1876,40.3232 34.7256,73.3854 -0.4621,33.0622 -12.0075,50.4007 -24.2844,68.6306 -12.2771,18.2298 -56.3918,44.4411 -82.2402,43.7541 -25.8482,-0.687 -112.1035,2.2914 -126.6162,2.6789 -14.5127,0.3875 -104.6703,6.9258 -135.3083,7.7438 -30.6379,0.8179 -77.3524,-12.0855 -108.6616,-30.5286 -31.3091,-18.4432 -42.6782,-67.9781 -42.6782,-67.9781 z"
       id="path263"
       inkscape:connector-curvature="0"
       sodipodi:nodetypes="ccccccccssccc" />
    <path
       style="fill:#ffffff;fill-rule:evenodd;stroke:none;stroke-width:1px;stroke-linecap:butt;stroke-linejoin:miter;stroke-opacity:1"
       d="m 1252.6692,1467.8179 c 0,0 -14.7372,-14.1832 -28.1318,-24.3459 -13.1591,-9.9839 -23.1743,-37.0399 -19.4243,-57.7963 -18.1089,29.447 -5.815,53.6299 11.889,81.0614 15.1315,24.8588 35.6671,1.0808 35.6671,1.0808 z"
       id="path265"
       inkscape:connector-curvature="0"
       sodipodi:nodetypes="csccc" />
    <path
       style="fill:#ffffff;fill-rule:evenodd;stroke:none;stroke-width:0.96241206px;stroke-linecap:butt;stroke-linejoin:miter;stroke-opacity:1"
       d="m 1947.7097,1843.8664 c 28.6577,-29.9027 91.8121,-45.5452 141.3121,-46.3758 49.5,-0.8306 179.7631,8.3063 222.7499,22.427 42.9868,14.1206 82.7403,30.5938 78.8324,71.2945 -3.9079,40.7009 -15.6316,83.0628 -23.4473,98.0142 -7.8158,14.9513 -32.5657,38.2089 -57.3158,51.4989 -24.75,13.2901 -109.421,16.6126 -139.3814,16.6126 -29.9607,0 -134.171,-9.9676 -156.3157,-22.427 -22.1447,-12.4594 -67.7369,-33.2251 -75.5526,-70.6034 -7.8158,-37.3782 -3.908,-98.0141 9.1184,-120.441 z"
       id="path267"
       inkscape:connector-curvature="0"
       sodipodi:nodetypes="csccccscsc" />
    <path
       style="fill:#ffffff;fill-rule:evenodd;stroke:none;stroke-width:1px;stroke-linecap:butt;stroke-linejoin:miter;stroke-opacity:1"
       d="m 1825.1743,1897.7489 c 53.571,-19.7367 111.3904,-9.3727 131.1271,16.0031 19.7367,25.3757 16.4282,45.0866 16.4282,45.0866 l -21.6164,9.3985 c 0,14.3171 5.8835,-17.1392 -7.2743,-30.7446 -12.9359,-13.376 -35.6882,-34.1046 -57.3046,-37.8639 -21.6164,-3.7594 -50.0819,-2.8196 -61.36,-1.8797 z"
       id="path269"
       inkscape:connector-curvature="0"
       sodipodi:nodetypes="ccccscc" />
    <path
       style="fill:#ffffff;fill-rule:evenodd;stroke:none;stroke-width:1px;stroke-linecap:butt;stroke-linejoin:miter;stroke-opacity:1"
       d="m 273.4472,2421.5131 c 21.61638,-17.7141 71.33405,-21.6006 92.95043,-27.4256 21.61638,-5.8251 50.79849,0.4698 64.84914,-0.1821 14.05064,-0.652 52.96012,-4.8683 63.76831,-3.4576 10.80819,1.4107 79.98061,8.9263 94.03125,10.436 14.05065,1.5097 74.57651,8.7613 81.06143,29.4949 6.48491,20.7334 25.93965,61.3176 16.21228,80.4755 -9.72737,19.1577 -21.61638,52.3002 -49.71767,63.3314 -28.1013,11.0313 -71.33405,29.1664 -122.13254,29.7774 -50.7985,0.6109 -121.05173,-10.18 -131.85992,-10.5099 -10.80819,-0.33 -68.09159,-0.9977 -90.78879,-28.7111 -22.6972,-27.7132 -38.90948,-58.4711 -35.66703,-85.3925 3.24246,-26.9215 17.29311,-57.8364 17.29311,-57.8364 z"
       id="path271"
       inkscape:connector-curvature="0" />
    <path
       style="fill:#ffffff;fill-rule:evenodd;stroke:none;stroke-width:1px;stroke-linecap:butt;stroke-linejoin:miter;stroke-opacity:1"
       d="m 549.40558,2567.868 c 0,0 -6.17962,40.1675 -4.9437,48.819 1.23593,8.6515 12.35924,48.201 19.77478,58.0884 -19.15682,-22.2466 -31.51605,-51.2908 -33.9879,-61.1782 -2.47184,-9.8874 -1.23592,-50.0549 -1.23592,-50.0549 z"
       id="path273"
       inkscape:connector-curvature="0" />
    <path
       style="fill:#ffffff;fill-rule:evenodd;stroke:none;stroke-width:1px;stroke-linecap:butt;stroke-linejoin:miter;stroke-opacity:1"
       d="m 874.10689,2397.2192 c 36.95412,-5.6852 28.42624,7.8173 60.40576,7.1066 31.97953,-0.7106 97.35985,-7.8172 112.99435,-14.2131 8.5278,-3.5533 9.2385,2.132 9.2385,2.132 0,0 26.2943,1.4213 31.2689,2.8426 4.9745,1.4213 24.1623,10.6598 31.2688,8.5279 7.1066,-2.132 19.1877,-5.6853 19.1877,-5.6853 0,0 -0.7106,47.614 -1.4213,51.1672 -0.7106,3.5533 -5.6852,30.5582 -5.6852,39.7968 0,9.2385 4.2639,23.4516 3.5532,27.7156 -0.7106,4.2639 9.2386,14.9237 9.2386,14.9237 l -27.005,0.7107 -18.477,2.132 -7.8172,-2.132 -33.4009,2.8426 -19.1877,0.7107 1.4213,-4.264 -82.43605,4.264 3.55328,-6.3959 -28.42624,1.4213 -10.65984,6.3959 -3.55328,-5.6853 -24.16231,0.7107 -12.79181,6.3959 7.10656,-13.5025 -10.65984,-7.8172 -2.13196,-104.4664 6.3959,-4.264 z"
       id="path275"
       inkscape:connector-curvature="0" />
    <path
       style="fill:#ffffff;fill-rule:evenodd;stroke:none;stroke-width:0.91813922px;stroke-linecap:butt;stroke-linejoin:miter;stroke-opacity:1"
       d="m 1103.6962,2443.6285 c 27.6333,-4.9746 46.0555,9.2385 52.8104,7.8172 6.7549,-1.4213 28.8616,-10.6598 36.2304,-9.9492 7.3689,0.7107 54.0387,8.5279 68.1623,5.6853 14.1237,-2.8427 45.4416,0 50.3543,-0.7107 4.9124,-0.7106 24.5629,-14.2131 30.0896,-14.2131 5.5267,0 14.7377,6.3959 35.0023,-9.2385 -8.5971,18.477 -13.5097,31.2688 -13.5097,31.2688 0,0 21.4926,-7.1065 30.0896,-7.1065 8.5971,0 15.352,3.5532 19.6504,1.4213 4.2986,-2.132 27.6334,-2.8426 31.3179,-2.8426 3.6845,0 12.8955,-3.5533 17.1941,-3.5533 4.2985,0 43.5993,4.2639 49.126,4.2639 5.5266,0 57.1089,-7.1066 62.6356,-7.1066 5.5266,0 30.7037,2.132 41.1431,-2.8426 1.2281,14.2131 -2.4564,48.3246 -2.4564,56.1418 0,7.8173 0.6141,17.7664 0.6141,24.1624 -9.2111,7.1065 -15.9661,21.3196 -15.9661,21.3196 0,0 15.352,3.5533 19.6505,0.7107 4.2985,-2.8426 1.8422,52.5885 2.4563,63.2484 0.6141,10.6598 -7.3689,0.7106 -7.3689,0.7106 0,0 -1.2281,7.8172 -6.1407,9.2386 -4.9126,1.4213 -91.4971,-0.7107 -101.3223,-0.7107 -9.8253,0 -12.8957,3.5533 -12.8957,3.5533 h -42.3712 l -1.2281,-6.3959 -19.0362,4.2639 -25.7913,4.9746 -15.3518,3.5533 -8.597,-2.8426 -42.3712,0.7106 -36.8445,1.4213 9.2111,-10.6598 -95.7956,7.8172 -44.2135,1.4213 -40.5289,6.3959 -7.9829,-22.741 -4.2987,-49.0352 c 0,0 -2.4562,-13.5026 4.2987,-15.6345 6.7547,-2.1319 -4.9127,-4.2639 -6.1408,-17.0557 -1.2282,-12.7918 -4.9126,-45.482 -4.9126,-45.482 l 7.983,-2.8426 -9.8252,-7.1066 z"
       id="path277"
       inkscape:connector-curvature="0" />
    <path
       style="fill:#ffffff;fill-rule:evenodd;stroke:none;stroke-width:0.99999994px;stroke-linecap:butt;stroke-linejoin:miter;stroke-opacity:1"
       d="m 1327.3521,2751.2587 c 32.6788,-36.3054 55.3539,-80.3905 55.3539,-94.0051 8.6697,12.9662 8.0028,10.373 8.0028,10.373 0,0 14.6721,-38.8987 14.0051,-62.8862 -0.6667,-23.9875 26.6766,-24.6358 30.0111,-19.4493 3.3345,5.1864 9.47,23.9875 9.47,23.9875 l -4.1347,13.6145 -4.0015,-3.2415 c 0,0 -15.3389,40.1952 -17.3397,44.7334 -2.0008,4.5382 -10.6705,23.9876 -10.6705,23.9876 l -2.6677,-11.6696 -14.6721,10.373 0.6669,16.2077 -8.003,-7.1314 c 0,0 -0.6667,9.7247 -4.0014,14.9112 -3.3346,5.1864 -24.0089,27.8774 -26.6765,31.1189 -2.6676,3.2415 -25.3427,9.0763 -25.3427,9.0763 z"
       id="path279"
       inkscape:connector-curvature="0" />
    <path
       style="fill:#ffffff;fill-rule:evenodd;stroke:none;stroke-width:1.03045666px;stroke-linecap:butt;stroke-linejoin:miter;stroke-opacity:1"
       d="m 1867.4734,2412.5674 7.6876,7.358 39.0546,-4.3215 7.8103,-8.3665 c 0,0 17.3557,8.3665 22.5625,5.5777 5.2068,-2.7889 26.0339,-4.6481 26.0339,-4.6481 l 7.81,7.4369 19.0915,-2.7888 c 0,0 44.2575,7.4369 54.6711,6.5072 10.4136,-0.9295 28.6372,-10.2256 28.6372,-10.2256 0,0 35.5797,10.2256 40.7864,8.3664 5.2067,-1.8592 14.7524,-2.7887 14.7524,-2.7887 l 11.2814,20.4515 c 0,0 22.5626,-19.522 22.5626,-28.8181 14.7525,-0.9297 34.7118,0 38.1828,-1.8593 3.4714,-1.8592 5.207,11.1554 5.207,11.1554 l 10.4134,6.5073 c 0,0 26.0338,-20.4515 28.6373,-24.1699 2.6033,-3.7185 19.9593,-2.789 19.9593,-2.789 0,0 24.2981,0.9297 27.7694,0 3.4711,-0.9295 18.2236,0.9297 31.2406,1.8592 13.0168,0.9298 26.0338,0.9298 35.5795,-2.7887 2.6035,15.8034 0,72.51 -0.8679,79.0173 -9.5456,15.8034 -19.0913,45.5512 -26.9015,51.1289 20.8271,-11.1555 20.8271,-14.8739 28.6371,-22.3108 -0.8677,23.2405 -7.81,72.51 -8.6778,78.0878 13.8847,-12.085 12.1491,-9.2962 10.4136,-4.6481 -1.7358,4.6481 -6.9425,18.5923 -8.6781,29.7476 -1.7355,11.1554 0,25.0997 -1.7355,32.5366 -1.7356,7.437 -3.4712,17.6628 -3.4712,17.6628 0,0 -34.7118,11.1553 -40.7864,13.0146 -6.0746,1.8592 -59.8778,1.8592 -73.7624,1.8592 -13.8848,0 -34.7119,2.7888 -44.2577,1.8592 5.2069,-10.2257 8.6782,-17.6627 8.6782,-17.6627 0,0 -43.3898,4.6481 -53.8033,6.5074 -10.4136,1.8592 -53.8034,-8.3666 -63.349,-7.4369 -9.5459,0.9295 -62.4812,2.7887 -76.3659,3.7184 -13.8847,0.9295 -48.5965,2.7888 -61.6134,5.5777 -13.0168,2.7888 -52.0676,4.648 -60.7456,4.648 -8.6779,0 -25.166,0.9297 -25.166,0.9297 0,0 -1.7357,-33.4661 -1.7357,-45.5512 0,-12.085 -4.3389,-71.5804 -0.8678,-78.0877 3.4712,-6.5074 6.0746,-52.0586 6.0746,-56.7066 0,-4.6481 -8.1877,-40.4078 -8.1877,-40.4078 z"
       id="path283"
       inkscape:connector-curvature="0"
       sodipodi:nodetypes="ccccscccccsccccccccccccccccccccscccccsscssscc" />
    <path
       style="fill:#ffffff;fill-rule:evenodd;stroke:none;stroke-width:0.99999994px;stroke-linecap:butt;stroke-linejoin:miter;stroke-opacity:1"
       d="m 1928.0456,2832.7023 c -13.1433,-30.6118 9.2927,-109.1953 20.1114,-126.6745 0,-10.6243 -4.641,-22.8831 -4.641,-22.8831 0,0 -11.6028,4.9035 -14.6968,10.6243 -3.0941,5.7208 13.1497,-34.3247 22.4319,-40.8627 9.2823,-6.538 -6.9616,-37.5937 -6.9616,-37.5937 0,0 -31.7143,26.1521 -33.2613,37.5937 -1.547,11.4416 -10.0557,70.2839 -6.1881,80.9082 3.8676,10.6243 6.1881,4.9035 9.2821,0.8172 3.0942,-4.0862 11.6029,-12.2588 16.244,-15.5278 -7.7353,19.6141 -20.1115,84.1772 -2.3206,113.5984 z"
       id="path285"
       inkscape:connector-curvature="0"
       sodipodi:nodetypes="ccccccssccc" />
  </g>
  <g
     inkscape:groupmode="layer"
     id="layer1"
     inkscape:label="txt">
    <text
       xml:space="preserve"
       style="font-style:normal;font-variant:normal;font-weight:normal;font-stretch:normal;line-height:0%;font-family:Lavi;-inkscape-font-specification:Lavi;text-align:center;letter-spacing:0px;word-spacing:0px;text-anchor:middle;fill:#000000;fill-opacity:1;stroke:none"
       x="1407.3555"
       y="1524.687"
       id="text4246"><tspan
         sodipodi:role="line"
         style="font-size:45px;line-height:1.20000005"
         x="1407.3555"
         y="1524.687"
         id="tspan18">Ви скоро зрозумієте,</tspan><tspan
         sodipodi:role="line"
         style="font-size:45px;line-height:1.20000005"
         x="1414.3867"
         y="1578.687"
         id="tspan1589"> чому я хотіла </tspan><tspan
         sodipodi:role="line"
         style="font-size:45px;line-height:1.20000005"
         x="1407.3555"
         y="1632.687"
         id="tspan794">змайструвати його.</tspan></text>
    <text
       xml:space="preserve"
       style="font-style:normal;font-variant:normal;font-weight:normal;font-stretch:normal;line-height:0%;font-family:Lavi;-inkscape-font-specification:Lavi;text-align:center;letter-spacing:0px;word-spacing:0px;text-anchor:middle;fill:#000000;fill-opacity:1;stroke:none"
       x="2157.9958"
       y="1863.5016"
       id="text4246-3"><tspan
         sodipodi:role="line"
         style="font-size:45px;line-height:1.20000005"
         x="2157.9958"
         y="1863.5016"
         id="tspan59">Воно повинно</tspan><tspan
         sodipodi:role="line"
         style="font-size:45px;line-height:1.20000005"
         x="2157.9958"
         y="1917.5016"
         id="tspan1597">щось зробити з моїми</tspan><tspan
         sodipodi:role="line"
         style="font-size:45px;line-height:1.20000005"
         x="2157.9958"
         y="1971.5016"
         id="tspan1599">хвилюваннями щодо</tspan><tspan
         sodipodi:role="line"
         style="font-size:45px;line-height:1.20000005"
         x="2157.9958"
         y="2025.5016"
         id="tspan66">коронації.</tspan></text>
    <text
       xml:space="preserve"
       style="font-style:normal;font-variant:normal;font-weight:normal;font-stretch:normal;font-size:11.25791645px;line-height:0%;font-family:Lavi;-inkscape-font-specification:Lavi;text-align:center;letter-spacing:0px;word-spacing:0px;text-anchor:middle;fill:#000000;fill-opacity:1;stroke:none;stroke-width:0.9381597"
       x="505.3804"
       y="2303.041"
       id="text4246-3-3"
       transform="scale(0.9381597,1.0659166)"><tspan
         sodipodi:role="line"
         style="font-size:42.21718597px;line-height:1.20000005;stroke-width:0.9381597"
         x="511.97684"
         y="2303.041"
         id="tspan113">Дозвольте </tspan><tspan
         sodipodi:role="line"
         style="font-size:42.21718597px;line-height:1.20000005;stroke-width:0.9381597"
         x="511.97684"
         y="2353.7017"
         id="tspan1612">представити вам </tspan><tspan
         sodipodi:role="line"
         style="font-size:42.21718597px;line-height:1.20000005;stroke-width:0.9381597"
         x="505.3804"
         y="2404.3623"
         id="tspan1618">мій новий винахід...</tspan></text>
    <text
       xml:space="preserve"
       style="font-style:normal;font-variant:normal;font-weight:normal;font-stretch:normal;line-height:0%;font-family:Lavi;-inkscape-font-specification:Lavi;text-align:center;letter-spacing:0px;word-spacing:0px;text-anchor:middle;fill:#000000;fill-opacity:1;stroke:none"
       x="1013.3394"
       y="2462.7529"
       id="text4246-3-3-2"><tspan
         sodipodi:role="line"
         style="font-style:normal;font-variant:normal;font-weight:normal;font-stretch:normal;font-size:32px;line-height:1.39999998;font-family:'Press Start 2P';-inkscape-font-specification:'Press Start 2P'"
         x="1029.3394"
         y="2462.7529"
         id="tspan113-9">Прівіт  </tspan><tspan
         sodipodi:role="line"
         style="font-style:normal;font-variant:normal;font-weight:normal;font-stretch:normal;font-size:32px;line-height:1.39999998;font-family:'Press Start 2P';-inkscape-font-specification:'Press Start 2P'"
         x="1013.3394"
         y="2507.553"
         id="tspan144">світ.</tspan></text>
    <text
       xml:space="preserve"
       style="font-style:normal;font-variant:normal;font-weight:normal;font-stretch:normal;line-height:0%;font-family:Lavi;-inkscape-font-specification:Lavi;text-align:center;letter-spacing:0px;word-spacing:0px;text-anchor:middle;fill:#000000;fill-opacity:1;stroke:none"
       x="1353.2104"
       y="2498.7034"
       id="text4246-3-3-2-2"><tspan
         sodipodi:role="line"
         style="font-style:normal;font-variant:normal;font-weight:normal;font-stretch:normal;font-size:32px;line-height:1.39999998;font-family:'Press Start 2P';-inkscape-font-specification:'Press Start 2P'"
         x="1353.2104"
         y="2498.7034"
         id="tspan144-3">Я ваш</tspan><tspan
         sodipodi:role="line"
         style="font-style:normal;font-variant:normal;font-weight:normal;font-stretch:normal;font-size:32px;line-height:1.39999998;font-family:'Press Start 2P';-inkscape-font-specification:'Press Start 2P'"
         x="1353.2104"
         y="2543.5034"
         id="tspan169">БОТ-ПСИХОЛОГ</tspan><tspan
         sodipodi:role="line"
         style="font-style:normal;font-variant:normal;font-weight:normal;font-stretch:normal;font-size:32px;line-height:1.39999998;font-family:'Press Start 2P';-inkscape-font-specification:'Press Start 2P'"
         x="1353.2104"
         y="2588.3035"
         id="tspan171"> бліп, блуп!</tspan></text>
    <text
       xml:space="preserve"
       style="font-style:normal;font-variant:normal;font-weight:normal;font-stretch:normal;line-height:0%;font-family:Lavi;-inkscape-font-specification:Lavi;text-align:center;letter-spacing:0px;word-spacing:0px;text-anchor:middle;fill:#000000;fill-opacity:1;stroke:none"
       x="2101.0667"
       y="2471.8889"
       id="text4246-3-3-2-2-7"><tspan
         sodipodi:role="line"
         style="font-style:normal;font-variant:normal;font-weight:normal;font-stretch:normal;font-size:32px;line-height:1.29999995;font-family:'Press Start 2P';-inkscape-font-specification:'Press Start 2P'"
         x="2101.0667"
         y="2471.8889"
         id="tspan171-0">Будь ласка,</tspan><tspan
         sodipodi:role="line"
         style="font-style:normal;font-variant:normal;font-weight:normal;font-stretch:normal;font-size:32px;line-height:1.29999995;font-family:'Press Start 2P';-inkscape-font-specification:'Press Start 2P'"
         x="2101.0667"
         y="2513.489"
         id="tspan202">лягайте на</tspan><tspan
         sodipodi:role="line"
         style="font-style:normal;font-variant:normal;font-weight:normal;font-stretch:normal;font-size:32px;line-height:1.29999995;font-family:'Press Start 2P';-inkscape-font-specification:'Press Start 2P'"
         x="2101.0667"
         y="2555.0889"
         id="tspan206"> кушетку для</tspan><tspan
         sodipodi:role="line"
         style="font-style:normal;font-variant:normal;font-weight:normal;font-stretch:normal;font-size:32px;line-height:1.29999995;font-family:'Press Start 2P';-inkscape-font-specification:'Press Start 2P'"
         x="2101.0667"
         y="2596.689"
         id="tspan1622"> безкоштовного</tspan><tspan
         sodipodi:role="line"
         style="font-style:normal;font-variant:normal;font-weight:normal;font-stretch:normal;font-size:32px;line-height:1.29999995;font-family:'Press Start 2P';-inkscape-font-specification:'Press Start 2P'"
         x="2101.0667"
         y="2638.2888"
         id="tspan208">обстеження.</tspan></text>
    <text
       xml:space="preserve"
       style="font-style:normal;font-variant:normal;font-weight:normal;font-stretch:normal;line-height:0%;font-family:Lavi;-inkscape-font-specification:Lavi;letter-spacing:0px;word-spacing:0px;fill:#000000;fill-opacity:1;stroke:#000000;stroke-width:2.15795588;stroke-miterlimit:4;stroke-dasharray:none;stroke-opacity:1;filter:url(#filter4375-4-1-1-1-9)"
       x="787.65729"
       y="1584.5073"
       id="text4580"
       transform="matrix(0.46879428,-0.12606586,-0.08654633,0.61214652,623.13411,2085.4411)"><tspan
         sodipodi:role="line"
         id="tspan4582"
         x="787.65729"
         y="1584.5073"
         style="font-style:normal;font-variant:normal;font-weight:bold;font-stretch:normal;font-size:80.40014648px;line-height:1.25;font-family:Lavi;-inkscape-font-specification:'Lavi Bold';fill:#ffffff;stroke-width:2.15795588">Клік!</tspan></text>
    <text
       xml:space="preserve"
       style="font-style:normal;font-variant:normal;font-weight:normal;font-stretch:normal;line-height:0%;font-family:Lavi;-inkscape-font-specification:Lavi;letter-spacing:0px;word-spacing:0px;fill:#000000;fill-opacity:1;stroke:#000000;stroke-width:2.15795588;stroke-miterlimit:4;stroke-dasharray:none;stroke-opacity:1;filter:url(#filter4375-4-1-1-1-9-5)"
       x="787.65729"
       y="1584.5073"
       id="text4580-4"
       transform="matrix(0.46879428,-0.12606586,-0.08654633,0.61214652,2027.5227,1975.6976)"><tspan
         sodipodi:role="line"
         id="tspan4582-7"
         x="787.65729"
         y="1584.5073"
         style="font-style:normal;font-variant:normal;font-weight:bold;font-stretch:normal;font-size:80.40014648px;line-height:1.25;font-family:Lavi;-inkscape-font-specification:'Lavi Bold';fill:#ffffff;stroke-width:2.15795588">Тап!</tspan></text>
    <text
       xml:space="preserve"
       style="font-style:normal;font-variant:normal;font-weight:normal;font-stretch:normal;font-size:20px;line-height:1.25;font-family:Lavi;-inkscape-font-specification:Lavi;letter-spacing:0px;word-spacing:0px;fill:#000000;fill-opacity:1;stroke:none"
       x="2259.822"
       y="2463.1843"
       id="text1626"><tspan
         sodipodi:role="line"
         id="tspan1624"
         x="2259.822"
         y="2481.5134" /></text>
  </g>
</svg>
