<?xml version="1.0" encoding="UTF-8" standalone="no"?>
<!-- Created with Inkscape (http://www.inkscape.org/) -->

<svg
   xmlns:dc="http://purl.org/dc/elements/1.1/"
   xmlns:cc="http://creativecommons.org/ns#"
   xmlns:rdf="http://www.w3.org/1999/02/22-rdf-syntax-ns#"
   xmlns:svg="http://www.w3.org/2000/svg"
   xmlns="http://www.w3.org/2000/svg"
   xmlns:xlink="http://www.w3.org/1999/xlink"
   xmlns:sodipodi="http://sodipodi.sourceforge.net/DTD/sodipodi-0.dtd"
   xmlns:inkscape="http://www.inkscape.org/namespaces/inkscape"
   id="svg2"
   version="1.1"
   inkscape:version="0.92.3 (2405546, 2018-03-11)"
   width="2481"
   height="3503"
   sodipodi:docname="E06P08.svg">
  <metadata
     id="metadata8">
    <rdf:RDF>
      <cc:Work
         rdf:about="">
        <dc:format>image/svg+xml</dc:format>
        <dc:type
           rdf:resource="http://purl.org/dc/dcmitype/StillImage" />
        <dc:title />
      </cc:Work>
    </rdf:RDF>
  </metadata>
  <defs
     id="defs6">
    <filter
       color-interpolation-filters="sRGB"
       id="filter4375-4-1-1-15-1-3-3"
       inkscape:label="deevad outline effect">
      <feFlood
         id="feFlood4377-7-9-0-4-4-4-7"
         flood-opacity="1"
         flood-color="rgb(0,0,0)"
         result="flood" />
      <feComposite
         id="feComposite4379-3-8-8-6-0-7-4"
         in2="SourceGraphic"
         in="flood"
         operator="in"
         result="composite1" />
      <feMorphology
         id="feMorphology4393-1-0-49-8-2-7-3"
         operator="dilate"
         radius="0.69999999999999996"
         result="result3" />
      <feComposite
         id="feComposite4385-9-5-7-2-1-2-9"
         in2="result3"
         in="SourceGraphic"
         operator="over"
         result="composite2" />
    </filter>
    <filter
       color-interpolation-filters="sRGB"
       id="filter3639"
       inkscape:label="deevad outline effect">
      <feFlood
         id="feFlood3641"
         flood-opacity="1"
         flood-color="rgb(0,0,0)"
         result="flood" />
      <feComposite
         id="feComposite3643"
         in2="SourceGraphic"
         in="flood"
         operator="in"
         result="composite1" />
      <feMorphology
         id="feMorphology3645"
         operator="dilate"
         radius="0.69999999999999996"
         result="result3" />
      <feComposite
         id="feComposite3647"
         in2="result3"
         in="SourceGraphic"
         operator="over"
         result="composite2" />
    </filter>
    <filter
       color-interpolation-filters="sRGB"
       id="filter3649"
       inkscape:label="deevad outline effect">
      <feFlood
         id="feFlood3651"
         flood-opacity="1"
         flood-color="rgb(0,0,0)"
         result="flood" />
      <feComposite
         id="feComposite3653"
         in2="SourceGraphic"
         in="flood"
         operator="in"
         result="composite1" />
      <feMorphology
         id="feMorphology3655"
         operator="dilate"
         radius="0.69999999999999996"
         result="result3" />
      <feComposite
         id="feComposite3657"
         in2="result3"
         in="SourceGraphic"
         operator="over"
         result="composite2" />
    </filter>
  </defs>
  <sodipodi:namedview
     pagecolor="#ffffff"
     bordercolor="#666666"
     borderopacity="1"
     objecttolerance="10"
     gridtolerance="10"
     guidetolerance="10"
     inkscape:pageopacity="0"
     inkscape:pageshadow="2"
     inkscape:window-width="1920"
     inkscape:window-height="1018"
     id="namedview4"
     showgrid="false"
     inkscape:zoom="0.41362658"
     inkscape:cx="1237.7995"
     inkscape:cy="1350.277"
     inkscape:window-x="-8"
     inkscape:window-y="-8"
     inkscape:window-maximized="1"
     inkscape:current-layer="layer1" />
  <g
     inkscape:groupmode="layer"
     id="layer2"
     inkscape:label="artwork"
     sodipodi:insensitive="true">
    <image
       sodipodi:absref="C:\PRIVAT\Vevsida\Teikneseriesida\Pepar &amp; Gulrot\lang\nn\../gfx_Pepper-and-Carrot_by-David-Revoy_E06P08.png"
       xlink:href="../gfx_Pepper-and-Carrot_by-David-Revoy_E06P08.png"
       y="0"
       x="0"
       id="image10"
       height="3503"
       width="2481" />
  </g>
  <g
     inkscape:groupmode="layer"
     id="layer3"
     inkscape:label="speechbubbles" />
  <g
     inkscape:groupmode="layer"
     id="layer1"
     inkscape:label="txt">
    <path
       style="color:#000000;fill:#ffffff;fill-opacity:1;fill-rule:nonzero;stroke:none;stroke-width:1px;marker:none;visibility:visible;display:inline;overflow:visible;enable-background:accumulate"
       d="m 524.44684,1977.3621 c -14.01377,-46.3951 -40.00882,-95.7772 -45.79925,-144.3988 l -11.44029,45.6542 c -62.91152,-129.7986 -216.9307,-210.2683 -37.93418,5.9274 l 4.61436,-21.5395 c 6.85365,14.1808 24.60331,28.6882 28.47492,44.653 l 15.40082,-17.4241 c 13.28656,38.1411 31.12227,58.0858 46.68362,87.1278 z"
       id="path4032-9"
       inkscape:connector-curvature="0"
       sodipodi:nodetypes="cccccccc" />
    <path
       style="color:#000000;fill:#ffffff;fill-opacity:1;fill-rule:nonzero;stroke:none;stroke-width:1px;marker:none;visibility:visible;display:inline;overflow:visible;enable-background:accumulate"
       d="m 734.33747,2852.147 c 34.68316,-42.7494 111.27433,-68.3456 171.06944,-6.0348 45.90017,-4.9397 81.26643,-4.2641 125.92729,48.6318 -41.84055,-33.4484 -69.35796,-47.6353 -136.48501,-35.9449 -35.82358,-28.4476 -90.54377,-19.0565 -121.82817,39.1849 -31.28451,58.2414 -17.69437,44.59 -17.69437,44.59 l -30.80741,-73.5852 z"
       id="path5074-3-6"
       inkscape:connector-curvature="0"
       sodipodi:nodetypes="ccccsccc" />
    <path
       style="color:#000000;fill:#ffffff;fill-opacity:1;fill-rule:nonzero;stroke:none;stroke-width:1px;marker:none;visibility:visible;display:inline;overflow:visible;enable-background:accumulate"
       d="m 921.73639,1713.3647 c 38.32906,18.6277 26.56293,53.657 -17.25459,29.5292 30.4647,35.9116 50.91128,52.0261 35.37649,66.5249 113.16101,-28.688 40.12509,17.6202 12.35589,45.6958 25.2138,-11.1892 65.39632,-42.7141 50.24712,0.9326 8.0165,-2.0071 17.4491,-7.7553 21.4169,0.9326 10.2141,-5.9994 17.8025,-7.54 22.2405,-3.7303 10.0387,-10.9178 16.5252,-13.7923 16.4745,-1.865 9.4908,-8.9943 12.4136,-5.8987 14.827,-1.8652 16.2884,-19.3104 22.3718,-13.8628 28.8303,-9.3257 9.2223,-11.5941 20.0147,-8.9681 32.1252,5.5954 12.3911,-19.7186 25.706,-18.519 39.5387,-5.5954 4.0629,-4.8576 7.7526,-13.0937 13.1796,-5.5954 5.4916,-2.5937 10.9829,-9.2401 16.4744,-2.7977 57.96,-25.5257 83.2408,-3.9641 110.3791,14.921 15.1317,-8.3376 26.0358,-24.4528 51.8945,-13.0558 2.4173,-11.638 16.2824,-16.3634 40.3625,-14.9211 -24.6985,-14.0451 -25.9691,-22.0409 31.3015,-14.9211 -39.9179,-11.5016 -76.7041,-23.0032 -14.8271,-34.5049 -14.4922,-4.5662 -61.8613,6.1755 -9.8847,-48.4933 -36.9085,12.0657 -70.4145,15.2007 -80.7249,-33.5725 -19.9115,12.8266 -41.9579,19.1806 -59.3081,-10.2582 -15.8027,13.7936 -37.9137,10.4819 -49.4234,3.7302 -3.114,15.1069 -26.6303,38.2752 -58.4843,-3.7302 6.989,23.8751 1.6991,61.9029 -35.4201,-0.9326 -0.7362,10.9306 14.5493,70.3734 -88.9621,-0.9326 12.9121,47.8406 -21.4561,20.0035 -48.59972,3.7302 13.46032,29.9949 -6.7969,32.3145 -51.0709,14.9211 34.1543,28.4805 -0.96419,20.6172 -23.06429,19.584 z"
       id="path3549-2"
       inkscape:connector-curvature="0"
       sodipodi:nodetypes="ccccccccccccccccccccccccccccc" />
    <path
       style="color:#000000;fill:#ffffff;fill-opacity:1;fill-rule:nonzero;stroke:none;stroke-width:1px;marker:none;visibility:visible;display:inline;overflow:visible;enable-background:accumulate"
       d="m 668.18509,1756.655 c 72.73889,15.425 146.87804,30.5991 23.0766,81.2353 119.82123,-16.2519 47.80788,11.8906 19.42904,29.935 213.12333,-41.4052 77.88276,17.8474 27.3339,52.6287 47.08763,-14.8404 120.99023,-54.5176 95.77122,-2.3845 55.56227,-26.6335 142.70983,-74.8686 40.86518,-0.39 85.6957,-45.8924 87.60011,-41.119 42.04578,-5.9045 56.08593,-31.4082 65.6844,-25.9232 59.30196,-6.5312 35.31953,-40.6127 43.11463,-22.5251 54.13023,-12.9095 16.5986,-14.208 37.3708,-11.8811 61.6468,4.3267 21.9574,-23.9364 47.4148,1.4801 47.5338,24.3218 18.1421,-34.413 48.1517,-39.2878 76.2017,-0.9563 0.548,-22.9435 0.1371,-71.9868 43.2754,-0.077 -11.2879,-65.7771 128.7576,-37.9895 196.2874,3.324 -39.7473,-48.2731 -5.8826,-79.0486 76.5111,-56.8129 3.6349,-13.7886 29.6474,-20.2784 75.627,-20.2561 -48.2062,-14.7301 -51.2914,-24.0007 58.3708,-19.6293 -76.9792,-10.7004 -147.9942,-21.6174 -31.1089,-39.3597 -27.98,-4.3417 -117.2986,11.5073 -22.8605,-56.0738 -69.2869,16.6752 -132.8368,22.6623 -156.531,-33.7096 -36.8535,16.3899 -78.3112,25.3519 -113.8035,-7.9038 -28.948,17.2375 -71.3329,14.8911 -93.8146,7.7849 -4.6733,17.8968 -47.5312,46.6403 -111.6914,-0.3202 15.2969,27.4604 8.3872,72.3351 -67.5338,1.3589 -0.4922,12.8442 33.5647,81.36 -169.50248,5.0624 28.57186,55.1004 -39.19749,24.8968 -92.2458,7.7278 28.13069,34.1756 -10.2553,38.2919 -96.02066,20.9969 67.41551,30.9716 -0.12068,24.1975 -42.29527,24.517 z"
       id="path3549"
       inkscape:connector-curvature="0"
       sodipodi:nodetypes="ccccccccccccccccccccccccccccc" />
    <path
       style="color:#000000;fill:#ffffff;fill-opacity:1;fill-rule:nonzero;stroke:none;stroke-width:1px;marker:none;visibility:visible;display:inline;overflow:visible;enable-background:accumulate"
       d="m 449.5896,426.349 c 35.58346,-34.48897 229.12525,-31.54474 293.52019,-16.60243 64.39467,14.94213 88.35552,40.67597 91.3506,49.80737 2.99494,9.13132 -4.4926,51.46759 -37.43886,59.7689 -32.94607,8.30121 -127.29175,12.45182 -160.238,12.45182 -32.94607,0 -138.11741,-5.2837 -164.73088,-17.43262 C 446.59424,502.72032 414.00599,460.83788 449.5896,426.349 z"
       id="path3330"
       inkscape:connector-curvature="0"
       sodipodi:nodetypes="zsssssz" />
    <path
       style="color:#000000;display:inline;overflow:visible;visibility:visible;fill:#ffffff;fill-opacity:1;fill-rule:nonzero;stroke:none;stroke-width:1px;marker:none;enable-background:accumulate"
       d="m 422.86453,679.41782 c -11.42076,-60.08041 10.48691,-207.70217 244.61339,-194.55952 234.12629,13.14241 261.36657,82.72228 277.90602,110.77304 8.50465,18.62651 81.06346,144.63427 -102.94559,168.38164 -186.24527,24.03598 -405.20801,0.0607 -419.57382,-84.59516 z"
       id="path3525"
       inkscape:connector-curvature="0"
       sodipodi:nodetypes="cscsc" />
    <flowRoot
       xml:space="preserve"
       id="flowRoot2987-4-9-3"
       style="font-style:normal;font-variant:normal;font-weight:normal;font-stretch:normal;line-height:0.01%;font-family:Lavi;-inkscape-font-specification:Lavi;text-align:center;letter-spacing:0px;word-spacing:0px;text-anchor:middle;fill:#000000;fill-opacity:1;stroke:none"
       transform="translate(254.25324,274.46982)"><flowRegion
         id="flowRegion2989-5-4-5"><rect
           id="rect2991-7-9-6"
           width="602.40173"
           height="310.73996"
           x="120.55251"
           y="265.53046"
           style="font-style:normal;font-variant:normal;font-weight:normal;font-stretch:normal;font-family:Lavi;-inkscape-font-specification:Lavi;text-align:center;text-anchor:middle" /></flowRegion><flowPara
         style="font-size:48px;line-height:1.25;text-align:center;text-anchor:middle"
         id="flowPara4658">... som vanleg</flowPara><flowPara
         style="font-size:48px;line-height:1.25;text-align:center;text-anchor:middle"
         id="flowPara3487">dreg alle når det</flowPara><flowPara
         style="font-size:48px;line-height:1.25;text-align:center;text-anchor:middle"
         id="flowPara3489">er vår tur.</flowPara></flowRoot>    <flowRoot
       transform="translate(208.59665,162.53048)"
       style="font-style:normal;font-variant:normal;font-weight:normal;font-stretch:normal;line-height:0.01%;font-family:Lavi;-inkscape-font-specification:Lavi;text-align:center;letter-spacing:0px;word-spacing:0px;text-anchor:middle;fill:#000000;fill-opacity:1;stroke:none"
       id="flowRoot3045"
       xml:space="preserve"><flowRegion
         id="flowRegion3047"><rect
           style="font-style:normal;font-variant:normal;font-weight:normal;font-stretch:normal;font-family:Lavi;-inkscape-font-specification:Lavi;text-align:center;text-anchor:middle"
           y="265.53046"
           x="120.55251"
           height="310.73996"
           width="602.40173"
           id="rect3049" /></flowRegion><flowPara
         id="flowPara3055"
         style="font-size:48px;line-height:1.25;text-align:center;text-anchor:middle">Og vips! ... </flowPara></flowRoot>    <path
       style="color:#000000;fill:#ffffff;fill-opacity:1;fill-rule:nonzero;stroke:none;stroke-width:1px;marker:none;visibility:visible;display:inline;overflow:visible;enable-background:accumulate"
       d="m 900.08615,716.05926 c 42.51329,20.49356 123.80235,14.32923 138.26235,-30.35733 -49.15569,36.55167 -109.63611,20.90132 -120.75593,10.89767 -11.11981,-10.00366 -17.50642,19.45966 -17.50642,19.45966 z"
       id="path3978"
       inkscape:connector-curvature="0" />
    <path
       style="color:#000000;display:inline;overflow:visible;visibility:visible;fill:#ffffff;fill-opacity:1;fill-rule:nonzero;stroke:none;stroke-width:1px;marker:none;enable-background:accumulate"
       d="m 1554.582,795.42187 c 57.8977,-93.44304 358.9697,-89.38513 452.0815,-48.90103 93.1111,40.48363 109.8228,114.12494 112.8812,138.86522 3.0584,24.74003 -14.4146,139.44424 -64.4578,161.93554 -50.0428,22.491 -190.389,33.7364 -239.1803,33.7364 -48.7913,0 -210.0172,-12.7478 -247.5981,-45.6637 -35.9497,-31.4874 -71.6246,-146.52961 -13.7265,-239.97243 z"
       id="path3330-3"
       inkscape:connector-curvature="0"
       sodipodi:nodetypes="zsssssz" />
    <path
       style="color:#000000;fill:#ffffff;fill-opacity:1;fill-rule:nonzero;stroke:none;stroke-width:1px;marker:none;visibility:visible;display:inline;overflow:visible;enable-background:accumulate"
       d="m 1441.4333,792.86046 c 1.8123,17.9111 3.4719,36.60072 12.514,52.57918 2.6665,4.48827 5.7379,8.94714 9.7431,12.29849 4.9422,2.55729 10.902,0.92324 14.9972,-2.48609 6.2588,-4.50938 10.9613,-11.84776 18.8831,-13.58596 5.7972,-1.12556 10.4379,3.16953 14.6457,6.42604 10.5623,8.51108 20.0337,18.50261 31.8998,25.28467 12.8634,8.50453 27.0155,16.51979 42.7488,17.47511 6.2316,0.27366 12.7888,-0.31154 18.2031,-3.68195 14.2818,-8.01643 24.173,-24.34511 22.834,-40.90808 -1.8569,-10.48428 -12.9332,-19.03038 -23.5991,-16.39316 -5.6511,1.30784 -9.507,6.21921 -11.5244,11.3814 -5.4816,8.7963 -15.7551,13.86937 -26.0014,13.88113 -8.456,0.14805 -16.8709,-2.36044 -24.0764,-6.73748 -11.3704,-3.36484 -18.2685,-13.64874 -26.3598,-21.52774 -3.7502,-3.54453 -7.9795,-7.06083 -13.0234,-8.42848 -7.6564,-0.23923 -13.3775,5.76673 -17.631,11.40618 -4.5368,5.70318 -9.1549,12.83128 -16.9484,14.04463 -5.2949,1.57023 -8.0628,-4.3141 -11.2198,-7.42808 -8.8564,-11.35341 -14.0534,-25.32791 -16.0433,-39.50562 -0.089,-1.36474 -0.067,-2.72787 -0.042,-4.09419 z"
       id="path4496"
       inkscape:connector-curvature="0"
       inkscape:transform-center-x="-99.717282"
       inkscape:transform-center-y="101.38562" />
    <path
       style="color:#000000;fill:#ffffff;fill-opacity:1;fill-rule:nonzero;stroke:none;stroke-width:1px;marker:none;visibility:visible;display:inline;overflow:visible;enable-background:accumulate"
       d="m 1725.0756,1115.0856 c 43.3771,-69.7642 285.0078,-78.229 363.5068,-48.0038 78.4985,30.2249 96.3108,74.7656 99.9619,93.2366 3.6508,18.4709 5.92,90.3998 -37.0913,126.384 -33.0463,27.6471 -158.0209,41.6381 -198.1833,41.6381 -40.162,0 -168.3685,-10.6878 -200.8109,-35.2627 -31.0346,-23.5085 -70.7605,-108.228 -27.3832,-177.9922 z"
       id="path3330-7"
       inkscape:connector-curvature="0"
       sodipodi:nodetypes="zsssssz" />
    <flowRoot
       xml:space="preserve"
       id="flowRoot2987-4-9-3-8-9"
       style="font-style:normal;font-variant:normal;font-weight:normal;font-stretch:normal;line-height:0.01%;font-family:Lavi;-inkscape-font-specification:Lavi;text-align:center;letter-spacing:0px;word-spacing:0px;writing-mode:lr-tb;text-anchor:middle;fill:#000000;fill-opacity:1;stroke:none"
       transform="translate(1528.9566,843.86619)"><flowRegion
         id="flowRegion2989-5-4-5-8-6"><rect
           id="rect2991-7-9-6-5-0"
           width="602.40173"
           height="310.73996"
           x="120.55251"
           y="265.53046"
           style="font-style:normal;font-variant:normal;font-weight:normal;font-stretch:normal;line-height:130.99999428%;font-family:Lavi;-inkscape-font-specification:Lavi;text-align:center;writing-mode:lr-tb;text-anchor:middle" /></flowRegion><flowPara
         style="font-size:48px;line-height:130.99999428%;text-align:center;writing-mode:lr-tb;text-anchor:middle"
         id="flowPara3528">... f<flowSpan
   style="font-size:42.5px"
   id="flowSpan3572">å</flowSpan> alt normalt </flowPara><flowPara
         style="font-size:48px;line-height:130.99999428%;text-align:center;writing-mode:lr-tb;text-anchor:middle"
         id="flowPara3524">att og koma oss </flowPara><flowPara
         style="font-size:48px;line-height:130.99999428%;text-align:center;writing-mode:lr-tb;text-anchor:middle"
         id="flowPara3274">heim!</flowPara></flowRoot>    <flowRoot
       xml:space="preserve"
       id="flowRoot2987-4-9-3-8-9-5"
       style="font-style:normal;font-variant:normal;font-weight:normal;font-stretch:normal;line-height:0.01%;font-family:Lavi;-inkscape-font-specification:Lavi;text-align:center;letter-spacing:0px;word-spacing:0px;text-anchor:middle;fill:#000000;fill-opacity:1;stroke:none"
       transform="translate(728.63817,1456.2787)"><flowRegion
         id="flowRegion2989-5-4-5-8-6-3"><rect
           id="rect2991-7-9-6-5-0-1"
           width="602.40173"
           height="310.73996"
           x="120.55251"
           y="265.53046"
           style="font-style:normal;font-variant:normal;font-weight:normal;font-stretch:normal;font-family:Lavi;-inkscape-font-specification:Lavi;text-align:center;text-anchor:middle" /></flowRegion><flowPara
         style="font-size:48px;line-height:1.25;text-align:center;text-anchor:middle"
         id="flowPara3211-2">Du din </flowPara></flowRoot>    <path
       style="color:#000000;fill:#ffffff;fill-opacity:1;fill-rule:nonzero;stroke:none;stroke-width:1px;marker:none;visibility:visible;display:inline;overflow:visible;enable-background:accumulate"
       d="m 799.55794,2061.6662 c 41.54476,-24.9583 79.49671,-56.3087 125.21587,-73.8403 l -43.51369,-5.8567 c 12.70794,-14.5474 33.04403,-20.2182 50.79008,-28.9032 l -26.26055,-7.9369 c 30.43962,-33.9774 70.07719,-50.7411 105.26895,-75.8248 l -46.93148,-10.2988 c -32.40962,29.4099 -59.34882,63.5475 -97.91175,87.6396 l 24.81802,10.2865 c -12.06842,10.1205 -24.58698,19.7921 -39.1159,27.4588 l 32.36116,10.2326 z"
       id="path4032"
       inkscape:connector-curvature="0"
       sodipodi:nodetypes="cccccccccccc" />
    <flowRoot
       transform="matrix(0.93080411,0,-0.09044116,1.21695,692.06542,1428.3539)"
       style="font-style:normal;font-variant:normal;font-weight:normal;font-stretch:normal;line-height:0.01%;font-family:Lavi;-inkscape-font-specification:Lavi;text-align:center;letter-spacing:0px;word-spacing:0px;text-anchor:middle;fill:#000000;fill-opacity:1;stroke:#000000;stroke-width:2.71217394;stroke-miterlimit:4;stroke-dasharray:none;stroke-opacity:1"
       id="flowRoot4212-3-7-8-6"
       xml:space="preserve"><flowRegion
         id="flowRegion4214-6-7-8-3"><rect
           style="font-style:normal;font-variant:normal;font-weight:normal;font-stretch:normal;font-family:Lavi;-inkscape-font-specification:Lavi;text-align:center;text-anchor:middle;stroke:#000000;stroke-width:2.71217394;stroke-miterlimit:4;stroke-dasharray:none;stroke-opacity:1"
           y="284.74136"
           x="84.744102"
           height="333.9072"
           width="914.18988"
           id="rect4216-4-0-26-5" /></flowRegion><flowPara
         style="font-size:48px;line-height:1.25;text-align:center;letter-spacing:5.20896292px;text-anchor:middle;stroke:#000000;stroke-width:2.71217394;stroke-miterlimit:4;stroke-dasharray:none;stroke-opacity:1"
         id="flowPara3048">svære snobbe-zombie-pippip!</flowPara></flowRoot>    <path
       style="fill:#ffffff;fill-opacity:1;stroke:none;stroke-width:1.1145277"
       d="m 826.84882,2927.3872 c -27.1373,-9.0519 -37.58673,-17.4668 -32.73256,-22.6524 -11.13058,-2.5842 -15.4676,-69.9532 -5.06896,-82.2681 0.69214,-1.2963 5.54933,-5.1861 3.46194,-5.8326 -2.08727,-0.6465 -14.59714,1.3047 -16.68927,-1.285 -2.09213,-2.59 18.67493,-39.5281 15.89078,-40.8221 -2.78438,-1.2936 -45.93196,-6.6867 -54.98448,-12.5113 -9.05268,-5.8245 -24.9781,9.3233 -27.76072,8.6771 3.28388,-18.78 -28.49752,3.2573 -31.97546,2.6117 -3.4777,-0.6458 -9.78267,-20.0758 -13.26052,-20.7213 -3.47795,-0.6456 -19.44661,8.4336 -22.22924,7.7878 -2.78263,-0.6461 -1.43174,-16.8422 -4.90969,-17.4875 -3.47786,-0.6458 -18.7385,13.6156 -20.82587,12.9693 -2.08732,-0.6466 -9.81479,-33.0321 -13.2958,-34.9733 -3.48108,-1.9411 -25.63696,35.6457 -27.72122,36.2949 -2.08407,0.6491 -15.40367,-44.0411 -18.1864,-44.6873 -2.78261,-0.646 -16.61129,30.4578 -18.69871,29.8113 -2.08737,-0.6465 -15.34174,-18.7769 -18.12587,-20.0706 -2.78423,-1.2937 -20.75914,40.1771 -23.54009,40.179 -2.78112,0 -26.46269,-17.474 -28.55649,-20.7116 -2.09373,-3.2377 -4.13007,16.8456 -6.91112,16.8474 -2.78105,0 -34.79139,-11.6385 -35.48517,-10.9903 -0.6936,0.6484 4.8987,12.9532 2.81295,12.9546 -2.08575,0 -34.80256,-16.1734 -36.18526,-12.9333 -1.38241,3.2399 -70.9558,-16.15 -75.81623,-13.5558 -4.86045,2.5945 31.41699,53.1002 27.95038,56.9892 -3.46676,3.8891 -15.99271,-0.6375 -16.68314,1.3063 -0.69042,1.944 7.67331,10.36 5.59408,12.9526 -2.07957,2.5925 -25.69283,12.9726 -27.77054,16.2126 -2.07788,3.2407 10.45742,11.6541 7.68126,13.5994 -2.77637,1.9452 -43.76637,14.2796 -44.45361,17.5191 -0.68724,3.2394 20.9038,18.7728 18.13398,23.3093 -2.76989,4.5364 -10.41296,6.4846 -9.70972,9.7233 0.70323,3.2387 13.9227,7.1171 13.23536,10.3565 -0.6874,3.2397 -7.60011,19.4391 -9.6795,22.0317 -2.07941,2.5925 14.60357,1.2862 14.60993,3.8774 0.006,2.5913 11.03876,18.7526 -26.58473,57.8149 57.80075,-30.1852 62.1828,-0.8304 85.13887,4.3374 22.95632,5.1679 13.99739,37.5638 17.47839,39.5051 3.48111,1.9413 29.17384,-11.0313 32.66129,-6.499 3.48738,4.5327 4.89852,12.9531 7.67966,12.9514 2.78089,0 25.85093,-13.2236 29.32868,-12.578 28.77672,-9.1879 39.75387,20.0608 33.96981,24.8461 4.8683,0.6446 23.61159,-11.0279 27.78159,-11.6783 4.16994,-0.6504 7.68593,15.5424 11.15906,14.2447 3.47315,-1.2976 25.69267,-12.9726 29.17199,-11.6791 3.47952,1.2935 6.27328,6.4741 9.05123,5.1765 2.77767,-1.2971 15.27967,-6.4876 15.27967,-6.4876 0,0 9.04785,3.881 13.21939,3.8784 4.17151,0 19.85686,-16.4257 23.32999,-17.7237 3.47311,-1.2977 35.62114,5.7033 50.56836,45.6416 -8.46006,-47.0792 24.77069,-51.3016 29.63273,-53.2482 4.86197,-1.9465 19.47679,3.8744 20.86233,1.9301 1.38581,-1.9444 5.53187,-12.3117 9.70192,-12.9623 4.16995,-0.6504 13.89711,-3.2476 13.89711,-3.2476 l -1.39997,-3.8861 c 0,0 29.22612,10.3462 32.712,14.2308 3.48578,3.8847 -2.12718,-16.8414 -4.22568,-22.0226 12.52721,5.1747 49.40293,16.1638 52.19183,19.401 2.78901,3.2373 -4.89525,-11.6576 -9.07801,-16.1895 5.56679,1.9401 10.4352,2.5849 10.4352,2.5849 l -16.02908,-15.5373 4.86369,-1.2987 c 0,0 -10.44632,-7.1194 -10.4543,-10.3585 -0.007,-3.2388 27.09737,-7.1431 27.09737,-7.1431 0,0 -11.13845,-5.8231 -8.3654,-9.0638 2.77327,-3.241 9.72096,-5.1887 9.72096,-5.1887 l 1.3698,-8.4223 z"
       id="path5888"
       inkscape:connector-curvature="0"
       sodipodi:nodetypes="ccccccccccsccccsccccccsccsccscsccccscccscccccscccccsccccscccccccccccc" />
    <flowRoot
       xml:space="preserve"
       id="flowRoot2987-4-9-3-0"
       style="font-style:normal;font-variant:normal;font-weight:normal;font-stretch:normal;line-height:0.01%;font-family:Lavi;-inkscape-font-specification:Lavi;text-align:center;letter-spacing:0px;word-spacing:0px;text-anchor:middle;fill:#000000;fill-opacity:1;stroke:none"
       transform="translate(128.11764,2529.9312)"><flowRegion
         id="flowRegion2989-5-4-5-1"><rect
           id="rect2991-7-9-6-4"
           width="602.40173"
           height="310.73996"
           x="120.55251"
           y="265.53046"
           style="font-style:normal;font-variant:normal;font-weight:normal;font-stretch:normal;font-family:Lavi;-inkscape-font-specification:Lavi;text-align:center;text-anchor:middle" /></flowRegion><flowPara
         style="font-size:48px;line-height:1.25;text-align:center;letter-spacing:1.5px;text-anchor:middle;stroke:#000000;stroke-width:1.10000002;stroke-miterlimit:4;stroke-dasharray:none;stroke-opacity:1"
         id="flowPara4687">Er du hypp på </flowPara><flowPara
         style="font-size:48px;line-height:1.25;text-align:center;letter-spacing:1.5px;text-anchor:middle;stroke:#000000;stroke-width:1.10000002;stroke-miterlimit:4;stroke-dasharray:none;stroke-opacity:1"
         id="flowPara3560">å smaka eit </flowPara><flowPara
         style="font-size:48px;line-height:1.25;text-align:center;letter-spacing:1.5px;text-anchor:middle;stroke:#000000;stroke-width:1.10000002;stroke-miterlimit:4;stroke-dasharray:none;stroke-opacity:1"
         id="flowPara3288">siste brygg?</flowPara></flowRoot>    <path
       style="fill:#ffffff;fill-opacity:1;stroke:none;stroke-width:1.00633633"
       d="m 1797.6547,3230.5768 c 72.1299,9.2637 47.8651,-26.8468 43.2704,-31.3229 17.5671,7.5114 47.4987,-0.7531 16.3639,-26.898 44.2371,10.4945 22.5829,5.5458 -3.1565,-22.5972 38.9651,14.3105 63.5365,5.2586 35.8588,-14.5811 39.7567,25.5105 53.7667,17.3663 28.4104,-14.3114 49.9962,32.8114 40.6406,20.4541 28.4568,4.2511 41.6359,29.5737 10.6939,-14.436 13.8775,-14.6743 3.1836,-0.2385 16.6549,7.7457 19.2146,7.4574 2.5594,-0.2883 2.8887,-12.5942 6.0724,-12.8325 3.1836,-0.2385 15.5258,11.6016 17.4613,11.2634 7.5089,4.1554 15.4159,-21.4113 15.2659,-25.4156 -3.2006,3.4727 15.1325,31.9332 21.4306,29.3396 1.8091,0.6379 23.1276,-32.7702 20.5814,-32.3895 -4.7489,0.7097 9.6237,24.4725 13.948,23.808 3.4385,4.4022 17.639,-6.5043 18.1833,-13.8366 -1.3375,2.0747 10.465,34.8982 17.3072,31.9693 3.0883,6.1564 25.9357,-6.0925 27.608,-13.5753 2.188,-2.2913 2.104,12.9939 4.6003,13.1937 -4.4049,7.5324 27.706,-1.3642 32.9026,-5.7521 0.5611,0.5382 -3.0976,8.0051 -3.7585,9.565 -3.5621,8.4067 25.7949,0.9106 33.716,-7.167 -30.5486,40.3095 58.6228,0.8253 69.3536,-4.8076 4.1163,2.3029 -33.2599,37.7873 -30.5181,40.9665 2.742,3.1794 14.4181,0.6609 14.8526,2.1763 0.4347,1.5147 -7.875,7.2623 -6.2554,9.3651 1.6201,2.1027 21.8302,11.6133 23.387,14.2042 1.5569,2.5912 -10.4977,8.039 -8.1905,9.7036 2.3073,1.6647 37.9308,13.8886 38.2392,16.3796 0.3087,2.4911 -20.5533,12.6601 -18.4985,16.2776 2.0548,3.6175 8.7305,5.6317 7.791,8.023 -0.9397,2.3912 -13.1766,4.3714 -12.868,6.8626 0.3087,2.4912 4.972,15.1967 6.5919,17.2993 1.6199,2.1029 -13.2325,-0.073 -13.4848,1.8804 -0.2581,1.9525 -39.9363,8.9442 21.547,45.6571 -66.7787,-23.4457 -58.9303,-5.2401 -80.0308,-2.9829 -21.1008,2.2573 -16.1426,27.3186 -19.4524,28.5336 -3.3098,1.2148 -25.1399,-10.3983 -28.7023,-7.2305 -3.5624,3.1678 -5.6309,9.4151 -8.1276,9.2152 -2.4962,-0.1985 -21.948,-11.8138 -25.1315,-11.5755 -24.9592,-8.98 -37.5985,12.2855 -32.8615,16.3057 -4.4319,0.1386 -20.1472,-9.9987 -23.8288,-10.7866 -3.6815,-0.788 -8.3798,11.1681 -11.3741,9.9419 -2.9944,-1.2261 -21.83,-11.6133 -25.0766,-10.8865 -3.247,0.7267 -6.2483,4.4329 -8.6185,3.2562 -2.3702,-1.176 -13.0994,-5.9812 -13.0994,-5.9812 0,0 -8.4922,2.28 -12.2368,1.9802 -3.7449,-0.2977 -27.2507,-18.4597 -30.2449,-19.686 -2.9945,-1.2263 -55.4173,24.318 -53.9236,27.3974 1.4937,3.0795 -2.1838,-32.382 -6.3632,-34.1965 -4.1794,-1.8144 -17.8539,1.5306 -18.9125,-0.034 -1.0591,-1.5646 -3.7941,-9.6759 -7.4757,-10.464 -3.6817,-0.788 -12.1667,-3.4402 -12.1667,-3.4402 l 1.6269,-2.8298 c 0,0 -27.2225,5.7137 -30.7217,8.3933 -3.4993,2.6795 3.5132,-12.5442 5.8905,-16.3004 -11.7388,3.0069 -45.8899,8.659 -48.7017,10.9004 -2.8121,2.2412 5.5044,-8.4387 9.691,-11.5566 -5.1821,1.0652 -9.6141,1.2037 -9.6141,1.2037 l 15.8692,-10.5686 -4.2428,-1.3261 c 0,0 10.056,-4.6215 10.3714,-7.0627 0.3196,-2.4407 -23.646,-7.3189 -23.646,-7.3189 73.2275,1.3539 20.1202,-16.6427 -8.4572,-22.3822 z"
       id="path5888-2"
       inkscape:connector-curvature="0"
       sodipodi:nodetypes="ccccccccsccccsccccccsccsccscsccccscccscccccscccccsccccsccccccccc" />
    <path
       style="color:#000000;fill:#ffffff;fill-opacity:1;fill-rule:nonzero;stroke:none;stroke-width:1px;marker:none;visibility:visible;display:inline;overflow:visible;enable-background:accumulate"
       d="m 1949.2127,3186.2754 c -39.3897,38.4564 -118.4251,55.0326 -170.6211,-13.769 -46.1636,-0.3962 -81.2149,-5.1531 -119.4658,-62.8545 37.6962,38.0583 63.3903,55.3293 131.4185,51.4723 32.2972,32.3957 87.7359,29.3893 125.5394,-24.8478 37.8036,-54.2372 22.7273,-42.2473 22.7273,-42.2473 l 22.0999,76.6516 z"
       id="path5074-3"
       inkscape:connector-curvature="0"
       sodipodi:nodetypes="ccccsccc" />
    <flowRoot
       xml:space="preserve"
       id="flowRoot2987-4-9-3-0-3"
       style="font-style:normal;font-variant:normal;font-weight:normal;font-stretch:normal;line-height:0.01%;font-family:Lavi;-inkscape-font-specification:Lavi;text-align:center;letter-spacing:0px;word-spacing:0px;text-anchor:middle;fill:#000000;fill-opacity:1;stroke:none"
       transform="translate(1636.9858,2911.2096)"><flowRegion
         id="flowRegion2989-5-4-5-1-6"><rect
           id="rect2991-7-9-6-4-7"
           width="602.40173"
           height="310.73996"
           x="120.55251"
           y="265.53046"
           style="font-style:normal;font-variant:normal;font-weight:normal;font-stretch:normal;font-family:Lavi;-inkscape-font-specification:Lavi;text-align:center;text-anchor:middle" /></flowRegion><flowPara
         style="font-size:48px;line-height:1.25;text-align:center;letter-spacing:1.5px;text-anchor:middle;stroke:#000000;stroke-width:1.10000002;stroke-miterlimit:4;stroke-dasharray:none;stroke-opacity:1"
         id="flowPara4202">... ikkje eigentleg, </flowPara><flowPara
         style="font-size:48px;line-height:1.25;text-align:center;letter-spacing:1.5px;text-anchor:middle;stroke:#000000;stroke-width:1.10000002;stroke-miterlimit:4;stroke-dasharray:none;stroke-opacity:1"
         id="flowPara3296">eller?</flowPara></flowRoot>    <path
       style="color:#000000;fill:#ffffff;fill-opacity:1;fill-rule:nonzero;stroke:none;stroke-width:1px;marker:none;visibility:visible;display:inline;overflow:visible;enable-background:accumulate"
       d="m 432.9877,1582.757 c -4.62527,14.1556 -29.80658,59.4538 -38.06244,16.2093 -42.3877,66.8706 -90.94164,55.4388 -139.14497,48.4577 -9.52731,19.5362 -7.09875,46.1647 -46.96241,47.7053 7.95498,15.9183 -3.45476,30.2003 -32.14335,43.0229 40.98017,2.4517 49.77676,11.6093 -21.84737,37.5242 55.93525,-9.943 108.31222,-17.9855 48.57741,33.848 20.66662,-3.1249 64.61473,-45.2102 55.82445,54.2176 30.8443,-37.3814 66.03449,-61.6079 122.59982,-7.3014 10.83096,-28.0111 30.03942,-49.2804 76.82521,-23.2543 5.27288,-26.7184 55.3579,-38.7619 74.64488,-37.3629 -41.4714,-20.5081 -42.72921,-38.0996 7.62637,-50.843 -92.48457,-33.4472 -21.82215,-39.6374 -9.97409,-55.1095 -69.36813,-4.1008 -42.62685,-31.5667 -33.87821,-55.3999 -76.91874,14.4742 -56.82784,-24.9365 -64.0853,-51.714 z"
       id="path3549-3"
       inkscape:connector-curvature="0"
       sodipodi:nodetypes="ccccccccccccccc" />
    <flowRoot
       transform="matrix(1.8217115,0,-0.17700578,1.8738433,-535.05413,1190.8474)"
       style="font-style:normal;font-variant:normal;font-weight:normal;font-stretch:normal;line-height:0.01%;font-family:Lavi;-inkscape-font-specification:Lavi;text-align:center;letter-spacing:0px;word-spacing:0px;text-anchor:middle;fill:#000000;fill-opacity:1;stroke:#000000;stroke-width:2.71217394;stroke-miterlimit:4;stroke-dasharray:none;stroke-opacity:1"
       id="flowRoot4212-3-7-8-6-5"
       xml:space="preserve"><flowRegion
         id="flowRegion4214-6-7-8-3-6"><rect
           style="font-style:normal;font-variant:normal;font-weight:normal;font-stretch:normal;font-family:Lavi;-inkscape-font-specification:Lavi;text-align:center;text-anchor:middle;stroke:#000000;stroke-width:2.71217394;stroke-miterlimit:4;stroke-dasharray:none;stroke-opacity:1"
           y="265.53046"
           x="120.55251"
           height="355.03918"
           width="798.1947"
           id="rect4216-4-0-26-5-2" /></flowRegion><flowPara
         style="font-size:48px;line-height:1.25;text-align:center;letter-spacing:1.45219982px;text-anchor:middle;stroke:#000000;stroke-width:2.71217394;stroke-miterlimit:4;stroke-dasharray:none;stroke-opacity:1"
         id="flowPara4358-7-1-6">HEI!</flowPara></flowRoot>    <flowRoot
       xml:space="preserve"
       id="flowRoot4133-6-9-4-8-5-3"
       style="color:#000000;font-style:normal;font-variant:normal;font-weight:normal;font-stretch:normal;line-height:0.01%;font-family:Arial;-inkscape-font-specification:Arial;letter-spacing:0.00204969px;word-spacing:0px;display:inline;overflow:visible;visibility:visible;fill:#ffffff;fill-opacity:1;fill-rule:nonzero;stroke:#ffffff;stroke-width:0.0836072;stroke-linecap:butt;stroke-linejoin:miter;stroke-miterlimit:4;stroke-dasharray:none;stroke-dashoffset:0;stroke-opacity:1;marker:none;filter:url(#filter4375-4-1-1-15-1-3-3);enable-background:accumulate"
       transform="matrix(8.3099216,-5.4900388,-0.26452567,16.18078,-7093.1327,-9087.3999)"><flowRegion
         id="flowRegion4135-2-9-3-5-2-6"
         style="stroke-width:0.86646658"><rect
           id="rect4137-1-7-1-2-1-4"
           width="200.00224"
           height="39.051064"
           x="1125.3193"
           y="1078.5308"
           style="color:#000000;letter-spacing:0.00204969px;display:inline;overflow:visible;visibility:visible;fill:#ffffff;fill-opacity:1;fill-rule:nonzero;stroke:#ffffff;stroke-width:0.0836072;stroke-linecap:butt;stroke-linejoin:miter;stroke-miterlimit:4;stroke-dasharray:none;stroke-dashoffset:0;stroke-opacity:1;marker:none;filter:url(#filter4375-4-1-1-15-1-3-3);enable-background:accumulate" /></flowRegion><flowPara
         id="flowPara4139-2-8-6-8-6-3"
         style="color:#000000;font-style:normal;font-variant:normal;font-weight:normal;font-stretch:normal;font-size:17.85409164px;line-height:125%;font-family:Lavi;-inkscape-font-specification:Lavi;letter-spacing:0.00204969px;word-spacing:0.00204969px;display:inline;overflow:visible;visibility:visible;fill:#ffffff;fill-opacity:1;fill-rule:nonzero;stroke:#ffffff;stroke-width:0.0836072;stroke-linecap:butt;stroke-linejoin:miter;stroke-miterlimit:4;stroke-dasharray:none;stroke-dashoffset:0;stroke-opacity:1;marker:none;filter:url(#filter4375-4-1-1-15-1-3-3);enable-background:accumulate"><flowSpan
           id="flowSpan3548"
           style="font-size:17.77516937px">K</flowSpan><flowSpan
           id="flowSpan3552"
           style="font-size:13.00622177px">N</flowSpan><flowSpan
           id="flowSpan3122"
           style="font-size:8.7063818px">A</flowSpan><flowSpan
           id="flowSpan3556"
           style="font-size:8.23727322px">S</flowSpan><flowSpan
           id="flowSpan3126"
           style="font-size:7.83930063px">!</flowSpan></flowPara></flowRoot>    <flowRoot
       xml:space="preserve"
       id="flowRoot2987-4-9-3-8"
       style="font-style:normal;font-variant:normal;font-weight:normal;font-stretch:normal;line-height:0.01%;font-family:Lavi;-inkscape-font-specification:Lavi;text-align:center;letter-spacing:0px;word-spacing:0px;text-anchor:middle;fill:#000000;fill-opacity:1;stroke:none"
       transform="translate(1402.4486,510.78129)"><flowRegion
         id="flowRegion2989-5-4-5-8"><rect
           id="rect2991-7-9-6-5"
           width="597.69885"
           height="300.55035"
           x="120.55251"
           y="265.53046"
           style="font-style:normal;font-variant:normal;font-weight:normal;font-stretch:normal;line-height:137.99999952%;font-family:Lavi;-inkscape-font-specification:Lavi;text-align:center;text-anchor:middle" /></flowRegion><flowPara
         style="font-size:48px;line-height:137.99999952%;text-align:center;text-anchor:middle"
         id="flowPara3140">I det minste har eg </flowPara><flowPara
         style="font-size:48px;line-height:137.99999952%;text-align:center;text-anchor:middle"
         id="flowPara3515">ein idé om kva me kan </flowPara><flowPara
         style="font-size:48px;line-height:137.99999952%;text-align:center;text-anchor:middle"
         id="flowPara3246">gjera med «brygget» </flowPara><flowPara
         style="font-size:48px;line-height:137.99999952%;text-align:center;text-anchor:middle"
         id="flowPara3505">ditt, Gulrot.</flowPara></flowRoot>  </g>
</svg>
