<?xml version="1.0" encoding="UTF-8" standalone="no"?>
<!-- Created with Inkscape (http://www.inkscape.org/) -->

<svg
   xmlns:dc="http://purl.org/dc/elements/1.1/"
   xmlns:cc="http://creativecommons.org/ns#"
   xmlns:rdf="http://www.w3.org/1999/02/22-rdf-syntax-ns#"
   xmlns:svg="http://www.w3.org/2000/svg"
   xmlns="http://www.w3.org/2000/svg"
   xmlns:xlink="http://www.w3.org/1999/xlink"
   xmlns:sodipodi="http://sodipodi.sourceforge.net/DTD/sodipodi-0.dtd"
   xmlns:inkscape="http://www.inkscape.org/namespaces/inkscape"
   id="svg2"
   version="1.1"
   inkscape:version="0.92.2 2405546, 2018-03-11"
   width="2481"
   height="3503"
   sodipodi:docname="E27P03.svg">
  <metadata
     id="metadata8">
    <rdf:RDF>
      <cc:Work
         rdf:about="">
        <dc:format>image/svg+xml</dc:format>
        <dc:type
           rdf:resource="http://purl.org/dc/dcmitype/StillImage" />
        <dc:title />
      </cc:Work>
    </rdf:RDF>
  </metadata>
  <defs
     id="defs6">
    <filter
       style="color-interpolation-filters:sRGB"
       id="filter4375-4-1-1-1-9"
       inkscape:label="deevad outline effect">
      <feFlood
         id="feFlood4377-7-9-0-8-1"
         flood-opacity="1"
         flood-color="rgb(0,0,0)"
         result="flood" />
      <feComposite
         id="feComposite4379-3-8-8-2-77"
         in2="SourceGraphic"
         in="flood"
         operator="in"
         result="composite1" />
      <feMorphology
         id="feMorphology4393-1-0-49-8-9"
         operator="dilate"
         radius="4"
         result="result3" />
      <feComposite
         id="feComposite4385-9-5-7-0-8"
         in2="result3"
         in="SourceGraphic"
         operator="over"
         result="composite2" />
    </filter>
    <filter
       style="color-interpolation-filters:sRGB"
       id="filter4375-4-1-1-1-9-5"
       inkscape:label="deevad outline effect">
      <feFlood
         id="feFlood4377-7-9-0-8-1-8"
         flood-opacity="1"
         flood-color="rgb(0,0,0)"
         result="flood" />
      <feComposite
         id="feComposite4379-3-8-8-2-77-0"
         in2="SourceGraphic"
         in="flood"
         operator="in"
         result="composite1" />
      <feMorphology
         id="feMorphology4393-1-0-49-8-9-0"
         operator="dilate"
         radius="4"
         result="result3" />
      <feComposite
         id="feComposite4385-9-5-7-0-8-0"
         in2="result3"
         in="SourceGraphic"
         operator="over"
         result="composite2" />
    </filter>
  </defs>
  <sodipodi:namedview
     pagecolor="#ffffff"
     bordercolor="#666666"
     borderopacity="1"
     objecttolerance="10"
     gridtolerance="10"
     guidetolerance="10"
     inkscape:pageopacity="0"
     inkscape:pageshadow="2"
     inkscape:window-width="1614"
     inkscape:window-height="1025"
     id="namedview4"
     showgrid="false"
     inkscape:zoom="0.22740993"
     inkscape:cx="879.06152"
     inkscape:cy="1550.9388"
     inkscape:window-x="298"
     inkscape:window-y="26"
     inkscape:window-maximized="0"
     inkscape:current-layer="layer3"
     inkscape:snap-global="false" />
  <g
     inkscape:groupmode="layer"
     id="layer2"
     inkscape:label="artwork"
     sodipodi:insensitive="true">
    <image
       sodipodi:absref="/home/midgard/git/peppercarrot/comics/ep27_Coriander-s-Invention/lang/fi/../gfx_Pepper-and-Carrot_by-David-Revoy_E27P03.png"
       xlink:href="../gfx_Pepper-and-Carrot_by-David-Revoy_E27P03.png"
       y="0"
       x="0"
       id="image10"
       height="3503"
       width="2481" />
  </g>
  <g
     inkscape:groupmode="layer"
     id="layer3"
     inkscape:label="speechbubbles">
    <path
       style="fill:#ffffff;fill-rule:evenodd;stroke:none;stroke-width:1.05896056px;stroke-linecap:butt;stroke-linejoin:miter;stroke-opacity:1"
       d="m 1182.9543,1575.3738 c 2.5779,-55.8541 0.9661,-94.0323 21.6002,-107.5615 20.6343,-13.529 177.4077,-13.9309 190.0546,-12.9046 12.6471,1.0264 39.4665,7.3205 50.588,4.1053 11.1214,-3.2151 43.3353,-4.2434 60.2672,-0.4937 16.9322,3.7496 90.0659,4.2495 98.8026,15.4109 8.7366,11.1616 30.5629,41.8742 30.1617,76.2082 -0.4014,34.3339 -10.4294,52.3394 -21.0928,71.2705 -10.6635,18.931 -48.9804,46.1505 -71.4315,45.4371 -22.4511,-0.7134 -97.3701,2.3795 -109.9753,2.7819 -12.6055,0.4024 -90.9138,7.1922 -117.5253,8.0417 -26.6111,0.8494 -67.186,-12.5504 -94.3804,-31.7029 -27.1941,-19.1526 -37.069,-70.5929 -37.069,-70.5929 z"
       id="path263"
       inkscape:connector-curvature="0"
       sodipodi:nodetypes="ccccccccssccc" />
    <path
       style="fill:#ffffff;fill-rule:evenodd;stroke:none;stroke-width:1px;stroke-linecap:butt;stroke-linejoin:miter;stroke-opacity:1"
       d="m 1252.6692,1467.8179 c 0,0 -14.7372,-14.1832 -28.1318,-24.3459 -13.1591,-9.9839 -23.1743,-37.0399 -19.4243,-57.7963 -18.1089,29.447 -5.815,53.6299 11.889,81.0614 15.1315,24.8588 35.6671,1.0808 35.6671,1.0808 z"
       id="path265"
       inkscape:connector-curvature="0"
       sodipodi:nodetypes="csccc" />
    <path
       style="fill:#ffffff;fill-rule:evenodd;stroke:none;stroke-width:0.93727684px;stroke-linecap:butt;stroke-linejoin:miter;stroke-opacity:1"
       d="m 1946.1714,1847.3171 c 25.3001,-32.1252 81.0548,-48.9303 124.7551,-49.8226 43.7002,-0.8924 158.7008,8.9236 196.6509,24.0939 37.9501,15.1701 73.0458,32.8676 69.5959,76.5933 -3.4501,43.7259 -13.8002,89.2363 -20.7002,105.299 -6.9,16.0625 -28.75,41.0487 -50.6001,55.3265 -21.8502,14.2778 -96.6006,17.8473 -123.0506,17.8473 -26.4502,0 -118.4506,-10.7084 -138.0007,-24.0939 -19.5501,-13.3854 -59.8003,-35.6945 -66.7004,-75.8508 -6.9,-40.1564 -3.45,-105.2989 8.0501,-129.3927 z"
       id="path267"
       inkscape:connector-curvature="0"
       sodipodi:nodetypes="csccccscsc" />
    <path
       style="fill:#ffffff;fill-rule:evenodd;stroke:none;stroke-width:1px;stroke-linecap:butt;stroke-linejoin:miter;stroke-opacity:1"
       d="m 1825.1743,1897.7489 c 53.571,-19.7367 111.3904,-9.3727 131.1271,16.0031 19.7367,25.3757 16.4282,45.0866 16.4282,45.0866 l -21.6164,9.3985 c 0,14.3171 5.8835,-17.1392 -7.2743,-30.7446 -12.9359,-13.376 -35.6882,-34.1046 -57.3046,-37.8639 -21.6164,-3.7594 -50.0819,-2.8196 -61.36,-1.8797 z"
       id="path269"
       inkscape:connector-curvature="0"
       sodipodi:nodetypes="ccccscc" />
    <path
       style="fill:#ffffff;fill-rule:evenodd;stroke:none;stroke-width:0.90655214px;stroke-linecap:butt;stroke-linejoin:miter;stroke-opacity:1"
       d="m 274.19036,2439.0045 c 22.52366,-15.1003 74.32806,-19.5417 96.85172,-24.8712 22.52366,-5.3295 52.93059,-0.8882 67.57097,-1.7764 14.64037,-0.8884 55.18295,-5.3295 66.44477,-4.4413 11.26183,0.8882 83.33754,5.3295 97.9779,6.2177 14.64038,0.8883 77.70662,5.3295 84.46372,22.2064 6.75709,16.8769 27.02838,49.7424 16.89274,65.7311 -10.13565,15.9886 -22.52366,43.5245 -51.80441,53.2953 -29.28076,9.7709 -74.32806,25.7595 -127.25865,27.536 -52.9306,1.7765 -126.13247,-5.3295 -137.3943,-5.3295 -11.26183,0 -70.94951,0.8882 -94.59935,-21.3182 -23.64984,-22.2064 -40.54258,-47.0777 -37.16404,-69.284 3.37855,-22.2064 18.01893,-47.9659 18.01893,-47.9659 z"
       id="path271"
       inkscape:connector-curvature="0" />
    <path
       style="fill:#ffffff;fill-rule:evenodd;stroke:none;stroke-width:1px;stroke-linecap:butt;stroke-linejoin:miter;stroke-opacity:1"
       d="m 549.40558,2567.868 c 0,0 -6.17962,40.1675 -4.9437,48.819 1.23593,8.6515 12.35924,48.201 19.77478,58.0884 -19.15682,-22.2466 -31.51605,-51.2908 -33.9879,-61.1782 -2.47184,-9.8874 -1.23592,-50.0549 -1.23592,-50.0549 z"
       id="path273"
       inkscape:connector-curvature="0" />
    <path
       style="fill:#ffffff;fill-rule:evenodd;stroke:none;stroke-width:1px;stroke-linecap:butt;stroke-linejoin:miter;stroke-opacity:1"
       d="m 874.10689,2397.2192 c 36.95412,-5.6852 28.42624,7.8173 60.40576,7.1066 31.97953,-0.7106 97.35985,-7.8172 112.99435,-14.2131 8.5278,-3.5533 9.2385,2.132 9.2385,2.132 0,0 26.2943,1.4213 31.2689,2.8426 4.9745,1.4213 24.1623,10.6598 31.2688,8.5279 7.1066,-2.132 19.1877,-5.6853 19.1877,-5.6853 0,0 -0.7106,47.614 -1.4213,51.1672 -0.7106,3.5533 -5.6852,30.5582 -5.6852,39.7968 0,9.2385 4.2639,23.4516 3.5532,27.7156 -0.7106,4.2639 9.2386,14.9237 9.2386,14.9237 l -27.005,0.7107 -18.477,2.132 -7.8172,-2.132 -33.4009,2.8426 -19.1877,0.7107 1.4213,-4.264 -82.43605,4.264 3.55328,-6.3959 -28.42624,1.4213 -10.65984,6.3959 -3.55328,-5.6853 -24.16231,0.7107 -12.79181,6.3959 7.10656,-13.5025 -10.65984,-7.8172 -2.13196,-104.4664 6.3959,-4.264 z"
       id="path275"
       inkscape:connector-curvature="0" />
    <path
       style="fill:#ffffff;fill-rule:evenodd;stroke:none;stroke-width:1px;stroke-linecap:butt;stroke-linejoin:miter;stroke-opacity:1"
       d="m 1118.5743,2437.016 c 32.7805,-4.9746 54.6342,9.2385 62.6473,7.8172 8.0131,-1.4213 34.2376,-10.6598 42.979,-9.9492 8.7415,0.7107 64.1044,8.5279 80.8588,5.6853 16.7545,-2.8427 53.9059,0 59.7336,-0.7107 5.8275,-0.7106 29.1382,-14.2131 35.6944,-14.2131 6.5561,0 17.4829,6.3959 41.5221,-9.2385 -10.1985,18.477 -16.0261,31.2688 -16.0261,31.2688 0,0 25.496,-7.1065 35.6943,-7.1065 10.1985,0 18.2116,3.5532 23.3107,1.4213 5.0992,-2.132 32.7806,-2.8426 37.1514,-2.8426 4.3708,0 15.2975,-3.5533 20.3968,-3.5533 5.0992,0 51.7205,4.2639 58.2766,4.2639 6.5561,0 67.7465,-7.1066 74.3026,-7.1066 6.5561,0 36.4229,2.132 48.8068,-2.8426 1.4568,14.2131 -2.9139,48.3246 -2.9139,56.1418 0,7.8173 0.7284,17.7664 0.7284,24.1624 -10.9268,7.1065 -18.94,21.3196 -18.94,21.3196 0,0 18.2116,3.5533 23.3107,0.7107 5.0992,-2.8426 2.1854,52.5885 2.9139,63.2484 0.7285,10.6598 -8.7415,0.7106 -8.7415,0.7106 0,0 -1.4569,7.8172 -7.2846,9.2386 -5.8276,1.4213 -108.5401,-0.7107 -120.1954,-0.7107 -11.6554,0 -15.2977,3.5533 -15.2977,3.5533 h -50.2636 l -1.4569,-6.3959 -22.5821,4.2639 -30.5953,4.9746 -18.2114,3.5533 -10.1983,-2.8426 -50.2637,0.7106 -43.7074,1.4213 10.9268,-10.6598 -113.6393,7.8172 -52.449,1.4213 -48.0782,6.3959 -9.4699,-22.741 -5.0993,-49.0352 c 0,0 -2.9138,-13.5026 5.0993,-15.6345 8.013,-2.1319 -5.8277,-4.2639 -7.2846,-17.0557 -1.457,-12.7918 -5.8276,-45.482 -5.8276,-45.482 l 9.4699,-2.8426 -11.6553,-7.1066 z"
       id="path277"
       inkscape:connector-curvature="0" />
    <path
       style="fill:#ffffff;fill-rule:evenodd;stroke:none;stroke-width:0.99999994px;stroke-linecap:butt;stroke-linejoin:miter;stroke-opacity:1"
       d="m 1327.3521,2751.2587 c 32.6788,-36.3054 55.3539,-80.3905 55.3539,-94.0051 8.6697,12.9662 8.0028,10.373 8.0028,10.373 0,0 14.6721,-38.8987 14.0051,-62.8862 -0.6667,-23.9875 26.6766,-24.6358 30.0111,-19.4493 3.3345,5.1864 9.47,23.9875 9.47,23.9875 l -4.1347,13.6145 -4.0015,-3.2415 c 0,0 -15.3389,40.1952 -17.3397,44.7334 -2.0008,4.5382 -10.6705,23.9876 -10.6705,23.9876 l -2.6677,-11.6696 -14.6721,10.373 0.6669,16.2077 -8.003,-7.1314 c 0,0 -0.6667,9.7247 -4.0014,14.9112 -3.3346,5.1864 -24.0089,27.8774 -26.6765,31.1189 -2.6676,3.2415 -25.3427,9.0763 -25.3427,9.0763 z"
       id="path279"
       inkscape:connector-curvature="0" />
    <path
       style="fill:#ffffff;fill-rule:evenodd;stroke:none;stroke-width:0.98244917px;stroke-linecap:butt;stroke-linejoin:miter;stroke-opacity:1"
       d="m 1818.6498,2412.2786 8.4835,7.102 43.0983,-4.1712 8.6188,-8.0754 c 0,0 19.1528,8.0754 24.8987,5.3837 5.7459,-2.6919 28.7292,-4.4864 28.7292,-4.4864 l 8.6188,7.1781 21.0682,-2.6917 c 0,0 48.8398,7.1781 60.3314,6.2808 11.4918,-0.8972 31.6023,-9.8699 31.6023,-9.8699 0,0 39.2635,9.8699 45.0092,8.0754 5.7458,-1.7946 16.2799,-2.6917 16.2799,-2.6917 l 12.4494,19.7399 c 0,0 24.8987,-18.8428 24.8987,-27.8154 16.28,-0.8974 38.3057,0 42.1363,-1.7946 3.8306,-1.7945 5.7459,10.7672 5.7459,10.7672 l 11.4917,6.2809 c 0,0 28.7292,-8.5706 31.6022,-12.1596 2.8729,-3.5892 22.0257,-2.692 22.0257,-2.692 0,0 26.814,0.8973 30.6446,0 3.8305,-0.8972 20.1105,0.8973 34.4753,1.7945 14.3645,0.8975 28.7292,0.8975 39.2633,-2.6917 2.8729,15.2536 0,58.8179 -0.9578,65.0988 -10.5341,15.2535 -11.1494,28.0103 -19.7681,33.3939 22.9834,-10.7674 13.0647,1.5996 21.6833,-5.5785 -0.9574,22.4319 -8.6186,69.9871 -9.5763,75.3708 15.3224,-11.6645 13.4071,-8.9727 11.4918,-4.4863 -1.9155,4.4863 -7.6612,17.9454 -9.5765,28.7125 -1.9153,10.7673 0,24.2264 -1.9153,31.4046 -1.9152,7.1782 -3.8304,17.0482 -3.8304,17.0482 0,0 -38.3059,10.7672 -45.0093,12.5618 -6.7036,1.7945 -66.0774,1.7945 -81.3997,1.7945 -15.3223,0 -38.3057,2.6918 -48.8397,1.7945 5.7458,-9.8699 9.5764,-17.0481 9.5764,-17.0481 0,0 -47.8822,4.4863 -59.3739,6.281 -11.4918,1.7945 -59.3739,-8.0755 -69.908,-7.1782 -10.534,0.8972 -68.9502,2.6917 -84.2725,3.589 -15.3222,0.8972 -53.628,2.6918 -67.9927,5.3837 -14.3644,2.6917 -57.4585,4.4862 -67.0349,4.4862 -9.5765,0 -27.7717,0.8974 -27.7717,0.8974 0,0 -1.9152,-32.3017 -1.9152,-43.9663 0,-11.6645 -4.7883,-69.0899 -0.9577,-75.3708 3.8305,-6.281 6.7035,-50.2473 6.7035,-54.7335 0,-4.4864 -9.0354,-39.0019 -9.0354,-39.0019 z"
       id="path283"
       inkscape:connector-curvature="0"
       sodipodi:nodetypes="ccccscccccsccccccccccccccccccccscccccsscssscc" />
    <path
       style="fill:#ffffff;fill-rule:evenodd;stroke:none;stroke-width:0.99999994px;stroke-linecap:butt;stroke-linejoin:miter;stroke-opacity:1"
       d="m 1928.0456,2823.3741 c -13.1433,-30.6118 9.2927,-109.1953 20.1114,-126.6745 0,-10.6243 -4.641,-22.8831 -4.641,-22.8831 0,0 -11.6028,4.9035 -14.6968,10.6243 -3.0941,5.7208 13.1497,-34.3247 22.4319,-40.8627 9.2823,-6.538 -6.9616,-37.5937 -6.9616,-37.5937 0,0 -31.7143,26.1521 -33.2613,37.5937 -1.547,11.4416 -10.0557,70.2839 -6.1881,80.9082 3.8676,10.6243 6.1881,4.9035 9.2821,0.8172 3.0942,-4.0862 11.6029,-12.2588 16.244,-15.5278 -7.7353,19.6141 -20.1115,84.1772 -2.3206,113.5984 z"
       id="path285"
       inkscape:connector-curvature="0"
       sodipodi:nodetypes="ccccccssccc" />
  </g>
  <g
     inkscape:groupmode="layer"
     id="layer1"
     inkscape:label="txt">
    <text
       xml:space="preserve"
       style="font-style:normal;font-variant:normal;font-weight:normal;font-stretch:normal;line-height:0%;font-family:Lavi;-inkscape-font-specification:Lavi;text-align:center;letter-spacing:0px;word-spacing:0px;text-anchor:middle;fill:#000000;fill-opacity:1;stroke:none"
       x="1407.3555"
       y="1524.687"
       id="text4246"><tspan
         sodipodi:role="line"
         style="font-size:45px;line-height:1.20000005"
         x="1407.3555"
         y="1524.687"
         id="tspan18">Ymmärrätte pian,</tspan><tspan
         sodipodi:role="line"
         style="font-size:45px;line-height:1.20000005"
         x="1407.3555"
         y="1578.687"
         id="tspan20">miksi halusin</tspan><tspan
         sodipodi:role="line"
         style="font-size:45px;line-height:1.20000005"
         x="1407.3555"
         y="1632.687"
         id="tspan794">rakentaa sen.</tspan></text>
    <text
       xml:space="preserve"
       style="font-style:normal;font-variant:normal;font-weight:normal;font-stretch:normal;line-height:0%;font-family:Lavi;-inkscape-font-specification:Lavi;text-align:center;letter-spacing:0px;word-spacing:0px;text-anchor:middle;fill:#000000;fill-opacity:1;stroke:none"
       x="2131.5459"
       y="1871.7672"
       id="text4246-3"><tspan
         sodipodi:role="line"
         style="font-size:45px;line-height:1.20000005"
         x="2131.5459"
         y="1871.7672"
         id="tspan66">Se liittyy</tspan><tspan
         sodipodi:role="line"
         style="font-size:45px;line-height:1.20000005"
         x="2131.5459"
         y="1925.7672"
         id="tspan78">kruunajaisia koh-</tspan><tspan
         sodipodi:role="line"
         style="font-size:45px;line-height:1.20000005"
         x="2131.5459"
         y="1979.7672"
         id="tspan82">taan tuntemaani</tspan><tspan
         sodipodi:role="line"
         style="font-size:45px;line-height:1.20000005"
         x="2131.5459"
         y="2033.7672"
         id="tspan80">huoleen.</tspan></text>
    <text
       xml:space="preserve"
       style="font-style:normal;font-variant:normal;font-weight:normal;font-stretch:normal;line-height:0%;font-family:Lavi;-inkscape-font-specification:Lavi;text-align:center;letter-spacing:0px;word-spacing:0px;text-anchor:middle;fill:#000000;fill-opacity:1;stroke:none"
       x="479.49512"
       y="2479.6465"
       id="text4246-3-3"><tspan
         sodipodi:role="line"
         style="font-size:45px;line-height:1.20000005"
         x="479.49512"
         y="2479.6465"
         id="tspan65-1">Saanko esitellä</tspan><tspan
         sodipodi:role="line"
         style="font-size:45px;line-height:1.20000005"
         x="479.49512"
         y="2533.6465"
         id="tspan113">uuden keksintöni ...</tspan></text>
    <text
       xml:space="preserve"
       style="font-style:normal;font-variant:normal;font-weight:normal;font-stretch:normal;line-height:0%;font-family:Lavi;-inkscape-font-specification:Lavi;text-align:center;letter-spacing:0px;word-spacing:0px;text-anchor:middle;fill:#000000;fill-opacity:1;stroke:none"
       x="1019.5582"
       y="2462.7529"
       id="text4246-3-3-2"><tspan
         sodipodi:role="line"
         style="font-style:normal;font-variant:normal;font-weight:normal;font-stretch:normal;font-size:32px;line-height:1.39999998;font-family:'Press Start 2P';-inkscape-font-specification:'Press Start 2P'"
         x="1035.5581"
         y="2462.7529"
         id="tspan113-9">Hello  </tspan><tspan
         sodipodi:role="line"
         style="font-style:normal;font-variant:normal;font-weight:normal;font-stretch:normal;font-size:32px;line-height:1.39999998;font-family:'Press Start 2P';-inkscape-font-specification:'Press Start 2P'"
         x="1019.5582"
         y="2507.553"
         id="tspan144">world.</tspan></text>
    <text
       xml:space="preserve"
       style="font-style:normal;font-variant:normal;font-weight:normal;font-stretch:normal;font-size:10.14965248px;line-height:0%;font-family:Lavi;-inkscape-font-specification:Lavi;text-align:center;letter-spacing:0px;word-spacing:0px;text-anchor:middle;fill:#000000;fill-opacity:1;stroke:none;stroke-width:1"
       x="1426.1445"
       y="2474.7065"
       id="text4246-3-3-2-2"
       transform="scale(0.98942807,1.0106849)"><tspan
         sodipodi:role="line"
         style="font-style:normal;font-variant:normal;font-weight:normal;font-stretch:normal;font-size:27.06574249px;line-height:1.39999998;font-family:'Press Start 2P';-inkscape-font-specification:'Press Start 2P';stroke-width:1"
         x="1439.6774"
         y="2474.7065"
         id="tspan144-3">Olen teidän </tspan><tspan
         sodipodi:role="line"
         style="font-style:normal;font-variant:normal;font-weight:normal;font-stretch:normal;font-size:27.06574249px;line-height:1.39999998;font-family:'Press Start 2P';-inkscape-font-specification:'Press Start 2P';stroke-width:1"
         x="1426.1445"
         y="2512.5986"
         id="tspan169"> ROBOTTI-PSYKOLOGINNE</tspan><tspan
         sodipodi:role="line"
         style="font-style:normal;font-variant:normal;font-weight:normal;font-stretch:normal;font-size:27.06574249px;line-height:1.39999998;font-family:'Press Start 2P';-inkscape-font-specification:'Press Start 2P';stroke-width:1"
         x="1426.1445"
         y="2550.4907"
         id="tspan171">biip, biip!</tspan></text>
    <text
       xml:space="preserve"
       style="font-style:normal;font-variant:normal;font-weight:normal;font-stretch:normal;font-size:11.32227993px;line-height:0%;font-family:Lavi;-inkscape-font-specification:Lavi;text-align:center;letter-spacing:0px;word-spacing:0px;text-anchor:middle;fill:#000000;fill-opacity:1;stroke:none;stroke-width:1"
       x="2287.8562"
       y="2272.2888"
       id="text4246-3-3-2-2-7"
       transform="scale(0.91459578,1.0933792)"><tspan
         sodipodi:role="line"
         style="font-style:normal;font-variant:normal;font-weight:normal;font-stretch:normal;font-size:30.19274521px;line-height:1.29999995;font-family:'Press Start 2P';-inkscape-font-specification:'Press Start 2P';stroke-width:1"
         x="2302.9526"
         y="2272.2888"
         id="tspan204">Olkaa hyvä ja </tspan><tspan
         sodipodi:role="line"
         style="font-style:normal;font-variant:normal;font-weight:normal;font-stretch:normal;font-size:30.19274521px;line-height:1.29999995;font-family:'Press Start 2P';-inkscape-font-specification:'Press Start 2P';stroke-width:1"
         x="2302.9526"
         y="2311.5393"
         id="tspan100">asettukaa makuulle  </tspan><tspan
         sodipodi:role="line"
         style="font-style:normal;font-variant:normal;font-weight:normal;font-stretch:normal;font-size:30.19274521px;line-height:1.29999995;font-family:'Press Start 2P';-inkscape-font-specification:'Press Start 2P';stroke-width:1"
         x="2287.8562"
         y="2350.79"
         id="tspan208">sohvalleni ilmaista</tspan><tspan
         sodipodi:role="line"
         style="font-style:normal;font-variant:normal;font-weight:normal;font-stretch:normal;font-size:30.19274521px;line-height:1.29999995;font-family:'Press Start 2P';-inkscape-font-specification:'Press Start 2P';stroke-width:1"
         x="2302.9526"
         y="2390.0405"
         id="tspan107">tutkimusta varten.  </tspan></text>
    <text
       xml:space="preserve"
       style="font-style:normal;font-variant:normal;font-weight:normal;font-stretch:normal;line-height:0%;font-family:Lavi;-inkscape-font-specification:Lavi;letter-spacing:0px;word-spacing:0px;fill:#000000;fill-opacity:1;stroke:#000000;stroke-width:2.15795588;stroke-miterlimit:4;stroke-dasharray:none;stroke-opacity:1;filter:url(#filter4375-4-1-1-1-9)"
       x="787.65729"
       y="1584.5073"
       id="text4580"
       transform="matrix(0.46879428,-0.12606586,-0.08654633,0.61214652,623.13411,2085.4411)"><tspan
         sodipodi:role="line"
         id="tspan4582"
         x="787.65729"
         y="1584.5073"
         style="font-style:normal;font-variant:normal;font-weight:bold;font-stretch:normal;font-size:80.40014648px;line-height:1.25;font-family:Lavi;-inkscape-font-specification:'Lavi Bold';fill:#ffffff;stroke-width:2.15795588">Klik!</tspan></text>
    <text
       xml:space="preserve"
       style="font-style:normal;font-variant:normal;font-weight:normal;font-stretch:normal;line-height:0%;font-family:Lavi;-inkscape-font-specification:Lavi;letter-spacing:0px;word-spacing:0px;fill:#000000;fill-opacity:1;stroke:#000000;stroke-width:2.15795588;stroke-miterlimit:4;stroke-dasharray:none;stroke-opacity:1;filter:url(#filter4375-4-1-1-1-9-5)"
       x="787.65729"
       y="1584.5073"
       id="text4580-4"
       transform="matrix(0.46879428,-0.12606586,-0.08654633,0.61214652,2027.5227,1975.6976)"><tspan
         sodipodi:role="line"
         id="tspan4582-7"
         x="787.65729"
         y="1584.5073"
         style="font-style:normal;font-variant:normal;font-weight:bold;font-stretch:normal;font-size:80.40014648px;line-height:1.25;font-family:Lavi;-inkscape-font-specification:'Lavi Bold';fill:#ffffff;stroke-width:2.15795588">Tap!</tspan></text>
  </g>
</svg>
